%!PS-Adobe-3.0 EPSF-3.0
%%BoundingBox:  36 126 576 666
%%Title:  Triangulation
%%Creator:  STRIPACK
%%EndComments
    2.000000 setlinewidth
306 396 238 0 360 arc
stroke
  306.000000  396.000000 translate
  238.000000  238.000000 scale
    0.004202 setlinewidth
gsave
0 0     1.000000 0 360 arc
clip newpath
   -0.276935   -0.958190 moveto   -0.209143   -0.976318 lineto
   -0.276935   -0.958190 moveto   -0.233213   -0.965527 lineto
   -0.276935   -0.958190 moveto   -0.291097   -0.946279 lineto
   -0.276935   -0.958190 moveto   -0.338239   -0.936531 lineto
   -0.276935   -0.958190 moveto   -0.321842   -0.946475 lineto
   -0.276935   -0.958190 moveto   -0.257851   -0.966139 lineto
   -0.619138   -0.729042 moveto   -0.639927   -0.738093 lineto
   -0.619138   -0.729042 moveto   -0.578807   -0.777544 lineto
   -0.619138   -0.729042 moveto   -0.550965   -0.771854 lineto
   -0.619138   -0.729042 moveto   -0.587144   -0.721806 lineto
   -0.619138   -0.729042 moveto   -0.656701   -0.674092 lineto
   -0.619138   -0.729042 moveto   -0.684264   -0.681698 lineto
    0.672029   -0.599091 moveto    0.596889   -0.660289 lineto
    0.672029   -0.599091 moveto    0.637943   -0.664509 lineto
    0.672029   -0.599091 moveto    0.691712   -0.634739 lineto
    0.672029   -0.599091 moveto    0.736332   -0.562778 lineto
    0.672029   -0.599091 moveto    0.728599   -0.512292 lineto
    0.672029   -0.599091 moveto    0.669000   -0.543298 lineto
    0.672029   -0.599091 moveto    0.610264   -0.603102 lineto
    0.321201   -0.926083 moveto    0.394925   -0.897959 lineto
    0.321201   -0.926083 moveto    0.348897   -0.902076 lineto
    0.321201   -0.926083 moveto    0.280990   -0.927227 lineto
    0.321201   -0.926083 moveto    0.254833   -0.948888 lineto
    0.321201   -0.926083 moveto    0.294109   -0.946216 lineto
    0.321201   -0.926083 moveto    0.354560   -0.923252 lineto
    0.271759   -0.680506 moveto    0.338845   -0.639457 lineto
    0.271759   -0.680506 moveto    0.272079   -0.608820 lineto
    0.271759   -0.680506 moveto    0.201022   -0.661739 lineto
    0.271759   -0.680506 moveto    0.206770   -0.723527 lineto
    0.271759   -0.680506 moveto    0.275780   -0.737923 lineto
    0.271759   -0.680506 moveto    0.342883   -0.697902 lineto
    0.106050   -0.907733 moveto    0.037282   -0.911679 lineto
    0.106050   -0.907733 moveto    0.070824   -0.933859 lineto
    0.106050   -0.907733 moveto    0.137385   -0.925810 lineto
    0.106050   -0.907733 moveto    0.187919   -0.894936 lineto
    0.106050   -0.907733 moveto    0.140936   -0.881299 lineto
    0.106050   -0.907733 moveto    0.073093   -0.880245 lineto
   -0.558610    0.809794 moveto   -0.296162    0.949442 lineto
   -0.558610    0.809794 moveto   -0.517295    0.855807 lineto
   -0.558610    0.809794 moveto   -0.695457    0.718568 lineto
   -0.558610    0.809794 moveto   -0.748969    0.622216 lineto
   -0.558610    0.809794 moveto   -0.602200    0.681605 lineto
   -0.558610    0.809794 moveto   -0.374231    0.843730 lineto
   -0.006483   -0.737350 moveto   -0.053120   -0.781640 lineto
   -0.006483   -0.737350 moveto    0.017278   -0.782161 lineto
   -0.006483   -0.737350 moveto    0.073604   -0.747912 lineto
   -0.006483   -0.737350 moveto    0.053029   -0.696053 lineto
   -0.006483   -0.737350 moveto   -0.033231   -0.686120 lineto
   -0.006483   -0.737350 moveto   -0.085852   -0.732947 lineto
    0.504201   -0.862947 moveto    0.561895   -0.824988 lineto
    0.504201   -0.862947 moveto    0.512785   -0.851358 lineto
    0.504201   -0.862947 moveto    0.455722   -0.886927 lineto
    0.504201   -0.862947 moveto    0.442622   -0.896695 lineto
    0.504201   -0.862947 moveto    0.497849   -0.867264 lineto
    0.504201   -0.862947 moveto    0.536062   -0.844179 lineto
   -0.207701   -0.766793 moveto   -0.128997   -0.775342 lineto
   -0.207701   -0.766793 moveto   -0.165782   -0.724966 lineto
   -0.207701   -0.766793 moveto   -0.244353   -0.716598 lineto
   -0.207701   -0.766793 moveto   -0.291725   -0.751149 lineto
   -0.207701   -0.766793 moveto   -0.230779   -0.803921 lineto
   -0.207701   -0.766793 moveto   -0.157788   -0.813377 lineto
   -0.414170   -0.877513 moveto   -0.411989   -0.893792 lineto
   -0.414170   -0.877513 moveto   -0.357695   -0.905707 lineto
   -0.414170   -0.877513 moveto   -0.371742   -0.878870 lineto
   -0.414170   -0.877513 moveto   -0.447446   -0.847303 lineto
   -0.414170   -0.877513 moveto   -0.472847   -0.856496 lineto
    0.624372    0.672981 moveto    0.501348    0.838489 lineto
    0.624372    0.672981 moveto    0.392695    0.792114 lineto
    0.624372    0.672981 moveto    0.515642    0.606480 lineto
    0.624372    0.672981 moveto    0.699256    0.485889 lineto
    0.624372    0.672981 moveto    0.792604    0.516254 lineto
    0.624372    0.672981 moveto    0.721771    0.672332 lineto
   -0.345210   -0.555459 moveto   -0.340564   -0.623642 lineto
   -0.345210   -0.555459 moveto   -0.255613   -0.597284 lineto
   -0.345210   -0.555459 moveto   -0.278628   -0.516841 lineto
   -0.345210   -0.555459 moveto   -0.364878   -0.470497 lineto
   -0.345210   -0.555459 moveto   -0.431630   -0.506775 lineto
   -0.345210   -0.555459 moveto   -0.417317   -0.583633 lineto
   -0.261638   -0.221682 moveto   -0.360025   -0.271002 lineto
   -0.261638   -0.221682 moveto   -0.261161   -0.338246 lineto
   -0.261638   -0.221682 moveto   -0.156709   -0.280811 lineto
   -0.261638   -0.221682 moveto   -0.165384   -0.153973 lineto
   -0.261638   -0.221682 moveto   -0.272796   -0.078780 lineto
   -0.261638   -0.221682 moveto   -0.364789   -0.151102 lineto
    0.152795   -0.524817 moveto    0.182687   -0.598154 lineto
    0.152795   -0.524817 moveto    0.239760   -0.535653 lineto
    0.152795   -0.524817 moveto    0.221662   -0.453894 lineto
    0.152795   -0.524817 moveto    0.123689   -0.443206 lineto
    0.152795   -0.524817 moveto    0.059377   -0.512724 lineto
    0.152795   -0.524817 moveto    0.090756   -0.585959 lineto
   -0.675024   -0.531313 moveto   -0.711240   -0.425413 lineto
   -0.675024   -0.531313 moveto   -0.735728   -0.472280 lineto
   -0.675024   -0.531313 moveto   -0.720165   -0.543765 lineto
   -0.675024   -0.531313 moveto   -0.649856   -0.602960 lineto
   -0.675024   -0.531313 moveto   -0.603639   -0.587153 lineto
   -0.675024   -0.531313 moveto   -0.633599   -0.509403 lineto
    0.740032   -0.031438 moveto    0.646225   -0.102936 lineto
    0.740032   -0.031438 moveto    0.728314   -0.166894 lineto
    0.740032   -0.031438 moveto    0.808753   -0.117896 lineto
    0.740032   -0.031438 moveto    0.826037    0.024136 lineto
    0.740032   -0.031438 moveto    0.745850    0.126233 lineto
    0.740032   -0.031438 moveto    0.650639    0.053607 lineto
    0.083272   -0.968559 moveto    0.108532   -0.949904 lineto
    0.083272   -0.968559 moveto    0.042552   -0.955400 lineto
    0.083272   -0.968559 moveto    0.016087   -0.972043 lineto
    0.083272   -0.968559 moveto    0.055504   -0.982341 lineto
    0.083272   -0.968559 moveto    0.124613   -0.976770 lineto
    0.083272   -0.968559 moveto    0.148189   -0.961137 lineto
    0.834121    0.180290 moveto    0.745850    0.126233 lineto
    0.834121    0.180290 moveto    0.826037    0.024136 lineto
    0.834121    0.180290 moveto    0.900295    0.063044 lineto
    0.834121    0.180290 moveto    0.910698    0.196974 lineto
    0.834121    0.180290 moveto    0.828527    0.344546 lineto
    0.834121    0.180290 moveto    0.734912    0.301167 lineto
   -0.338239   -0.936531 moveto   -0.291097   -0.946279 lineto
   -0.338239   -0.936531 moveto   -0.349990   -0.922810 lineto
   -0.338239   -0.936531 moveto   -0.399392   -0.910113 lineto
   -0.338239   -0.936531 moveto   -0.383689   -0.922519 lineto
   -0.338239   -0.936531 moveto   -0.321842   -0.946475 lineto
   -0.281546    0.077991 moveto   -0.390994   -0.002866 lineto
   -0.281546    0.077991 moveto   -0.272796   -0.078780 lineto
   -0.281546    0.077991 moveto   -0.159758   -0.009240 lineto
   -0.281546    0.077991 moveto   -0.149129    0.157580 lineto
   -0.281546    0.077991 moveto   -0.290062    0.245562 lineto
   -0.281546    0.077991 moveto   -0.427468    0.142402 lineto
   -0.405488   -0.782893 moveto   -0.359105   -0.766065 lineto
   -0.405488   -0.782893 moveto   -0.431487   -0.732628 lineto
   -0.405488   -0.782893 moveto   -0.477281   -0.749301 lineto
   -0.405488   -0.782893 moveto   -0.447089   -0.797185 lineto
   -0.405488   -0.782893 moveto   -0.377645   -0.826464 lineto
   -0.405488   -0.782893 moveto   -0.333769   -0.816325 lineto
    0.145107   -0.809535 moveto    0.139156   -0.849780 lineto
    0.145107   -0.809535 moveto    0.208107   -0.821333 lineto
    0.145107   -0.809535 moveto    0.210471   -0.775884 lineto
    0.145107   -0.809535 moveto    0.142504   -0.762863 lineto
    0.145107   -0.809535 moveto    0.078160   -0.798778 lineto
    0.145107   -0.809535 moveto    0.077077   -0.838976 lineto
   -0.813379    0.196322 moveto   -0.908078    0.125420 lineto
   -0.813379    0.196322 moveto   -0.839712    0.060540 lineto
   -0.813379    0.196322 moveto   -0.753395    0.039994 lineto
   -0.813379    0.196322 moveto   -0.705578    0.205677 lineto
   -0.813379    0.196322 moveto   -0.737708    0.357884 lineto
   -0.813379    0.196322 moveto   -0.857668    0.304242 lineto
    0.381564   -0.840419 moveto    0.317076   -0.871074 lineto
    0.381564   -0.840419 moveto    0.366149   -0.873641 lineto
    0.381564   -0.840419 moveto    0.430790   -0.840978 lineto
    0.381564   -0.840419 moveto    0.446894   -0.804218 lineto
    0.381564   -0.840419 moveto    0.393336   -0.802585 lineto
    0.381564   -0.840419 moveto    0.326249   -0.837461 lineto
   -0.496179   -0.537665 moveto   -0.431630   -0.506775 lineto
   -0.496179   -0.537665 moveto   -0.514013   -0.452203 lineto
   -0.496179   -0.537665 moveto   -0.573043   -0.487562 lineto
   -0.496179   -0.537665 moveto   -0.555066   -0.564080 lineto
   -0.496179   -0.537665 moveto   -0.476816   -0.611226 lineto
   -0.496179   -0.537665 moveto   -0.417317   -0.583633 lineto
    0.142504   -0.762863 moveto    0.210471   -0.775884 lineto
    0.142504   -0.762863 moveto    0.206770   -0.723527 lineto
    0.142504   -0.762863 moveto    0.135058   -0.707740 lineto
    0.142504   -0.762863 moveto    0.073604   -0.747912 lineto
    0.142504   -0.762863 moveto    0.078160   -0.798778 lineto
   -0.788310   -0.209476 moveto   -0.757519   -0.323542 lineto
   -0.788310   -0.209476 moveto   -0.713544   -0.242221 lineto
   -0.788310   -0.209476 moveto   -0.737000   -0.113821 lineto
   -0.788310   -0.209476 moveto   -0.815547   -0.076257 lineto
   -0.788310   -0.209476 moveto   -0.853507   -0.173120 lineto
   -0.788310   -0.209476 moveto   -0.825832   -0.292179 lineto
   -0.760123    0.493905 moveto   -0.737708    0.357884 lineto
   -0.760123    0.493905 moveto   -0.610097    0.524431 lineto
   -0.760123    0.493905 moveto   -0.602200    0.681605 lineto
   -0.760123    0.493905 moveto   -0.748969    0.622216 lineto
   -0.760123    0.493905 moveto   -0.869699    0.424186 lineto
   -0.760123    0.493905 moveto   -0.857668    0.304242 lineto
    0.326249   -0.837461 moveto    0.393336   -0.802585 lineto
    0.326249   -0.837461 moveto    0.336102   -0.796719 lineto
    0.326249   -0.837461 moveto    0.269817   -0.830325 lineto
    0.326249   -0.837461 moveto    0.258404   -0.868011 lineto
    0.326249   -0.837461 moveto    0.317076   -0.871074 lineto
   -0.048505   -0.097283 moveto    0.082824   -0.159386 lineto
   -0.048505   -0.097283 moveto    0.061979   -0.038098 lineto
   -0.048505   -0.097283 moveto   -0.033934    0.058589 lineto
   -0.048505   -0.097283 moveto   -0.159758   -0.009240 lineto
   -0.048505   -0.097283 moveto   -0.165384   -0.153973 lineto
   -0.048505   -0.097283 moveto   -0.057134   -0.217186 lineto
   -0.417317   -0.583633 moveto   -0.476816   -0.611226 lineto
   -0.417317   -0.583633 moveto   -0.398894   -0.653705 lineto
   -0.417317   -0.583633 moveto   -0.340564   -0.623642 lineto
   -0.417317   -0.583633 moveto   -0.431630   -0.506775 lineto
    0.342883   -0.697902 moveto    0.275780   -0.737923 lineto
    0.342883   -0.697902 moveto    0.341431   -0.750418 lineto
    0.342883   -0.697902 moveto    0.410682   -0.710487 lineto
    0.342883   -0.697902 moveto    0.414185   -0.658979 lineto
    0.342883   -0.697902 moveto    0.338845   -0.639457 lineto
    0.618801   -0.530069 moveto    0.669000   -0.543298 lineto
    0.618801   -0.530069 moveto    0.700334   -0.461466 lineto
    0.618801   -0.530069 moveto    0.626329   -0.456619 lineto
    0.618801   -0.530069 moveto    0.548981   -0.521827 lineto
    0.618801   -0.530069 moveto    0.553475   -0.594609 lineto
    0.618801   -0.530069 moveto    0.610264   -0.603102 lineto
    0.561834   -0.332127 moveto    0.568295   -0.425831 lineto
    0.561834   -0.332127 moveto    0.636952   -0.349892 lineto
    0.561834   -0.332127 moveto    0.645292   -0.236608 lineto
    0.561834   -0.332127 moveto    0.557708   -0.230347 lineto
    0.561834   -0.332127 moveto    0.471483   -0.311169 lineto
    0.561834   -0.332127 moveto    0.481962   -0.404173 lineto
    0.430790   -0.840978 moveto    0.366149   -0.873641 lineto
    0.430790   -0.840978 moveto    0.410239   -0.873022 lineto
    0.430790   -0.840978 moveto    0.475734   -0.838106 lineto
    0.430790   -0.840978 moveto    0.495523   -0.803099 lineto
    0.430790   -0.840978 moveto    0.446894   -0.804218 lineto
   -0.607492   -0.793688 moveto   -0.548848   -0.835693 lineto
   -0.607492   -0.793688 moveto   -0.563268   -0.820994 lineto
   -0.607492   -0.793688 moveto   -0.617641   -0.779853 lineto
   -0.607492   -0.793688 moveto   -0.665291   -0.744402 lineto
   -0.607492   -0.793688 moveto   -0.635680   -0.771953 lineto
   -0.607492   -0.793688 moveto   -0.600958   -0.799280 lineto
    0.021445   -0.859231 moveto    0.073093   -0.880245 lineto
    0.021445   -0.859231 moveto    0.077077   -0.838976 lineto
    0.021445   -0.859231 moveto   -0.000813   -0.822933 lineto
    0.021445   -0.859231 moveto   -0.046878   -0.856453 lineto
    0.021445   -0.859231 moveto   -0.004564   -0.888745 lineto
   -0.073245   -0.982970 moveto   -0.010217   -0.984547 lineto
   -0.073245   -0.982970 moveto   -0.049989   -0.971871 lineto
   -0.073245   -0.982970 moveto   -0.115343   -0.967757 lineto
   -0.073245   -0.982970 moveto   -0.133437   -0.977666 lineto
   -0.073245   -0.982970 moveto   -0.102904   -0.989174 lineto
   -0.073245   -0.982970 moveto   -0.039400   -0.992832 lineto
   -0.271548    0.429885 moveto   -0.117402    0.329700 lineto
   -0.271548    0.429885 moveto   -0.061346    0.509605 lineto
   -0.271548    0.429885 moveto   -0.235141    0.618633 lineto
   -0.271548    0.429885 moveto   -0.442860    0.498873 lineto
   -0.271548    0.429885 moveto   -0.438504    0.318667 lineto
   -0.271548    0.429885 moveto   -0.290062    0.245562 lineto
   -0.383689   -0.922519 moveto   -0.399392   -0.910113 lineto
   -0.383689   -0.922519 moveto   -0.444953   -0.893559 lineto
   -0.383689   -0.922519 moveto   -0.418398   -0.908264 lineto
   -0.383689   -0.922519 moveto   -0.371815   -0.928307 lineto
   -0.383689   -0.922519 moveto   -0.321842   -0.946475 lineto
    0.221662   -0.453894 moveto    0.239760   -0.535653 lineto
    0.221662   -0.453894 moveto    0.316110   -0.460782 lineto
    0.221662   -0.453894 moveto    0.293418   -0.374773 lineto
    0.221662   -0.453894 moveto    0.189739   -0.363540 lineto
    0.221662   -0.453894 moveto    0.123689   -0.443206 lineto
    0.366149   -0.873641 moveto    0.317076   -0.871074 lineto
    0.366149   -0.873641 moveto    0.303364   -0.901155 lineto
    0.366149   -0.873641 moveto    0.348897   -0.902076 lineto
    0.366149   -0.873641 moveto    0.410239   -0.873022 lineto
    0.792215   -0.594014 moveto    0.844695   -0.512728 lineto
    0.792215   -0.594014 moveto    0.798497   -0.559171 lineto
    0.792215   -0.594014 moveto    0.745409   -0.633597 lineto
    0.792215   -0.594014 moveto    0.740202   -0.660792 lineto
    0.792215   -0.594014 moveto    0.781369   -0.621989 lineto
    0.792215   -0.594014 moveto    0.830025   -0.553301 lineto
    0.643147   -0.729323 moveto    0.691814   -0.670939 lineto
    0.643147   -0.729323 moveto    0.631855   -0.706413 lineto
    0.643147   -0.729323 moveto    0.592512   -0.758189 lineto
    0.643147   -0.729323 moveto    0.580162   -0.788293 lineto
    0.643147   -0.729323 moveto    0.632400   -0.757915 lineto
    0.643147   -0.729323 moveto    0.692804   -0.697469 lineto
    0.258404   -0.868011 moveto    0.269817   -0.830325 lineto
    0.258404   -0.868011 moveto    0.204148   -0.859351 lineto
    0.258404   -0.868011 moveto    0.187919   -0.894936 lineto
    0.258404   -0.868011 moveto    0.254678   -0.896498 lineto
    0.258404   -0.868011 moveto    0.317076   -0.871074 lineto
    0.371376   -0.294585 moveto    0.293418   -0.374773 lineto
    0.371376   -0.294585 moveto    0.392586   -0.393040 lineto
    0.371376   -0.294585 moveto    0.471483   -0.311169 lineto
    0.371376   -0.294585 moveto    0.453052   -0.207410 lineto
    0.371376   -0.294585 moveto    0.342982   -0.182534 lineto
    0.371376   -0.294585 moveto    0.264286   -0.275582 lineto
    0.721771    0.672332 moveto    0.792604    0.516254 lineto
    0.721771    0.672332 moveto    0.867803    0.484613 lineto
    0.721771    0.672332 moveto    0.770369    0.637598 lineto
    0.721771    0.672332 moveto    0.624609    0.780938 lineto
    0.721771    0.672332 moveto    0.501348    0.838489 lineto
    0.632400   -0.757915 moveto    0.580162   -0.788293 lineto
    0.632400   -0.757915 moveto    0.569696   -0.810516 lineto
    0.632400   -0.757915 moveto    0.619836   -0.779894 lineto
    0.632400   -0.757915 moveto    0.680836   -0.724407 lineto
    0.632400   -0.757915 moveto    0.692804   -0.697469 lineto
    0.165870   -0.979696 moveto    0.230834   -0.965220 lineto
    0.165870   -0.979696 moveto    0.189139   -0.966057 lineto
    0.165870   -0.979696 moveto    0.124613   -0.976770 lineto
    0.165870   -0.979696 moveto    0.091183   -0.988005 lineto
    0.165870   -0.979696 moveto    0.119814   -0.990089 lineto
    0.165870   -0.979696 moveto    0.162991   -0.986035 lineto
    0.165870   -0.979696 moveto    0.216996   -0.974389 lineto
    0.418114    0.051391 moveto    0.274148    0.081059 lineto
    0.418114    0.051391 moveto    0.316441   -0.058413 lineto
    0.418114    0.051391 moveto    0.437459   -0.085382 lineto
    0.418114    0.051391 moveto    0.547039   -0.001962 lineto
    0.418114    0.051391 moveto    0.526657    0.147258 lineto
    0.418114    0.051391 moveto    0.371978    0.205135 lineto
    0.756651   -0.353614 moveto    0.714342   -0.285193 lineto
    0.756651   -0.353614 moveto    0.689638   -0.389630 lineto
    0.756651   -0.353614 moveto    0.700334   -0.461466 lineto
    0.756651   -0.353614 moveto    0.772640   -0.421400 lineto
    0.756651   -0.353614 moveto    0.822421   -0.314696 lineto
    0.756651   -0.353614 moveto    0.788469   -0.240505 lineto
    0.294109   -0.946216 moveto    0.254833   -0.948888 lineto
    0.294109   -0.946216 moveto    0.230834   -0.965220 lineto
    0.294109   -0.946216 moveto    0.279605   -0.957438 lineto
    0.294109   -0.946216 moveto    0.343049   -0.935302 lineto
    0.294109   -0.946216 moveto    0.354560   -0.923252 lineto
   -0.447446   -0.847303 moveto   -0.371742   -0.878870 lineto
   -0.447446   -0.847303 moveto   -0.416448   -0.839257 lineto
   -0.447446   -0.847303 moveto   -0.483806   -0.806947 lineto
   -0.447446   -0.847303 moveto   -0.509810   -0.817220 lineto
   -0.447446   -0.847303 moveto   -0.472847   -0.856496 lineto
    0.016334    0.214456 moveto    0.122252    0.092073 lineto
    0.016334    0.214456 moveto    0.198846    0.231248 lineto
    0.016334    0.214456 moveto    0.084488    0.375504 lineto
    0.016334    0.214456 moveto   -0.117402    0.329700 lineto
    0.016334    0.214456 moveto   -0.149129    0.157580 lineto
    0.016334    0.214456 moveto   -0.033934    0.058589 lineto
    0.548981   -0.521827 moveto    0.626329   -0.456619 lineto
    0.548981   -0.521827 moveto    0.568295   -0.425831 lineto
    0.548981   -0.521827 moveto    0.497138   -0.477734 lineto
    0.548981   -0.521827 moveto    0.454851   -0.542150 lineto
    0.548981   -0.521827 moveto    0.488444   -0.593921 lineto
    0.548981   -0.521827 moveto    0.553475   -0.594609 lineto
    0.836834   -0.381016 moveto    0.772640   -0.421400 lineto
    0.836834   -0.381016 moveto    0.787606   -0.476358 lineto
    0.836834   -0.381016 moveto    0.841842   -0.436706 lineto
    0.836834   -0.381016 moveto    0.892061   -0.356928 lineto
    0.836834   -0.381016 moveto    0.882745   -0.285942 lineto
    0.836834   -0.381016 moveto    0.822421   -0.314696 lineto
    0.316441   -0.058413 moveto    0.274148    0.081059 lineto
    0.316441   -0.058413 moveto    0.187361   -0.045134 lineto
    0.316441   -0.058413 moveto    0.219886   -0.164934 lineto
    0.316441   -0.058413 moveto    0.342982   -0.182534 lineto
    0.316441   -0.058413 moveto    0.437459   -0.085382 lineto
    0.073604   -0.747912 moveto    0.135058   -0.707740 lineto
    0.073604   -0.747912 moveto    0.053029   -0.696053 lineto
    0.073604   -0.747912 moveto    0.017278   -0.782161 lineto
    0.073604   -0.747912 moveto    0.078160   -0.798778 lineto
   -0.483806   -0.806947 moveto   -0.416448   -0.839257 lineto
   -0.483806   -0.806947 moveto   -0.447089   -0.797185 lineto
   -0.483806   -0.806947 moveto   -0.517639   -0.761700 lineto
   -0.483806   -0.806947 moveto   -0.550965   -0.771854 lineto
   -0.483806   -0.806947 moveto   -0.509810   -0.817220 lineto
    0.401252    0.500011 moveto    0.515642    0.606480 lineto
    0.401252    0.500011 moveto    0.279530    0.681748 lineto
    0.401252    0.500011 moveto    0.173631    0.535840 lineto
    0.401252    0.500011 moveto    0.292650    0.370965 lineto
    0.401252    0.500011 moveto    0.480838    0.317129 lineto
    0.401252    0.500011 moveto    0.592268    0.412703 lineto
    0.453052   -0.207410 moveto    0.471483   -0.311169 lineto
    0.453052   -0.207410 moveto    0.557708   -0.230347 lineto
    0.453052   -0.207410 moveto    0.544174   -0.126334 lineto
    0.453052   -0.207410 moveto    0.437459   -0.085382 lineto
    0.453052   -0.207410 moveto    0.342982   -0.182534 lineto
    0.316110   -0.460782 moveto    0.239760   -0.535653 lineto
    0.316110   -0.460782 moveto    0.318598   -0.535787 lineto
    0.316110   -0.460782 moveto    0.406059   -0.483195 lineto
    0.316110   -0.460782 moveto    0.392586   -0.393040 lineto
    0.316110   -0.460782 moveto    0.293418   -0.374773 lineto
    0.392695    0.792114 moveto    0.501348    0.838489 lineto
    0.392695    0.792114 moveto    0.221319    0.937892 lineto
    0.392695    0.792114 moveto    0.113792    0.840385 lineto
    0.392695    0.792114 moveto    0.279530    0.681748 lineto
    0.392695    0.792114 moveto    0.515642    0.606480 lineto
    0.013598    0.999748 moveto    0.136245    0.990675 lineto
    0.013598    0.999748 moveto    0.019031    0.999819 lineto
    0.013598    0.999748 moveto   -0.003214    0.999995 lineto
    0.013598    0.999748 moveto   -0.296162    0.949442 lineto
    0.013598    0.999748 moveto   -0.086127    0.940585 lineto
    0.013598    0.999748 moveto    0.221319    0.937892 lineto
   -0.452763   -0.676994 moveto   -0.476816   -0.611226 lineto
   -0.452763   -0.676994 moveto   -0.529041   -0.634663 lineto
   -0.452763   -0.676994 moveto   -0.504583   -0.695273 lineto
   -0.452763   -0.676994 moveto   -0.431487   -0.732628 lineto
   -0.452763   -0.676994 moveto   -0.374761   -0.716390 lineto
   -0.452763   -0.676994 moveto   -0.398894   -0.653705 lineto
   -0.477281   -0.749301 moveto   -0.447089   -0.797185 lineto
   -0.477281   -0.749301 moveto   -0.431487   -0.732628 lineto
   -0.477281   -0.749301 moveto   -0.504583   -0.695273 lineto
   -0.477281   -0.749301 moveto   -0.549059   -0.710369 lineto
   -0.477281   -0.749301 moveto   -0.517639   -0.761700 lineto
    0.541727   -0.659374 moveto    0.596889   -0.660289 lineto
    0.541727   -0.659374 moveto    0.610264   -0.603102 lineto
    0.541727   -0.659374 moveto    0.553475   -0.594609 lineto
    0.541727   -0.659374 moveto    0.482386   -0.656663 lineto
    0.541727   -0.659374 moveto    0.473187   -0.712568 lineto
    0.541727   -0.659374 moveto    0.529785   -0.713916 lineto
   -0.603639   -0.587153 moveto   -0.649856   -0.602960 lineto
   -0.603639   -0.587153 moveto   -0.577671   -0.652534 lineto
   -0.603639   -0.587153 moveto   -0.529041   -0.634663 lineto
   -0.603639   -0.587153 moveto   -0.555066   -0.564080 lineto
   -0.603639   -0.587153 moveto   -0.633599   -0.509403 lineto
   -0.092261   -0.954397 moveto   -0.049989   -0.971871 lineto
   -0.092261   -0.954397 moveto   -0.024387   -0.956704 lineto
   -0.092261   -0.954397 moveto   -0.064112   -0.936800 lineto
   -0.092261   -0.954397 moveto   -0.131772   -0.932471 lineto
   -0.092261   -0.954397 moveto   -0.161491   -0.947809 lineto
   -0.092261   -0.954397 moveto   -0.115343   -0.967757 lineto
   -0.825832   -0.292179 moveto   -0.853507   -0.173120 lineto
   -0.825832   -0.292179 moveto   -0.880937   -0.259290 lineto
   -0.825832   -0.292179 moveto   -0.845982   -0.373397 lineto
   -0.825832   -0.292179 moveto   -0.787351   -0.388667 lineto
   -0.825832   -0.292179 moveto   -0.757519   -0.323542 lineto
   -0.039400   -0.992832 moveto   -0.102904   -0.989174 lineto
   -0.039400   -0.992832 moveto   -0.069384   -0.996312 lineto
   -0.039400   -0.992832 moveto   -0.004754   -0.998295 lineto
   -0.039400   -0.992832 moveto    0.024880   -0.992471 lineto
   -0.039400   -0.992832 moveto   -0.010217   -0.984547 lineto
   -0.561082    0.196794 moveto   -0.537217    0.029917 lineto
   -0.561082    0.196794 moveto   -0.427468    0.142402 lineto
   -0.561082    0.196794 moveto   -0.438504    0.318667 lineto
   -0.561082    0.196794 moveto   -0.597324    0.354655 lineto
   -0.561082    0.196794 moveto   -0.705578    0.205677 lineto
   -0.561082    0.196794 moveto   -0.648786    0.083838 lineto
   -0.954133   -0.219434 moveto   -0.935637   -0.180234 lineto
   -0.954133   -0.219434 moveto   -0.972078   -0.082130 lineto
   -0.954133   -0.219434 moveto   -0.984722   -0.140222 lineto
   -0.954133   -0.219434 moveto   -0.959299   -0.263735 lineto
   -0.954133   -0.219434 moveto   -0.922326   -0.330680 lineto
   -0.954133   -0.219434 moveto   -0.905122   -0.300742 lineto
    0.239763   -0.924266 moveto    0.303364   -0.901155 lineto
    0.239763   -0.924266 moveto    0.254678   -0.896498 lineto
    0.239763   -0.924266 moveto    0.197767   -0.917509 lineto
    0.239763   -0.924266 moveto    0.172635   -0.941200 lineto
    0.239763   -0.924266 moveto    0.214084   -0.947524 lineto
    0.239763   -0.924266 moveto    0.280990   -0.927227 lineto
    0.354560   -0.923252 moveto    0.343049   -0.935302 lineto
    0.354560   -0.923252 moveto    0.405696   -0.906432 lineto
    0.354560   -0.923252 moveto    0.394925   -0.897959 lineto
    0.024880   -0.992471 moveto   -0.004754   -0.998295 lineto
    0.024880   -0.992471 moveto    0.058101   -0.996157 lineto
    0.024880   -0.992471 moveto    0.091183   -0.988005 lineto
    0.024880   -0.992471 moveto    0.055504   -0.982341 lineto
    0.024880   -0.992471 moveto   -0.010217   -0.984547 lineto
    0.692804   -0.697469 moveto    0.680836   -0.724407 lineto
    0.692804   -0.697469 moveto    0.740202   -0.660792 lineto
    0.692804   -0.697469 moveto    0.745409   -0.633597 lineto
    0.692804   -0.697469 moveto    0.691814   -0.670939 lineto
   -0.291097   -0.946279 moveto   -0.233213   -0.965527 lineto
   -0.291097   -0.946279 moveto   -0.241910   -0.952173 lineto
   -0.291097   -0.946279 moveto   -0.296291   -0.931527 lineto
   -0.291097   -0.946279 moveto   -0.349990   -0.922810 lineto
   -0.416448   -0.839257 moveto   -0.371742   -0.878870 lineto
   -0.416448   -0.839257 moveto   -0.353478   -0.860305 lineto
   -0.416448   -0.839257 moveto   -0.377645   -0.826464 lineto
   -0.416448   -0.839257 moveto   -0.447089   -0.797185 lineto
    0.221319    0.937892 moveto    0.501348    0.838489 lineto
    0.221319    0.937892 moveto    0.313279    0.949661 lineto
    0.221319    0.937892 moveto   -0.086127    0.940585 lineto
    0.221319    0.937892 moveto    0.113792    0.840385 lineto
   -0.906833   -0.138655 moveto   -0.853507   -0.173120 lineto
   -0.906833   -0.138655 moveto   -0.886899   -0.031238 lineto
   -0.906833   -0.138655 moveto   -0.941120   -0.024928 lineto
   -0.906833   -0.138655 moveto   -0.935637   -0.180234 lineto
   -0.906833   -0.138655 moveto   -0.880937   -0.259290 lineto
   -0.517639   -0.761700 moveto   -0.447089   -0.797185 lineto
   -0.517639   -0.761700 moveto   -0.549059   -0.710369 lineto
   -0.517639   -0.761700 moveto   -0.587144   -0.721806 lineto
   -0.517639   -0.761700 moveto   -0.550965   -0.771854 lineto
    0.495523   -0.803099 moveto    0.475734   -0.838106 lineto
    0.495523   -0.803099 moveto    0.534411   -0.803435 lineto
    0.495523   -0.803099 moveto    0.558306   -0.760082 lineto
    0.495523   -0.803099 moveto    0.511952   -0.762247 lineto
    0.495523   -0.803099 moveto    0.446894   -0.804218 lineto
   -0.737000   -0.113821 moveto   -0.713544   -0.242221 lineto
   -0.737000   -0.113821 moveto   -0.648729   -0.179511 lineto
   -0.737000   -0.113821 moveto   -0.656924   -0.046740 lineto
   -0.737000   -0.113821 moveto   -0.753395    0.039994 lineto
   -0.737000   -0.113821 moveto   -0.815547   -0.076257 lineto
   -0.047095   -0.335251 moveto   -0.074097   -0.423876 lineto
   -0.047095   -0.335251 moveto    0.021680   -0.428856 lineto
   -0.047095   -0.335251 moveto    0.079708   -0.355293 lineto
   -0.047095   -0.335251 moveto    0.038358   -0.266089 lineto
   -0.047095   -0.335251 moveto   -0.057134   -0.217186 lineto
   -0.047095   -0.335251 moveto   -0.156709   -0.280811 lineto
   -0.047095   -0.335251 moveto   -0.161501   -0.382061 lineto
   -0.272796   -0.078780 moveto   -0.165384   -0.153973 lineto
   -0.272796   -0.078780 moveto   -0.159758   -0.009240 lineto
   -0.272796   -0.078780 moveto   -0.390994   -0.002866 lineto
   -0.272796   -0.078780 moveto   -0.364789   -0.151102 lineto
   -0.649856   -0.602960 moveto   -0.720165   -0.543765 lineto
   -0.649856   -0.602960 moveto   -0.690897   -0.612339 lineto
   -0.649856   -0.602960 moveto   -0.620195   -0.665810 lineto
   -0.649856   -0.602960 moveto   -0.577671   -0.652534 lineto
   -0.690897   -0.612339 moveto   -0.720165   -0.543765 lineto
   -0.690897   -0.612339 moveto   -0.759894   -0.546664 lineto
   -0.690897   -0.612339 moveto   -0.724185   -0.618727 lineto
   -0.690897   -0.612339 moveto   -0.656701   -0.674092 lineto
   -0.690897   -0.612339 moveto   -0.620195   -0.665810 lineto
   -0.390994   -0.002866 moveto   -0.537217    0.029917 lineto
   -0.390994   -0.002866 moveto   -0.469766   -0.087168 lineto
   -0.390994   -0.002866 moveto   -0.364789   -0.151102 lineto
   -0.390994   -0.002866 moveto   -0.427468    0.142402 lineto
   -0.548848   -0.835693 moveto   -0.563646   -0.826017 lineto
   -0.548848   -0.835693 moveto   -0.544159   -0.838982 lineto
   -0.548848   -0.835693 moveto   -0.488245   -0.872696 lineto
   -0.548848   -0.835693 moveto   -0.504621   -0.860099 lineto
   -0.548848   -0.835693 moveto   -0.563268   -0.820994 lineto
   -0.535652   -0.819111 moveto   -0.509810   -0.817220 lineto
   -0.535652   -0.819111 moveto   -0.578807   -0.777544 lineto
   -0.535652   -0.819111 moveto   -0.590709   -0.789385 lineto
   -0.535652   -0.819111 moveto   -0.521109   -0.841061 lineto
   -0.535652   -0.819111 moveto   -0.472847   -0.856496 lineto
    0.272079   -0.608820 moveto    0.338845   -0.639457 lineto
    0.272079   -0.608820 moveto    0.368487   -0.569535 lineto
    0.272079   -0.608820 moveto    0.318598   -0.535787 lineto
    0.272079   -0.608820 moveto    0.239760   -0.535653 lineto
    0.272079   -0.608820 moveto    0.182687   -0.598154 lineto
    0.272079   -0.608820 moveto    0.201022   -0.661739 lineto
   -0.133437   -0.977666 moveto   -0.115343   -0.967757 lineto
   -0.133437   -0.977666 moveto   -0.180521   -0.959498 lineto
   -0.133437   -0.977666 moveto   -0.190801   -0.969102 lineto
   -0.133437   -0.977666 moveto   -0.165489   -0.981085 lineto
   -0.133437   -0.977666 moveto   -0.102904   -0.989174 lineto
   -0.364789   -0.151102 moveto   -0.469766   -0.087168 lineto
   -0.364789   -0.151102 moveto   -0.463004   -0.205541 lineto
   -0.364789   -0.151102 moveto   -0.360025   -0.271002 lineto
    0.787606   -0.476358 moveto    0.772640   -0.421400 lineto
    0.787606   -0.476358 moveto    0.728599   -0.512292 lineto
    0.787606   -0.476358 moveto    0.736332   -0.562778 lineto
    0.787606   -0.476358 moveto    0.794082   -0.523856 lineto
    0.787606   -0.476358 moveto    0.841842   -0.436706 lineto
   -0.156709   -0.280811 moveto   -0.261161   -0.338246 lineto
   -0.156709   -0.280811 moveto   -0.161501   -0.382061 lineto
   -0.156709   -0.280811 moveto   -0.057134   -0.217186 lineto
   -0.156709   -0.280811 moveto   -0.165384   -0.153973 lineto
   -0.760216   -0.635822 moveto   -0.748127   -0.625680 lineto
   -0.760216   -0.635822 moveto   -0.804928   -0.567369 lineto
   -0.760216   -0.635822 moveto   -0.808512   -0.582902 lineto
   -0.760216   -0.635822 moveto   -0.761221   -0.647123 lineto
   -0.760216   -0.635822 moveto   -0.713745   -0.694016 lineto
   -0.760216   -0.635822 moveto   -0.704585   -0.686516 lineto
    0.405696   -0.906432 moveto    0.343049   -0.935302 lineto
    0.405696   -0.906432 moveto    0.394211   -0.917753 lineto
    0.405696   -0.906432 moveto    0.455722   -0.886927 lineto
    0.405696   -0.906432 moveto    0.458729   -0.876214 lineto
    0.405696   -0.906432 moveto    0.394925   -0.897959 lineto
    0.610264   -0.603102 moveto    0.596889   -0.660289 lineto
    0.610264   -0.603102 moveto    0.669000   -0.543298 lineto
    0.610264   -0.603102 moveto    0.553475   -0.594609 lineto
    0.113792    0.840385 moveto   -0.086127    0.940585 lineto
    0.113792    0.840385 moveto   -0.172557    0.798994 lineto
    0.113792    0.840385 moveto    0.016136    0.686578 lineto
    0.113792    0.840385 moveto    0.279530    0.681748 lineto
   -0.057134   -0.217186 moveto    0.038358   -0.266089 lineto
   -0.057134   -0.217186 moveto    0.082824   -0.159386 lineto
   -0.057134   -0.217186 moveto   -0.165384   -0.153973 lineto
   -0.357695   -0.905707 moveto   -0.411989   -0.893792 lineto
   -0.357695   -0.905707 moveto   -0.349990   -0.922810 lineto
   -0.357695   -0.905707 moveto   -0.296291   -0.931527 lineto
   -0.357695   -0.905707 moveto   -0.308895   -0.910982 lineto
   -0.357695   -0.905707 moveto   -0.371742   -0.878870 lineto
    0.963117    0.051330 moveto    0.989484    0.100920 lineto
    0.963117    0.051330 moveto    0.957445    0.197770 lineto
    0.963117    0.051330 moveto    0.910698    0.196974 lineto
    0.963117    0.051330 moveto    0.900295    0.063044 lineto
    0.963117    0.051330 moveto    0.932934   -0.045665 lineto
    0.963117    0.051330 moveto    0.960261   -0.112578 lineto
    0.963117    0.051330 moveto    0.988649   -0.044700 lineto
   -0.102904   -0.989174 moveto   -0.165489   -0.981085 lineto
   -0.102904   -0.989174 moveto   -0.137471   -0.989594 lineto
   -0.102904   -0.989174 moveto   -0.069384   -0.996312 lineto
    0.264286   -0.275582 moveto    0.342982   -0.182534 lineto
    0.264286   -0.275582 moveto    0.219886   -0.164934 lineto
    0.264286   -0.275582 moveto    0.151570   -0.263976 lineto
    0.264286   -0.275582 moveto    0.189739   -0.363540 lineto
    0.264286   -0.275582 moveto    0.293418   -0.374773 lineto
   -0.261161   -0.338246 moveto   -0.360025   -0.271002 lineto
   -0.261161   -0.338246 moveto   -0.369295   -0.370314 lineto
   -0.261161   -0.338246 moveto   -0.294611   -0.426924 lineto
   -0.261161   -0.338246 moveto   -0.213942   -0.455743 lineto
   -0.261161   -0.338246 moveto   -0.161501   -0.382061 lineto
    0.293418   -0.374773 moveto    0.392586   -0.393040 lineto
    0.293418   -0.374773 moveto    0.189739   -0.363540 lineto
   -0.308895   -0.910982 moveto   -0.296291   -0.931527 lineto
   -0.308895   -0.910982 moveto   -0.234478   -0.938293 lineto
   -0.308895   -0.910982 moveto   -0.256397   -0.915645 lineto
   -0.308895   -0.910982 moveto   -0.306560   -0.888657 lineto
   -0.308895   -0.910982 moveto   -0.371742   -0.878870 lineto
    0.544174   -0.126334 moveto    0.557708   -0.230347 lineto
    0.544174   -0.126334 moveto    0.646225   -0.102936 lineto
    0.544174   -0.126334 moveto    0.547039   -0.001962 lineto
    0.544174   -0.126334 moveto    0.437459   -0.085382 lineto
   -0.353478   -0.860305 moveto   -0.371742   -0.878870 lineto
   -0.353478   -0.860305 moveto   -0.306560   -0.888657 lineto
   -0.353478   -0.860305 moveto   -0.298087   -0.859097 lineto
   -0.353478   -0.860305 moveto   -0.377645   -0.826464 lineto
   -0.398894   -0.653705 moveto   -0.374761   -0.716390 lineto
   -0.398894   -0.653705 moveto   -0.323267   -0.692652 lineto
   -0.398894   -0.653705 moveto   -0.340564   -0.623642 lineto
   -0.398894   -0.653705 moveto   -0.476816   -0.611226 lineto
    0.882745   -0.285942 moveto    0.892061   -0.356928 lineto
    0.882745   -0.285942 moveto    0.931787   -0.242296 lineto
    0.882745   -0.285942 moveto    0.913507   -0.170474 lineto
    0.882745   -0.285942 moveto    0.856847   -0.204518 lineto
    0.882745   -0.285942 moveto    0.822421   -0.314696 lineto
    0.172635   -0.941200 moveto    0.197767   -0.917509 lineto
    0.172635   -0.941200 moveto    0.137385   -0.925810 lineto
    0.172635   -0.941200 moveto    0.108532   -0.949904 lineto
    0.172635   -0.941200 moveto    0.148189   -0.961137 lineto
    0.172635   -0.941200 moveto    0.214084   -0.947524 lineto
   -0.262235   -0.837016 moveto   -0.298087   -0.859097 lineto
   -0.262235   -0.837016 moveto   -0.221361   -0.872731 lineto
   -0.262235   -0.837016 moveto   -0.191062   -0.845713 lineto
   -0.262235   -0.837016 moveto   -0.230779   -0.803921 lineto
   -0.262235   -0.837016 moveto   -0.295537   -0.794650 lineto
   -0.262235   -0.837016 moveto   -0.333769   -0.816325 lineto
    0.124613   -0.976770 moveto    0.055504   -0.982341 lineto
    0.124613   -0.976770 moveto    0.091183   -0.988005 lineto
    0.124613   -0.976770 moveto    0.189139   -0.966057 lineto
    0.124613   -0.976770 moveto    0.148189   -0.961137 lineto
   -0.105754   -0.911687 moveto   -0.064112   -0.936800 lineto
   -0.105754   -0.911687 moveto   -0.035233   -0.914700 lineto
   -0.105754   -0.911687 moveto   -0.076911   -0.886615 lineto
   -0.105754   -0.911687 moveto   -0.149133   -0.881450 lineto
   -0.105754   -0.911687 moveto   -0.175748   -0.905256 lineto
   -0.105754   -0.911687 moveto   -0.131772   -0.932471 lineto
    0.343049   -0.935302 moveto    0.279605   -0.957438 lineto
    0.343049   -0.935302 moveto    0.329510   -0.943850 lineto
    0.343049   -0.935302 moveto    0.394211   -0.917753 lineto
    0.988649   -0.044700 moveto    0.989484    0.100920 lineto
    0.988649   -0.044700 moveto    0.960261   -0.112578 lineto
    0.988649   -0.044700 moveto    0.969239   -0.188141 lineto
    0.988649   -0.044700 moveto    0.989742   -0.137323 lineto
    0.988649   -0.044700 moveto    0.999975   -0.007078 lineto
    0.529785   -0.713916 moveto    0.473187   -0.712568 lineto
    0.529785   -0.713916 moveto    0.460872   -0.761411 lineto
    0.529785   -0.713916 moveto    0.511952   -0.762247 lineto
    0.529785   -0.713916 moveto    0.578783   -0.715738 lineto
    0.529785   -0.713916 moveto    0.596889   -0.660289 lineto
    0.079708   -0.355293 moveto    0.021680   -0.428856 lineto
    0.079708   -0.355293 moveto    0.123689   -0.443206 lineto
    0.079708   -0.355293 moveto    0.189739   -0.363540 lineto
    0.079708   -0.355293 moveto    0.151570   -0.263976 lineto
    0.079708   -0.355293 moveto    0.038358   -0.266089 lineto
    0.140936   -0.881299 moveto    0.187919   -0.894936 lineto
    0.140936   -0.881299 moveto    0.204148   -0.859351 lineto
    0.140936   -0.881299 moveto    0.139156   -0.849780 lineto
    0.140936   -0.881299 moveto    0.073093   -0.880245 lineto
    0.883269   -0.460752 moveto    0.926753   -0.366779 lineto
    0.883269   -0.460752 moveto    0.893988   -0.411049 lineto
    0.883269   -0.460752 moveto    0.844695   -0.512728 lineto
    0.883269   -0.460752 moveto    0.830025   -0.553301 lineto
    0.883269   -0.460752 moveto    0.860722   -0.509025 lineto
    0.883269   -0.460752 moveto    0.903671   -0.428228 lineto
    0.634173    0.226105 moveto    0.650639    0.053607 lineto
    0.634173    0.226105 moveto    0.745850    0.126233 lineto
    0.634173    0.226105 moveto    0.734912    0.301167 lineto
    0.634173    0.226105 moveto    0.592268    0.412703 lineto
    0.634173    0.226105 moveto    0.480838    0.317129 lineto
    0.634173    0.226105 moveto    0.526657    0.147258 lineto
   -0.853507   -0.173120 moveto   -0.880937   -0.259290 lineto
   -0.853507   -0.173120 moveto   -0.815547   -0.076257 lineto
   -0.853507   -0.173120 moveto   -0.886899   -0.031238 lineto
   -0.221361   -0.872731 moveto   -0.298087   -0.859097 lineto
   -0.221361   -0.872731 moveto   -0.245229   -0.894138 lineto
   -0.221361   -0.872731 moveto   -0.175748   -0.905256 lineto
   -0.221361   -0.872731 moveto   -0.149133   -0.881450 lineto
   -0.221361   -0.872731 moveto   -0.191062   -0.845713 lineto
    0.989742   -0.137323 moveto    0.969239   -0.188141 lineto
    0.989742   -0.137323 moveto    0.963282   -0.260638 lineto
    0.989742   -0.137323 moveto    0.984892   -0.173167 lineto
    0.989742   -0.137323 moveto    0.991880   -0.127181 lineto
    0.989742   -0.137323 moveto    0.999920   -0.012633 lineto
    0.826037    0.024136 moveto    0.808753   -0.117896 lineto
    0.826037    0.024136 moveto    0.877817   -0.078442 lineto
    0.826037    0.024136 moveto    0.900295    0.063044 lineto
    0.826037    0.024136 moveto    0.745850    0.126233 lineto
    0.691814   -0.670939 moveto    0.631855   -0.706413 lineto
    0.691814   -0.670939 moveto    0.745409   -0.633597 lineto
    0.691814   -0.670939 moveto    0.746209   -0.600088 lineto
    0.691814   -0.670939 moveto    0.691712   -0.634739 lineto
    0.317076   -0.871074 moveto    0.254678   -0.896498 lineto
    0.317076   -0.871074 moveto    0.303364   -0.901155 lineto
   -0.442860    0.498873 moveto   -0.235141    0.618633 lineto
   -0.442860    0.498873 moveto   -0.422058    0.681798 lineto
   -0.442860    0.498873 moveto   -0.610097    0.524431 lineto
   -0.442860    0.498873 moveto   -0.597324    0.354655 lineto
   -0.442860    0.498873 moveto   -0.438504    0.318667 lineto
   -0.035233   -0.914700 moveto   -0.064112   -0.936800 lineto
   -0.035233   -0.914700 moveto    0.004363   -0.936866 lineto
   -0.035233   -0.914700 moveto    0.037282   -0.911679 lineto
   -0.035233   -0.914700 moveto   -0.004564   -0.888745 lineto
   -0.035233   -0.914700 moveto   -0.076911   -0.886615 lineto
   -0.323267   -0.692652 moveto   -0.374761   -0.716390 lineto
   -0.323267   -0.692652 moveto   -0.291725   -0.751149 lineto
   -0.323267   -0.692652 moveto   -0.244353   -0.716598 lineto
   -0.323267   -0.692652 moveto   -0.272770   -0.658656 lineto
   -0.323267   -0.692652 moveto   -0.340564   -0.623642 lineto
   -0.550965   -0.771854 moveto   -0.587144   -0.721806 lineto
   -0.550965   -0.771854 moveto   -0.578807   -0.777544 lineto
   -0.550965   -0.771854 moveto   -0.509810   -0.817220 lineto
    0.745850    0.126233 moveto    0.734912    0.301167 lineto
    0.745850    0.126233 moveto    0.650639    0.053607 lineto
    0.828527    0.344546 moveto    0.910698    0.196974 lineto
    0.828527    0.344546 moveto    0.899761    0.353579 lineto
    0.828527    0.344546 moveto    0.792604    0.516254 lineto
    0.828527    0.344546 moveto    0.699256    0.485889 lineto
    0.828527    0.344546 moveto    0.734912    0.301167 lineto
   -0.427468    0.142402 moveto   -0.290062    0.245562 lineto
   -0.427468    0.142402 moveto   -0.438504    0.318667 lineto
   -0.427468    0.142402 moveto   -0.537217    0.029917 lineto
    0.292650    0.370965 moveto    0.173631    0.535840 lineto
    0.292650    0.370965 moveto    0.084488    0.375504 lineto
    0.292650    0.370965 moveto    0.198846    0.231248 lineto
    0.292650    0.370965 moveto    0.371978    0.205135 lineto
    0.292650    0.370965 moveto    0.480838    0.317129 lineto
    0.557708   -0.230347 moveto    0.645292   -0.236608 lineto
    0.557708   -0.230347 moveto    0.646225   -0.102936 lineto
    0.557708   -0.230347 moveto    0.471483   -0.311169 lineto
    0.475734   -0.838106 moveto    0.410239   -0.873022 lineto
    0.475734   -0.838106 moveto    0.454542   -0.865518 lineto
    0.475734   -0.838106 moveto    0.516792   -0.834832 lineto
    0.475734   -0.838106 moveto    0.534411   -0.803435 lineto
    0.482386   -0.656663 moveto    0.553475   -0.594609 lineto
    0.482386   -0.656663 moveto    0.488444   -0.593921 lineto
    0.482386   -0.656663 moveto    0.414185   -0.658979 lineto
    0.482386   -0.656663 moveto    0.410682   -0.710487 lineto
    0.482386   -0.656663 moveto    0.473187   -0.712568 lineto
    0.410239   -0.873022 moveto    0.348897   -0.902076 lineto
    0.410239   -0.873022 moveto    0.394925   -0.897959 lineto
    0.410239   -0.873022 moveto    0.454542   -0.865518 lineto
   -0.004754   -0.998295 moveto   -0.069384   -0.996312 lineto
   -0.004754   -0.998295 moveto   -0.023076   -0.999734 lineto
   -0.004754   -0.998295 moveto    0.037253   -0.999297 lineto
   -0.004754   -0.998295 moveto    0.058101   -0.996157 lineto
    0.437459   -0.085382 moveto    0.547039   -0.001962 lineto
    0.437459   -0.085382 moveto    0.342982   -0.182534 lineto
    0.198846    0.231248 moveto    0.084488    0.375504 lineto
    0.198846    0.231248 moveto    0.122252    0.092073 lineto
    0.198846    0.231248 moveto    0.274148    0.081059 lineto
    0.198846    0.231248 moveto    0.371978    0.205135 lineto
   -0.099130   -0.562975 moveto   -0.066220   -0.627965 lineto
   -0.099130   -0.562975 moveto   -0.003214   -0.575631 lineto
   -0.099130   -0.562975 moveto   -0.035132   -0.504076 lineto
   -0.099130   -0.562975 moveto   -0.130713   -0.487412 lineto
   -0.099130   -0.562975 moveto   -0.193301   -0.545088 lineto
   -0.099130   -0.562975 moveto   -0.160020   -0.614851 lineto
   -0.787242   -0.556127 moveto   -0.748127   -0.625680 lineto
   -0.787242   -0.556127 moveto   -0.724185   -0.618727 lineto
   -0.787242   -0.556127 moveto   -0.759894   -0.546664 lineto
   -0.787242   -0.556127 moveto   -0.821626   -0.472895 lineto
   -0.787242   -0.556127 moveto   -0.841732   -0.492321 lineto
   -0.787242   -0.556127 moveto   -0.804928   -0.567369 lineto
   -0.076911   -0.886615 moveto   -0.004564   -0.888745 lineto
   -0.076911   -0.886615 moveto   -0.046878   -0.856453 lineto
   -0.076911   -0.886615 moveto   -0.118770   -0.852890 lineto
   -0.076911   -0.886615 moveto   -0.149133   -0.881450 lineto
    0.553475   -0.594609 moveto    0.488444   -0.593921 lineto
    0.867803    0.484613 moveto    0.819641    0.572877 lineto
    0.867803    0.484613 moveto    0.792604    0.516254 lineto
    0.867803    0.484613 moveto    0.899761    0.353579 lineto
    0.867803    0.484613 moveto    0.954171    0.292220 lineto
    0.867803    0.484613 moveto    0.889043    0.457824 lineto
    0.740202   -0.660792 moveto    0.680836   -0.724407 lineto
    0.740202   -0.660792 moveto    0.725087   -0.686837 lineto
    0.740202   -0.660792 moveto    0.781369   -0.621989 lineto
    0.740202   -0.660792 moveto    0.745409   -0.633597 lineto
   -0.529041   -0.634663 moveto   -0.476816   -0.611226 lineto
   -0.529041   -0.634663 moveto   -0.555066   -0.564080 lineto
   -0.529041   -0.634663 moveto   -0.577671   -0.652534 lineto
   -0.529041   -0.634663 moveto   -0.504583   -0.695273 lineto
    0.913507   -0.170474 moveto    0.931787   -0.242296 lineto
    0.913507   -0.170474 moveto    0.960261   -0.112578 lineto
    0.913507   -0.170474 moveto    0.932934   -0.045665 lineto
    0.913507   -0.170474 moveto    0.877817   -0.078442 lineto
    0.913507   -0.170474 moveto    0.856847   -0.204518 lineto
   -0.175748   -0.905256 moveto   -0.149133   -0.881450 lineto
   -0.175748   -0.905256 moveto   -0.245229   -0.894138 lineto
   -0.175748   -0.905256 moveto   -0.197872   -0.925187 lineto
   -0.175748   -0.905256 moveto   -0.131772   -0.932471 lineto
    0.700334   -0.461466 moveto    0.669000   -0.543298 lineto
    0.700334   -0.461466 moveto    0.728599   -0.512292 lineto
    0.700334   -0.461466 moveto    0.772640   -0.421400 lineto
    0.700334   -0.461466 moveto    0.689638   -0.389630 lineto
    0.700334   -0.461466 moveto    0.626329   -0.456619 lineto
   -0.359105   -0.766065 moveto   -0.333769   -0.816325 lineto
   -0.359105   -0.766065 moveto   -0.295537   -0.794650 lineto
   -0.359105   -0.766065 moveto   -0.291725   -0.751149 lineto
   -0.359105   -0.766065 moveto   -0.374761   -0.716390 lineto
   -0.359105   -0.766065 moveto   -0.431487   -0.732628 lineto
   -0.374761   -0.716390 moveto   -0.291725   -0.751149 lineto
   -0.374761   -0.716390 moveto   -0.431487   -0.732628 lineto
   -0.213942   -0.455743 moveto   -0.294611   -0.426924 lineto
   -0.213942   -0.455743 moveto   -0.278628   -0.516841 lineto
   -0.213942   -0.455743 moveto   -0.193301   -0.545088 lineto
   -0.213942   -0.455743 moveto   -0.130713   -0.487412 lineto
   -0.213942   -0.455743 moveto   -0.161501   -0.382061 lineto
   -0.294611   -0.426924 moveto   -0.369295   -0.370314 lineto
   -0.294611   -0.426924 moveto   -0.364878   -0.470497 lineto
   -0.294611   -0.426924 moveto   -0.278628   -0.516841 lineto
   -0.815547   -0.076257 moveto   -0.753395    0.039994 lineto
   -0.815547   -0.076257 moveto   -0.839712    0.060540 lineto
   -0.815547   -0.076257 moveto   -0.886899   -0.031238 lineto
   -0.064112   -0.936800 moveto   -0.024387   -0.956704 lineto
   -0.064112   -0.936800 moveto    0.004363   -0.936866 lineto
   -0.064112   -0.936800 moveto   -0.131772   -0.932471 lineto
   -0.849331   -0.527367 moveto   -0.847285   -0.531138 lineto
   -0.849331   -0.527367 moveto   -0.822485   -0.568787 lineto
   -0.849331   -0.527367 moveto   -0.808512   -0.582902 lineto
   -0.849331   -0.527367 moveto   -0.854802   -0.505514 lineto
   -0.849331   -0.527367 moveto   -0.897518   -0.438530 lineto
   -0.849331   -0.527367 moveto   -0.860496   -0.509457 lineto
    0.266016   -0.963940 moveto    0.279605   -0.957438 lineto
    0.266016   -0.963940 moveto    0.216996   -0.974389 lineto
    0.266016   -0.963940 moveto    0.243652   -0.969863 lineto
    0.266016   -0.963940 moveto    0.264434   -0.964404 lineto
    0.266016   -0.963940 moveto    0.273398   -0.961901 lineto
    0.266016   -0.963940 moveto    0.329510   -0.943850 lineto
   -0.577671   -0.652534 moveto   -0.620195   -0.665810 lineto
   -0.577671   -0.652534 moveto   -0.549059   -0.710369 lineto
   -0.577671   -0.652534 moveto   -0.504583   -0.695273 lineto
    0.860722   -0.509025 moveto    0.861437   -0.507864 lineto
    0.860722   -0.509025 moveto    0.881163   -0.472812 lineto
    0.860722   -0.509025 moveto    0.830025   -0.553301 lineto
    0.860722   -0.509025 moveto    0.852376   -0.522929 lineto
   -0.131772   -0.932471 moveto   -0.197872   -0.925187 lineto
   -0.131772   -0.932471 moveto   -0.161491   -0.947809 lineto
    0.516792   -0.834832 moveto    0.454542   -0.865518 lineto
    0.516792   -0.834832 moveto    0.458729   -0.876214 lineto
    0.516792   -0.834832 moveto    0.512785   -0.851358 lineto
    0.516792   -0.834832 moveto    0.569696   -0.810516 lineto
    0.516792   -0.834832 moveto    0.580162   -0.788293 lineto
    0.516792   -0.834832 moveto    0.534411   -0.803435 lineto
   -0.296291   -0.931527 moveto   -0.349990   -0.922810 lineto
   -0.296291   -0.931527 moveto   -0.241910   -0.952173 lineto
   -0.296291   -0.931527 moveto   -0.234478   -0.938293 lineto
   -0.566632   -0.119149 moveto   -0.656924   -0.046740 lineto
   -0.566632   -0.119149 moveto   -0.648729   -0.179511 lineto
   -0.566632   -0.119149 moveto   -0.553391   -0.243366 lineto
   -0.566632   -0.119149 moveto   -0.463004   -0.205541 lineto
   -0.566632   -0.119149 moveto   -0.469766   -0.087168 lineto
   -0.566632   -0.119149 moveto   -0.537217    0.029917 lineto
   -0.852208    0.520547 moveto   -0.939391    0.330863 lineto
   -0.852208    0.520547 moveto   -0.869699    0.424186 lineto
   -0.852208    0.520547 moveto   -0.748969    0.622216 lineto
   -0.852208    0.520547 moveto   -0.734333    0.678790 lineto
   -0.852208    0.520547 moveto   -0.844602    0.535395 lineto
   -0.852208    0.520547 moveto   -0.877552    0.479481 lineto
    0.725087   -0.686837 moveto    0.680836   -0.724407 lineto
    0.725087   -0.686837 moveto    0.664807   -0.746222 lineto
    0.725087   -0.686837 moveto    0.710762   -0.703433 lineto
    0.725087   -0.686837 moveto    0.746705   -0.665155 lineto
    0.725087   -0.686837 moveto    0.781369   -0.621989 lineto
   -0.761221   -0.647123 moveto   -0.808512   -0.582902 lineto
   -0.761221   -0.647123 moveto   -0.791919   -0.610626 lineto
   -0.761221   -0.647123 moveto   -0.757120   -0.653276 lineto
   -0.761221   -0.647123 moveto   -0.710148   -0.704018 lineto
   -0.761221   -0.647123 moveto   -0.713745   -0.694016 lineto
   -0.941120   -0.024928 moveto   -0.886899   -0.031238 lineto
   -0.941120   -0.024928 moveto   -0.908078    0.125420 lineto
   -0.941120   -0.024928 moveto   -0.967494    0.075989 lineto
   -0.941120   -0.024928 moveto   -0.972078   -0.082130 lineto
   -0.941120   -0.024928 moveto   -0.935637   -0.180234 lineto
    0.053029   -0.696053 moveto    0.135058   -0.707740 lineto
    0.053029   -0.696053 moveto    0.116201   -0.649843 lineto
    0.053029   -0.696053 moveto    0.026543   -0.639015 lineto
    0.053029   -0.696053 moveto   -0.033231   -0.686120 lineto
    0.119814   -0.990089 moveto    0.091183   -0.988005 lineto
    0.119814   -0.990089 moveto    0.058101   -0.996157 lineto
    0.119814   -0.990089 moveto    0.099893   -0.994904 lineto
    0.119814   -0.990089 moveto    0.162991   -0.986035 lineto
   -0.230779   -0.803921 moveto   -0.291725   -0.751149 lineto
   -0.230779   -0.803921 moveto   -0.295537   -0.794650 lineto
   -0.230779   -0.803921 moveto   -0.191062   -0.845713 lineto
   -0.230779   -0.803921 moveto   -0.157788   -0.813377 lineto
   -0.602200    0.681605 moveto   -0.610097    0.524431 lineto
   -0.602200    0.681605 moveto   -0.422058    0.681798 lineto
   -0.602200    0.681605 moveto   -0.374231    0.843730 lineto
   -0.602200    0.681605 moveto   -0.748969    0.622216 lineto
    0.303364   -0.901155 moveto    0.280990   -0.927227 lineto
    0.303364   -0.901155 moveto    0.348897   -0.902076 lineto
    0.303364   -0.901155 moveto    0.254678   -0.896498 lineto
    0.204148   -0.859351 moveto    0.187919   -0.894936 lineto
    0.204148   -0.859351 moveto    0.269817   -0.830325 lineto
    0.204148   -0.859351 moveto    0.208107   -0.821333 lineto
    0.204148   -0.859351 moveto    0.139156   -0.849780 lineto
    0.794082   -0.523856 moveto    0.736332   -0.562778 lineto
    0.794082   -0.523856 moveto    0.746209   -0.600088 lineto
    0.794082   -0.523856 moveto    0.798497   -0.559171 lineto
    0.794082   -0.523856 moveto    0.848307   -0.473493 lineto
    0.794082   -0.523856 moveto    0.841842   -0.436706 lineto
    0.413819   -0.607163 moveto    0.414185   -0.658979 lineto
    0.413819   -0.607163 moveto    0.488444   -0.593921 lineto
    0.413819   -0.607163 moveto    0.454851   -0.542150 lineto
    0.413819   -0.607163 moveto    0.368487   -0.569535 lineto
    0.413819   -0.607163 moveto    0.338845   -0.639457 lineto
   -0.905122   -0.300742 moveto   -0.922326   -0.330680 lineto
   -0.905122   -0.300742 moveto   -0.874138   -0.402081 lineto
   -0.905122   -0.300742 moveto   -0.845982   -0.373397 lineto
   -0.905122   -0.300742 moveto   -0.880937   -0.259290 lineto
   -0.905122   -0.300742 moveto   -0.935637   -0.180234 lineto
    0.844695   -0.512728 moveto    0.893988   -0.411049 lineto
    0.844695   -0.512728 moveto    0.848307   -0.473493 lineto
    0.844695   -0.512728 moveto    0.798497   -0.559171 lineto
    0.844695   -0.512728 moveto    0.830025   -0.553301 lineto
    0.734912    0.301167 moveto    0.699256    0.485889 lineto
    0.734912    0.301167 moveto    0.592268    0.412703 lineto
    0.189139   -0.966057 moveto    0.230834   -0.965220 lineto
    0.189139   -0.966057 moveto    0.254833   -0.948888 lineto
    0.189139   -0.966057 moveto    0.214084   -0.947524 lineto
    0.189139   -0.966057 moveto    0.148189   -0.961137 lineto
    0.342982   -0.182534 moveto    0.219886   -0.164934 lineto
   -0.180521   -0.959498 moveto   -0.115343   -0.967757 lineto
   -0.180521   -0.959498 moveto   -0.161491   -0.947809 lineto
   -0.180521   -0.959498 moveto   -0.234478   -0.938293 lineto
   -0.180521   -0.959498 moveto   -0.241910   -0.952173 lineto
   -0.180521   -0.959498 moveto   -0.190801   -0.969102 lineto
    0.473187   -0.712568 moveto    0.410682   -0.710487 lineto
    0.473187   -0.712568 moveto    0.403538   -0.758851 lineto
    0.473187   -0.712568 moveto    0.460872   -0.761411 lineto
    0.932934   -0.045665 moveto    0.960261   -0.112578 lineto
    0.932934   -0.045665 moveto    0.900295    0.063044 lineto
    0.932934   -0.045665 moveto    0.877817   -0.078442 lineto
   -0.704585   -0.686516 moveto   -0.713745   -0.694016 lineto
   -0.704585   -0.686516 moveto   -0.659663   -0.738296 lineto
   -0.704585   -0.686516 moveto   -0.639927   -0.738093 lineto
   -0.704585   -0.686516 moveto   -0.684264   -0.681698 lineto
   -0.704585   -0.686516 moveto   -0.748127   -0.625680 lineto
    0.631855   -0.706413 moveto    0.691712   -0.634739 lineto
    0.631855   -0.706413 moveto    0.637943   -0.664509 lineto
    0.631855   -0.706413 moveto    0.578783   -0.715738 lineto
    0.631855   -0.706413 moveto    0.558306   -0.760082 lineto
    0.631855   -0.706413 moveto    0.592512   -0.758189 lineto
   -0.869699    0.424186 moveto   -0.748969    0.622216 lineto
   -0.869699    0.424186 moveto   -0.939391    0.330863 lineto
   -0.869699    0.424186 moveto   -0.935979    0.237584 lineto
   -0.869699    0.424186 moveto   -0.857668    0.304242 lineto
   -0.360025   -0.271002 moveto   -0.463004   -0.205541 lineto
   -0.360025   -0.271002 moveto   -0.457320   -0.312133 lineto
   -0.360025   -0.271002 moveto   -0.369295   -0.370314 lineto
    0.781369   -0.621989 moveto    0.765813   -0.643064 lineto
    0.781369   -0.621989 moveto    0.803279   -0.595603 lineto
    0.781369   -0.621989 moveto    0.830025   -0.553301 lineto
   -0.190801   -0.969102 moveto   -0.241910   -0.952173 lineto
   -0.190801   -0.969102 moveto   -0.233213   -0.965527 lineto
   -0.190801   -0.969102 moveto   -0.165489   -0.981085 lineto
   -0.049989   -0.971871 moveto   -0.010217   -0.984547 lineto
   -0.049989   -0.971871 moveto    0.016087   -0.972043 lineto
   -0.049989   -0.971871 moveto   -0.024387   -0.956704 lineto
   -0.049989   -0.971871 moveto   -0.115343   -0.967757 lineto
    0.239760   -0.535653 moveto    0.182687   -0.598154 lineto
    0.239760   -0.535653 moveto    0.318598   -0.535787 lineto
   -0.845982   -0.373397 moveto   -0.874138   -0.402081 lineto
   -0.845982   -0.373397 moveto   -0.821626   -0.472895 lineto
   -0.845982   -0.373397 moveto   -0.787241   -0.464687 lineto
   -0.845982   -0.373397 moveto   -0.787351   -0.388667 lineto
   -0.845982   -0.373397 moveto   -0.880937   -0.259290 lineto
   -0.488245   -0.872696 moveto   -0.444953   -0.893559 lineto
   -0.488245   -0.872696 moveto   -0.504621   -0.860099 lineto
   -0.488245   -0.872696 moveto   -0.491597   -0.870823 lineto
   -0.488245   -0.872696 moveto   -0.487074   -0.873361 lineto
   -0.488245   -0.872696 moveto   -0.470497   -0.882402 lineto
    0.501348    0.838489 moveto    0.343672    0.939090 lineto
    0.501348    0.838489 moveto    0.586112    0.810230 lineto
    0.481962   -0.404173 moveto    0.471483   -0.311169 lineto
    0.481962   -0.404173 moveto    0.392586   -0.393040 lineto
    0.481962   -0.404173 moveto    0.406059   -0.483195 lineto
    0.481962   -0.404173 moveto    0.497138   -0.477734 lineto
    0.481962   -0.404173 moveto    0.568295   -0.425831 lineto
    0.736332   -0.562778 moveto    0.691712   -0.634739 lineto
    0.736332   -0.562778 moveto    0.746209   -0.600088 lineto
    0.736332   -0.562778 moveto    0.728599   -0.512292 lineto
    0.877817   -0.078442 moveto    0.900295    0.063044 lineto
    0.877817   -0.078442 moveto    0.808753   -0.117896 lineto
    0.877817   -0.078442 moveto    0.856847   -0.204518 lineto
    0.269817   -0.830325 moveto    0.336102   -0.796719 lineto
    0.269817   -0.830325 moveto    0.274637   -0.787672 lineto
    0.269817   -0.830325 moveto    0.208107   -0.821333 lineto
    0.511952   -0.762247 moveto    0.558306   -0.760082 lineto
    0.511952   -0.762247 moveto    0.578783   -0.715738 lineto
    0.511952   -0.762247 moveto    0.460872   -0.761411 lineto
    0.511952   -0.762247 moveto    0.446894   -0.804218 lineto
    0.680836   -0.724407 moveto    0.619836   -0.779894 lineto
    0.680836   -0.724407 moveto    0.664807   -0.746222 lineto
    0.137385   -0.925810 moveto    0.070824   -0.933859 lineto
    0.137385   -0.925810 moveto    0.108532   -0.949904 lineto
    0.137385   -0.925810 moveto    0.197767   -0.917509 lineto
    0.137385   -0.925810 moveto    0.187919   -0.894936 lineto
    0.123689   -0.443206 moveto    0.189739   -0.363540 lineto
    0.123689   -0.443206 moveto    0.021680   -0.428856 lineto
    0.123689   -0.443206 moveto    0.059377   -0.512724 lineto
    0.547039   -0.001962 moveto    0.646225   -0.102936 lineto
    0.547039   -0.001962 moveto    0.650639    0.053607 lineto
    0.547039   -0.001962 moveto    0.526657    0.147258 lineto
   -0.553391   -0.243366 moveto   -0.648729   -0.179511 lineto
   -0.553391   -0.243366 moveto   -0.625519   -0.294527 lineto
   -0.553391   -0.243366 moveto   -0.533652   -0.352877 lineto
   -0.553391   -0.243366 moveto   -0.457320   -0.312133 lineto
   -0.553391   -0.243366 moveto   -0.463004   -0.205541 lineto
   -0.118770   -0.852890 moveto   -0.046878   -0.856453 lineto
   -0.118770   -0.852890 moveto   -0.081712   -0.819805 lineto
   -0.118770   -0.852890 moveto   -0.157788   -0.813377 lineto
   -0.118770   -0.852890 moveto   -0.191062   -0.845713 lineto
   -0.118770   -0.852890 moveto   -0.149133   -0.881450 lineto
    0.636952   -0.349892 moveto    0.568295   -0.425831 lineto
    0.636952   -0.349892 moveto    0.626329   -0.456619 lineto
    0.636952   -0.349892 moveto    0.689638   -0.389630 lineto
    0.636952   -0.349892 moveto    0.714342   -0.285193 lineto
    0.636952   -0.349892 moveto    0.645292   -0.236608 lineto
    0.608677   -0.793362 moveto    0.586906   -0.809655 lineto
    0.608677   -0.793362 moveto    0.607279   -0.794489 lineto
    0.608677   -0.793362 moveto    0.616444   -0.787399 lineto
    0.608677   -0.793362 moveto    0.664807   -0.746222 lineto
    0.608677   -0.793362 moveto    0.619836   -0.779894 lineto
    0.608677   -0.793362 moveto    0.561895   -0.824988 lineto
   -0.857668    0.304242 moveto   -0.737708    0.357884 lineto
   -0.857668    0.304242 moveto   -0.935979    0.237584 lineto
   -0.857668    0.304242 moveto   -0.908078    0.125420 lineto
    0.746209   -0.600088 moveto    0.745409   -0.633597 lineto
    0.746209   -0.600088 moveto    0.798497   -0.559171 lineto
    0.746209   -0.600088 moveto    0.691712   -0.634739 lineto
    0.275780   -0.737923 moveto    0.206770   -0.723527 lineto
    0.275780   -0.737923 moveto    0.210471   -0.775884 lineto
    0.275780   -0.737923 moveto    0.274637   -0.787672 lineto
    0.275780   -0.737923 moveto    0.341431   -0.750418 lineto
   -0.724185   -0.618727 moveto   -0.759894   -0.546664 lineto
   -0.724185   -0.618727 moveto   -0.748127   -0.625680 lineto
   -0.724185   -0.618727 moveto   -0.684264   -0.681698 lineto
   -0.724185   -0.618727 moveto   -0.656701   -0.674092 lineto
   -0.278628   -0.516841 moveto   -0.255613   -0.597284 lineto
   -0.278628   -0.516841 moveto   -0.193301   -0.545088 lineto
   -0.278628   -0.516841 moveto   -0.364878   -0.470497 lineto
    0.208107   -0.821333 moveto    0.274637   -0.787672 lineto
    0.208107   -0.821333 moveto    0.210471   -0.775884 lineto
    0.208107   -0.821333 moveto    0.139156   -0.849780 lineto
   -0.086127    0.940585 moveto   -0.296162    0.949442 lineto
   -0.086127    0.940585 moveto   -0.374231    0.843730 lineto
   -0.086127    0.940585 moveto   -0.172557    0.798994 lineto
   -0.854802   -0.505514 moveto   -0.808512   -0.582902 lineto
   -0.854802   -0.505514 moveto   -0.804928   -0.567369 lineto
   -0.854802   -0.505514 moveto   -0.841732   -0.492321 lineto
   -0.854802   -0.505514 moveto   -0.887813   -0.429161 lineto
   -0.854802   -0.505514 moveto   -0.897518   -0.438530 lineto
    0.792604    0.516254 moveto    0.899761    0.353579 lineto
    0.792604    0.516254 moveto    0.699256    0.485889 lineto
   -0.291725   -0.751149 moveto   -0.295537   -0.794650 lineto
   -0.291725   -0.751149 moveto   -0.244353   -0.716598 lineto
    0.788469   -0.240505 moveto    0.822421   -0.314696 lineto
    0.788469   -0.240505 moveto    0.856847   -0.204518 lineto
    0.788469   -0.240505 moveto    0.808753   -0.117896 lineto
    0.788469   -0.240505 moveto    0.728314   -0.166894 lineto
    0.788469   -0.240505 moveto    0.714342   -0.285193 lineto
   -0.705578    0.205677 moveto   -0.753395    0.039994 lineto
   -0.705578    0.205677 moveto   -0.648786    0.083838 lineto
   -0.705578    0.205677 moveto   -0.597324    0.354655 lineto
   -0.705578    0.205677 moveto   -0.737708    0.357884 lineto
   -0.924970   -0.365816 moveto   -0.887813   -0.429161 lineto
   -0.924970   -0.365816 moveto   -0.922326   -0.330680 lineto
   -0.924970   -0.365816 moveto   -0.959299   -0.263735 lineto
   -0.924970   -0.365816 moveto   -0.943330   -0.331726 lineto
   -0.924970   -0.365816 moveto   -0.897518   -0.438530 lineto
    0.216996   -0.974389 moveto    0.279605   -0.957438 lineto
    0.216996   -0.974389 moveto    0.230834   -0.965220 lineto
    0.216996   -0.974389 moveto    0.162991   -0.986035 lineto
    0.216996   -0.974389 moveto    0.208345   -0.978055 lineto
    0.230834   -0.965220 moveto    0.279605   -0.957438 lineto
    0.230834   -0.965220 moveto    0.254833   -0.948888 lineto
   -0.035132   -0.504076 moveto   -0.003214   -0.575631 lineto
   -0.035132   -0.504076 moveto    0.059377   -0.512724 lineto
   -0.035132   -0.504076 moveto    0.021680   -0.428856 lineto
   -0.035132   -0.504076 moveto   -0.074097   -0.423876 lineto
   -0.035132   -0.504076 moveto   -0.130713   -0.487412 lineto
   -0.461324   -0.877389 moveto   -0.472847   -0.856496 lineto
   -0.461324   -0.877389 moveto   -0.521109   -0.841061 lineto
   -0.461324   -0.877389 moveto   -0.504621   -0.860099 lineto
   -0.461324   -0.877389 moveto   -0.444953   -0.893559 lineto
   -0.461324   -0.877389 moveto   -0.399392   -0.910113 lineto
   -0.461324   -0.877389 moveto   -0.411989   -0.893792 lineto
   -0.684264   -0.681698 moveto   -0.639927   -0.738093 lineto
   -0.684264   -0.681698 moveto   -0.656701   -0.674092 lineto
   -0.684264   -0.681698 moveto   -0.748127   -0.625680 lineto
    0.274148    0.081059 moveto    0.371978    0.205135 lineto
    0.274148    0.081059 moveto    0.122252    0.092073 lineto
    0.274148    0.081059 moveto    0.187361   -0.045134 lineto
    0.910698    0.196974 moveto    0.900295    0.063044 lineto
    0.910698    0.196974 moveto    0.957445    0.197770 lineto
    0.910698    0.196974 moveto    0.899761    0.353579 lineto
   -0.521109   -0.841061 moveto   -0.590709   -0.789385 lineto
   -0.521109   -0.841061 moveto   -0.563268   -0.820994 lineto
   -0.521109   -0.841061 moveto   -0.504621   -0.860099 lineto
   -0.521109   -0.841061 moveto   -0.472847   -0.856496 lineto
   -0.982062    0.159134 moveto   -0.996006    0.089288 lineto
   -0.982062    0.159134 moveto   -0.994459    0.001808 lineto
   -0.982062    0.159134 moveto   -0.967494    0.075989 lineto
   -0.982062    0.159134 moveto   -0.935979    0.237584 lineto
   -0.982062    0.159134 moveto   -0.939391    0.330863 lineto
   -0.982062    0.159134 moveto   -0.980103    0.198488 lineto
   -0.233213   -0.965527 moveto   -0.241910   -0.952173 lineto
   -0.233213   -0.965527 moveto   -0.209143   -0.976318 lineto
   -0.233213   -0.965527 moveto   -0.165489   -0.981085 lineto
   -0.710148   -0.704018 moveto   -0.665291   -0.744402 lineto
   -0.710148   -0.704018 moveto   -0.713745   -0.694016 lineto
   -0.710148   -0.704018 moveto   -0.715555   -0.698556 lineto
   -0.710148   -0.704018 moveto   -0.708952   -0.705256 lineto
   -0.710148   -0.704018 moveto   -0.695770   -0.718265 lineto
   -0.033934    0.058589 moveto    0.061979   -0.038098 lineto
   -0.033934    0.058589 moveto    0.122252    0.092073 lineto
   -0.033934    0.058589 moveto   -0.149129    0.157580 lineto
   -0.033934    0.058589 moveto   -0.159758   -0.009240 lineto
    0.406059   -0.483195 moveto    0.318598   -0.535787 lineto
    0.406059   -0.483195 moveto    0.368487   -0.569535 lineto
    0.406059   -0.483195 moveto    0.454851   -0.542150 lineto
    0.406059   -0.483195 moveto    0.497138   -0.477734 lineto
    0.406059   -0.483195 moveto    0.392586   -0.393040 lineto
   -0.787351   -0.388667 moveto   -0.787241   -0.464687 lineto
   -0.787351   -0.388667 moveto   -0.735728   -0.472280 lineto
   -0.787351   -0.388667 moveto   -0.711240   -0.425413 lineto
   -0.787351   -0.388667 moveto   -0.757519   -0.323542 lineto
    0.279530    0.681748 moveto    0.515642    0.606480 lineto
    0.279530    0.681748 moveto    0.016136    0.686578 lineto
    0.279530    0.681748 moveto    0.173631    0.535840 lineto
    0.329510   -0.943850 moveto    0.279605   -0.957438 lineto
    0.329510   -0.943850 moveto    0.323888   -0.946096 lineto
    0.329510   -0.943850 moveto    0.356921   -0.934135 lineto
    0.329510   -0.943850 moveto    0.394211   -0.917753 lineto
    0.016087   -0.972043 moveto   -0.010217   -0.984547 lineto
    0.016087   -0.972043 moveto    0.055504   -0.982341 lineto
    0.016087   -0.972043 moveto    0.042552   -0.955400 lineto
    0.016087   -0.972043 moveto   -0.024387   -0.956704 lineto
    0.471483   -0.311169 moveto    0.392586   -0.393040 lineto
   -0.295537   -0.794650 moveto   -0.333769   -0.816325 lineto
    0.078160   -0.798778 moveto    0.017278   -0.782161 lineto
    0.078160   -0.798778 moveto   -0.000813   -0.822933 lineto
    0.078160   -0.798778 moveto    0.077077   -0.838976 lineto
    0.016136    0.686578 moveto   -0.172557    0.798994 lineto
    0.016136    0.686578 moveto   -0.235141    0.618633 lineto
    0.016136    0.686578 moveto   -0.061346    0.509605 lineto
    0.016136    0.686578 moveto    0.173631    0.535840 lineto
    0.969239   -0.188141 moveto    0.960261   -0.112578 lineto
    0.969239   -0.188141 moveto    0.931787   -0.242296 lineto
    0.969239   -0.188141 moveto    0.935121   -0.307539 lineto
    0.969239   -0.188141 moveto    0.963282   -0.260638 lineto
   -0.000813   -0.822933 moveto    0.077077   -0.838976 lineto
   -0.000813   -0.822933 moveto    0.017278   -0.782161 lineto
   -0.000813   -0.822933 moveto   -0.053120   -0.781640 lineto
   -0.000813   -0.822933 moveto   -0.081712   -0.819805 lineto
   -0.000813   -0.822933 moveto   -0.046878   -0.856453 lineto
   -0.617641   -0.779853 moveto   -0.563268   -0.820994 lineto
   -0.617641   -0.779853 moveto   -0.590709   -0.789385 lineto
   -0.617641   -0.779853 moveto   -0.659663   -0.738296 lineto
   -0.617641   -0.779853 moveto   -0.665291   -0.744402 lineto
    0.394211   -0.917753 moveto    0.383250   -0.923645 lineto
    0.394211   -0.917753 moveto    0.442622   -0.896695 lineto
    0.394211   -0.917753 moveto    0.455722   -0.886927 lineto
    0.798497   -0.559171 moveto    0.848307   -0.473493 lineto
    0.798497   -0.559171 moveto    0.745409   -0.633597 lineto
    0.691712   -0.634739 moveto    0.637943   -0.664509 lineto
   -0.665291   -0.744402 moveto   -0.659663   -0.738296 lineto
   -0.665291   -0.744402 moveto   -0.713745   -0.694016 lineto
   -0.665291   -0.744402 moveto   -0.656473   -0.754350 lineto
    0.963282   -0.260638 moveto    0.970824   -0.239791 lineto
    0.963282   -0.260638 moveto    0.935121   -0.307539 lineto
    0.963282   -0.260638 moveto    0.926753   -0.366779 lineto
    0.963282   -0.260638 moveto    0.950437   -0.310918 lineto
   -0.610097    0.524431 moveto   -0.422058    0.681798 lineto
   -0.610097    0.524431 moveto   -0.737708    0.357884 lineto
   -0.610097    0.524431 moveto   -0.597324    0.354655 lineto
    0.526657    0.147258 moveto    0.650639    0.053607 lineto
    0.526657    0.147258 moveto    0.480838    0.317129 lineto
    0.526657    0.147258 moveto    0.371978    0.205135 lineto
   -0.411989   -0.893792 moveto   -0.472847   -0.856496 lineto
   -0.411989   -0.893792 moveto   -0.399392   -0.910113 lineto
   -0.411989   -0.893792 moveto   -0.349990   -0.922810 lineto
    0.455722   -0.886927 moveto    0.442622   -0.896695 lineto
    0.455722   -0.886927 moveto    0.512785   -0.851358 lineto
    0.455722   -0.886927 moveto    0.458729   -0.876214 lineto
    0.338845   -0.639457 moveto    0.414185   -0.658979 lineto
    0.338845   -0.639457 moveto    0.368487   -0.569535 lineto
   -0.117402    0.329700 moveto    0.084488    0.375504 lineto
   -0.117402    0.329700 moveto   -0.061346    0.509605 lineto
   -0.117402    0.329700 moveto   -0.290062    0.245562 lineto
   -0.117402    0.329700 moveto   -0.149129    0.157580 lineto
    0.856847   -0.204518 moveto    0.822421   -0.314696 lineto
    0.856847   -0.204518 moveto    0.808753   -0.117896 lineto
   -0.748127   -0.625680 moveto   -0.804928   -0.567369 lineto
    0.037253   -0.999297 moveto    0.099893   -0.994904 lineto
    0.037253   -0.999297 moveto    0.058101   -0.996157 lineto
    0.037253   -0.999297 moveto    0.004854   -0.999988 lineto
    0.037253   -0.999297 moveto    0.035802   -0.999359 lineto
    0.037253   -0.999297 moveto    0.040683   -0.999172 lineto
   -0.504621   -0.860099 moveto   -0.444953   -0.893559 lineto
   -0.504621   -0.860099 moveto   -0.563268   -0.820994 lineto
   -0.587144   -0.721806 moveto   -0.549059   -0.710369 lineto
   -0.587144   -0.721806 moveto   -0.620195   -0.665810 lineto
   -0.587144   -0.721806 moveto   -0.656701   -0.674092 lineto
    0.442622   -0.896695 moveto    0.429856   -0.902897 lineto
    0.442622   -0.896695 moveto    0.441480   -0.897271 lineto
    0.442622   -0.896695 moveto    0.447817   -0.894125 lineto
    0.931787   -0.242296 moveto    0.892061   -0.356928 lineto
    0.931787   -0.242296 moveto    0.935121   -0.307539 lineto
    0.931787   -0.242296 moveto    0.960261   -0.112578 lineto
    0.004363   -0.936866 moveto   -0.024387   -0.956704 lineto
    0.004363   -0.936866 moveto    0.042552   -0.955400 lineto
    0.004363   -0.936866 moveto    0.070824   -0.933859 lineto
    0.004363   -0.936866 moveto    0.037282   -0.911679 lineto
    0.201022   -0.661739 moveto    0.182687   -0.598154 lineto
    0.201022   -0.661739 moveto    0.116201   -0.649843 lineto
    0.201022   -0.661739 moveto    0.135058   -0.707740 lineto
    0.201022   -0.661739 moveto    0.206770   -0.723527 lineto
    0.446894   -0.804218 moveto    0.460872   -0.761411 lineto
    0.446894   -0.804218 moveto    0.393336   -0.802585 lineto
   -0.172557    0.798994 moveto   -0.374231    0.843730 lineto
   -0.172557    0.798994 moveto   -0.422058    0.681798 lineto
   -0.172557    0.798994 moveto   -0.235141    0.618633 lineto
   -0.431487   -0.732628 moveto   -0.504583   -0.695273 lineto
   -0.757519   -0.323542 moveto   -0.711240   -0.425413 lineto
   -0.757519   -0.323542 moveto   -0.684012   -0.346952 lineto
   -0.757519   -0.323542 moveto   -0.713544   -0.242221 lineto
   -0.939391    0.330863 moveto   -0.935979    0.237584 lineto
   -0.939391    0.330863 moveto   -0.932082    0.362248 lineto
   -0.939391    0.330863 moveto   -0.963453    0.267878 lineto
   -0.256397   -0.915645 moveto   -0.234478   -0.938293 lineto
   -0.256397   -0.915645 moveto   -0.197872   -0.925187 lineto
   -0.256397   -0.915645 moveto   -0.245229   -0.894138 lineto
   -0.256397   -0.915645 moveto   -0.306560   -0.888657 lineto
   -0.061346    0.509605 moveto    0.084488    0.375504 lineto
   -0.061346    0.509605 moveto    0.173631    0.535840 lineto
   -0.061346    0.509605 moveto   -0.235141    0.618633 lineto
   -0.369295   -0.370314 moveto   -0.457320   -0.312133 lineto
   -0.369295   -0.370314 moveto   -0.446951   -0.414178 lineto
   -0.369295   -0.370314 moveto   -0.364878   -0.470497 lineto
   -0.787241   -0.464687 moveto   -0.821626   -0.472895 lineto
   -0.787241   -0.464687 moveto   -0.759894   -0.546664 lineto
   -0.787241   -0.464687 moveto   -0.720165   -0.543765 lineto
   -0.787241   -0.464687 moveto   -0.735728   -0.472280 lineto
    0.926753   -0.366779 moveto    0.908022   -0.418923 lineto
    0.926753   -0.366779 moveto    0.940487   -0.339831 lineto
    0.926753   -0.366779 moveto    0.935121   -0.307539 lineto
    0.926753   -0.366779 moveto    0.893988   -0.411049 lineto
   -0.115343   -0.967757 moveto   -0.161491   -0.947809 lineto
    0.592268    0.412703 moveto    0.699256    0.485889 lineto
    0.592268    0.412703 moveto    0.515642    0.606480 lineto
    0.592268    0.412703 moveto    0.480838    0.317129 lineto
   -0.165384   -0.153973 moveto   -0.159758   -0.009240 lineto
   -0.841732   -0.492321 moveto   -0.821626   -0.472895 lineto
   -0.841732   -0.492321 moveto   -0.874138   -0.402081 lineto
   -0.841732   -0.492321 moveto   -0.887813   -0.429161 lineto
   -0.841732   -0.492321 moveto   -0.804928   -0.567369 lineto
    0.458729   -0.876214 moveto    0.512785   -0.851358 lineto
    0.458729   -0.876214 moveto    0.454542   -0.865518 lineto
    0.458729   -0.876214 moveto    0.394925   -0.897959 lineto
    0.619836   -0.779894 moveto    0.569696   -0.810516 lineto
    0.619836   -0.779894 moveto    0.561895   -0.824988 lineto
    0.619836   -0.779894 moveto    0.664807   -0.746222 lineto
    0.090756   -0.585959 moveto    0.059377   -0.512724 lineto
    0.090756   -0.585959 moveto   -0.003214   -0.575631 lineto
    0.090756   -0.585959 moveto    0.026543   -0.639015 lineto
    0.090756   -0.585959 moveto    0.116201   -0.649843 lineto
    0.090756   -0.585959 moveto    0.182687   -0.598154 lineto
    0.187919   -0.894936 moveto    0.197767   -0.917509 lineto
    0.187919   -0.894936 moveto    0.254678   -0.896498 lineto
   -0.620195   -0.665810 moveto   -0.549059   -0.710369 lineto
   -0.620195   -0.665810 moveto   -0.656701   -0.674092 lineto
   -0.808512   -0.582902 moveto   -0.804051   -0.594561 lineto
   -0.808512   -0.582902 moveto   -0.804928   -0.567369 lineto
   -0.024387   -0.956704 moveto    0.042552   -0.955400 lineto
   -0.713544   -0.242221 moveto   -0.684012   -0.346952 lineto
   -0.713544   -0.242221 moveto   -0.625519   -0.294527 lineto
   -0.713544   -0.242221 moveto   -0.648729   -0.179511 lineto
    0.830025   -0.553301 moveto    0.820115   -0.572198 lineto
   -0.935979    0.237584 moveto   -0.967494    0.075989 lineto
   -0.935979    0.237584 moveto   -0.908078    0.125420 lineto
   -0.463004   -0.205541 moveto   -0.457320   -0.312133 lineto
   -0.463004   -0.205541 moveto   -0.469766   -0.087168 lineto
    0.578783   -0.715738 moveto    0.558306   -0.760082 lineto
    0.578783   -0.715738 moveto    0.637943   -0.664509 lineto
    0.578783   -0.715738 moveto    0.596889   -0.660289 lineto
    0.989484    0.100920 moveto    0.999989   -0.004628 lineto
    0.989484    0.100920 moveto    0.992081    0.125603 lineto
    0.989484    0.100920 moveto    0.954171    0.292220 lineto
    0.989484    0.100920 moveto    0.957445    0.197770 lineto
   -0.839712    0.060540 moveto   -0.908078    0.125420 lineto
   -0.839712    0.060540 moveto   -0.886899   -0.031238 lineto
   -0.839712    0.060540 moveto   -0.753395    0.039994 lineto
   -0.648786    0.083838 moveto   -0.753395    0.039994 lineto
   -0.648786    0.083838 moveto   -0.656924   -0.046740 lineto
   -0.648786    0.083838 moveto   -0.537217    0.029917 lineto
   -0.117849   -0.677843 moveto   -0.033231   -0.686120 lineto
   -0.117849   -0.677843 moveto   -0.066220   -0.627965 lineto
   -0.117849   -0.677843 moveto   -0.160020   -0.614851 lineto
   -0.117849   -0.677843 moveto   -0.199400   -0.666765 lineto
   -0.117849   -0.677843 moveto   -0.165782   -0.724966 lineto
   -0.117849   -0.677843 moveto   -0.085852   -0.732947 lineto
    0.148189   -0.961137 moveto    0.214084   -0.947524 lineto
    0.148189   -0.961137 moveto    0.108532   -0.949904 lineto
    0.892061   -0.356928 moveto    0.841842   -0.436706 lineto
    0.892061   -0.356928 moveto    0.848307   -0.473493 lineto
    0.892061   -0.356928 moveto    0.893988   -0.411049 lineto
    0.892061   -0.356928 moveto    0.935121   -0.307539 lineto
    0.460872   -0.761411 moveto    0.403538   -0.758851 lineto
    0.460872   -0.761411 moveto    0.393336   -0.802585 lineto
   -0.943330   -0.331726 moveto   -0.897518   -0.438530 lineto
   -0.943330   -0.331726 moveto   -0.959299   -0.263735 lineto
   -0.943330   -0.331726 moveto   -0.970673   -0.240404 lineto
   -0.943330   -0.331726 moveto   -0.944863   -0.327467 lineto
   -0.943330   -0.331726 moveto   -0.940487   -0.339829 lineto
   -0.003214   -0.575631 moveto   -0.066220   -0.627965 lineto
   -0.003214   -0.575631 moveto    0.026543   -0.639015 lineto
   -0.003214   -0.575631 moveto    0.059377   -0.512724 lineto
   -0.160020   -0.614851 moveto   -0.066220   -0.627965 lineto
   -0.160020   -0.614851 moveto   -0.193301   -0.545088 lineto
   -0.160020   -0.614851 moveto   -0.255613   -0.597284 lineto
   -0.160020   -0.614851 moveto   -0.199400   -0.666765 lineto
    0.728314   -0.166894 moveto    0.646225   -0.102936 lineto
    0.728314   -0.166894 moveto    0.645292   -0.236608 lineto
    0.728314   -0.166894 moveto    0.714342   -0.285193 lineto
    0.728314   -0.166894 moveto    0.808753   -0.117896 lineto
   -0.753395    0.039994 moveto   -0.656924   -0.046740 lineto
    0.954171    0.292220 moveto    0.935704    0.352787 lineto
    0.954171    0.292220 moveto    0.899761    0.353579 lineto
    0.954171    0.292220 moveto    0.957445    0.197770 lineto
    0.954171    0.292220 moveto    0.978912    0.204281 lineto
    0.954171    0.292220 moveto    0.958521    0.285020 lineto
   -0.446951   -0.414178 moveto   -0.457320   -0.312133 lineto
   -0.446951   -0.414178 moveto   -0.533652   -0.352877 lineto
   -0.446951   -0.414178 moveto   -0.514013   -0.452203 lineto
   -0.446951   -0.414178 moveto   -0.431630   -0.506775 lineto
   -0.446951   -0.414178 moveto   -0.364878   -0.470497 lineto
    0.822421   -0.314696 moveto    0.772640   -0.421400 lineto
   -0.469766   -0.087168 moveto   -0.537217    0.029917 lineto
    0.219886   -0.164934 moveto    0.187361   -0.045134 lineto
    0.219886   -0.164934 moveto    0.082824   -0.159386 lineto
    0.219886   -0.164934 moveto    0.151570   -0.263976 lineto
   -0.066220   -0.627965 moveto   -0.033231   -0.686120 lineto
   -0.066220   -0.627965 moveto    0.026543   -0.639015 lineto
    0.077077   -0.838976 moveto    0.073093   -0.880245 lineto
    0.077077   -0.838976 moveto    0.139156   -0.849780 lineto
   -0.935637   -0.180234 moveto   -0.972078   -0.082130 lineto
   -0.935637   -0.180234 moveto   -0.880937   -0.259290 lineto
    0.058101   -0.996157 moveto    0.091183   -0.988005 lineto
    0.058101   -0.996157 moveto    0.099893   -0.994904 lineto
   -0.457320   -0.312133 moveto   -0.533652   -0.352877 lineto
    0.197767   -0.917509 moveto    0.254678   -0.896498 lineto
   -0.590709   -0.789385 moveto   -0.563268   -0.820994 lineto
   -0.590709   -0.789385 moveto   -0.578807   -0.777544 lineto
   -0.590709   -0.789385 moveto   -0.639927   -0.738093 lineto
   -0.590709   -0.789385 moveto   -0.659663   -0.738296 lineto
   -0.004564   -0.888745 moveto   -0.046878   -0.856453 lineto
   -0.004564   -0.888745 moveto    0.037282   -0.911679 lineto
   -0.004564   -0.888745 moveto    0.073093   -0.880245 lineto
    0.214084   -0.947524 moveto    0.254833   -0.948888 lineto
    0.214084   -0.947524 moveto    0.280990   -0.927227 lineto
   -0.737708    0.357884 moveto   -0.597324    0.354655 lineto
   -0.257851   -0.966139 moveto   -0.321842   -0.946475 lineto
   -0.257851   -0.966139 moveto   -0.265908   -0.963998 lineto
   -0.257851   -0.966139 moveto   -0.254611   -0.967043 lineto
   -0.257851   -0.966139 moveto   -0.214444   -0.976736 lineto
   -0.257851   -0.966139 moveto   -0.209143   -0.976318 lineto
   -0.639927   -0.738093 moveto   -0.659663   -0.738296 lineto
   -0.639927   -0.738093 moveto   -0.578807   -0.777544 lineto
    0.139156   -0.849780 moveto    0.073093   -0.880245 lineto
    0.488444   -0.593921 moveto    0.414185   -0.658979 lineto
    0.488444   -0.593921 moveto    0.454851   -0.542150 lineto
   -0.069384   -0.996312 moveto   -0.137471   -0.989594 lineto
   -0.069384   -0.996312 moveto   -0.081511   -0.996672 lineto
   -0.069384   -0.996312 moveto   -0.027413   -0.999624 lineto
    0.173631    0.535840 moveto    0.084488    0.375504 lineto
    0.592512   -0.758189 moveto    0.558306   -0.760082 lineto
    0.592512   -0.758189 moveto    0.534411   -0.803435 lineto
    0.592512   -0.758189 moveto    0.580162   -0.788293 lineto
   -0.533652   -0.352877 moveto   -0.625519   -0.294527 lineto
   -0.533652   -0.352877 moveto   -0.595968   -0.394775 lineto
   -0.533652   -0.352877 moveto   -0.514013   -0.452203 lineto
    0.368487   -0.569535 moveto    0.454851   -0.542150 lineto
    0.368487   -0.569535 moveto    0.318598   -0.535787 lineto
   -0.234478   -0.938293 moveto   -0.241910   -0.952173 lineto
   -0.234478   -0.938293 moveto   -0.161491   -0.947809 lineto
   -0.234478   -0.938293 moveto   -0.197872   -0.925187 lineto
    0.646225   -0.102936 moveto    0.645292   -0.236608 lineto
    0.646225   -0.102936 moveto    0.650639    0.053607 lineto
    0.637943   -0.664509 moveto    0.596889   -0.660289 lineto
   -0.633599   -0.509403 moveto   -0.555066   -0.564080 lineto
   -0.633599   -0.509403 moveto   -0.573043   -0.487562 lineto
   -0.633599   -0.509403 moveto   -0.646040   -0.434691 lineto
   -0.633599   -0.509403 moveto   -0.711240   -0.425413 lineto
    0.073093   -0.880245 moveto    0.037282   -0.911679 lineto
    0.206770   -0.723527 moveto    0.210471   -0.775884 lineto
    0.206770   -0.723527 moveto    0.135058   -0.707740 lineto
    0.393336   -0.802585 moveto    0.403538   -0.758851 lineto
    0.393336   -0.802585 moveto    0.336102   -0.796719 lineto
    0.059377   -0.512724 moveto    0.021680   -0.428856 lineto
   -0.199400   -0.666765 moveto   -0.255613   -0.597284 lineto
   -0.199400   -0.666765 moveto   -0.272770   -0.658656 lineto
   -0.199400   -0.666765 moveto   -0.244353   -0.716598 lineto
   -0.199400   -0.666765 moveto   -0.165782   -0.724966 lineto
    0.645292   -0.236608 moveto    0.714342   -0.285193 lineto
   -0.597324    0.354655 moveto   -0.438504    0.318667 lineto
   -0.399392   -0.910113 moveto   -0.444953   -0.893559 lineto
   -0.399392   -0.910113 moveto   -0.349990   -0.922810 lineto
    0.394925   -0.897959 moveto    0.454542   -0.865518 lineto
    0.394925   -0.897959 moveto    0.348897   -0.902076 lineto
   -0.759894   -0.546664 moveto   -0.720165   -0.543765 lineto
   -0.759894   -0.546664 moveto   -0.821626   -0.472895 lineto
   -0.159758   -0.009240 moveto   -0.149129    0.157580 lineto
   -0.555066   -0.564080 moveto   -0.476816   -0.611226 lineto
   -0.555066   -0.564080 moveto   -0.573043   -0.487562 lineto
   -0.081712   -0.819805 moveto   -0.046878   -0.856453 lineto
   -0.081712   -0.819805 moveto   -0.053120   -0.781640 lineto
   -0.081712   -0.819805 moveto   -0.128997   -0.775342 lineto
   -0.081712   -0.819805 moveto   -0.157788   -0.813377 lineto
    0.515642    0.606480 moveto    0.699256    0.485889 lineto
   -0.967494    0.075989 moveto   -0.908078    0.125420 lineto
   -0.967494    0.075989 moveto   -0.994459    0.001808 lineto
   -0.967494    0.075989 moveto   -0.972078   -0.082130 lineto
    0.187361   -0.045134 moveto    0.122252    0.092073 lineto
    0.187361   -0.045134 moveto    0.061979   -0.038098 lineto
    0.187361   -0.045134 moveto    0.082824   -0.159386 lineto
   -0.648729   -0.179511 moveto   -0.625519   -0.294527 lineto
   -0.648729   -0.179511 moveto   -0.656924   -0.046740 lineto
    0.055504   -0.982341 moveto   -0.010217   -0.984547 lineto
    0.055504   -0.982341 moveto    0.091183   -0.988005 lineto
    0.848307   -0.473493 moveto    0.893988   -0.411049 lineto
    0.848307   -0.473493 moveto    0.841842   -0.436706 lineto
    0.512785   -0.851358 moveto    0.561895   -0.824988 lineto
    0.512785   -0.851358 moveto    0.569696   -0.810516 lineto
    0.274637   -0.787672 moveto    0.336102   -0.796719 lineto
    0.274637   -0.787672 moveto    0.341431   -0.750418 lineto
    0.274637   -0.787672 moveto    0.210471   -0.775884 lineto
    0.108532   -0.949904 moveto    0.070824   -0.933859 lineto
    0.108532   -0.949904 moveto    0.042552   -0.955400 lineto
   -0.994459    0.001808 moveto   -0.984722   -0.140222 lineto
   -0.994459    0.001808 moveto   -0.972078   -0.082130 lineto
   -0.994459    0.001808 moveto   -0.998861    0.047717 lineto
   -0.994459    0.001808 moveto   -0.997650   -0.068511 lineto
   -0.472847   -0.856496 moveto   -0.509810   -0.817220 lineto
   -0.656924   -0.046740 moveto   -0.537217    0.029917 lineto
   -0.333769   -0.816325 moveto   -0.377645   -0.826464 lineto
   -0.333769   -0.816325 moveto   -0.298087   -0.859097 lineto
   -0.595968   -0.394775 moveto   -0.625519   -0.294527 lineto
   -0.595968   -0.394775 moveto   -0.684012   -0.346952 lineto
   -0.595968   -0.394775 moveto   -0.646040   -0.434691 lineto
   -0.595968   -0.394775 moveto   -0.573043   -0.487562 lineto
   -0.595968   -0.394775 moveto   -0.514013   -0.452203 lineto
   -0.720165   -0.543765 moveto   -0.735728   -0.472280 lineto
   -0.209143   -0.976318 moveto   -0.137471   -0.989594 lineto
   -0.209143   -0.976318 moveto   -0.165489   -0.981085 lineto
   -0.209143   -0.976318 moveto   -0.195729   -0.980658 lineto
   -0.137471   -0.989594 moveto   -0.094754   -0.995501 lineto
   -0.137471   -0.989594 moveto   -0.165489   -0.981085 lineto
   -0.137471   -0.989594 moveto   -0.189492   -0.981882 lineto
   -0.137471   -0.989594 moveto   -0.138866   -0.990311 lineto
    0.017278   -0.782161 moveto   -0.053120   -0.781640 lineto
   -0.033231   -0.686120 moveto    0.026543   -0.639015 lineto
   -0.033231   -0.686120 moveto   -0.085852   -0.732947 lineto
   -0.625519   -0.294527 moveto   -0.684012   -0.346952 lineto
    0.116201   -0.649843 moveto    0.135058   -0.707740 lineto
    0.116201   -0.649843 moveto    0.182687   -0.598154 lineto
    0.116201   -0.649843 moveto    0.026543   -0.639015 lineto
    0.714342   -0.285193 moveto    0.689638   -0.389630 lineto
    0.689638   -0.389630 moveto    0.626329   -0.456619 lineto
   -0.735728   -0.472280 moveto   -0.711240   -0.425413 lineto
    0.280990   -0.927227 moveto    0.348897   -0.902076 lineto
    0.280990   -0.927227 moveto    0.254833   -0.948888 lineto
   -0.659663   -0.738296 moveto   -0.713745   -0.694016 lineto
    0.957445    0.197770 moveto    0.899761    0.353579 lineto
   -0.711240   -0.425413 moveto   -0.646040   -0.434691 lineto
   -0.711240   -0.425413 moveto   -0.684012   -0.346952 lineto
   -0.244353   -0.716598 moveto   -0.165782   -0.724966 lineto
   -0.244353   -0.716598 moveto   -0.272770   -0.658656 lineto
   -0.245229   -0.894138 moveto   -0.298087   -0.859097 lineto
   -0.245229   -0.894138 moveto   -0.306560   -0.888657 lineto
   -0.245229   -0.894138 moveto   -0.197872   -0.925187 lineto
   -0.193301   -0.545088 moveto   -0.130713   -0.487412 lineto
   -0.193301   -0.545088 moveto   -0.255613   -0.597284 lineto
   -0.377645   -0.826464 moveto   -0.298087   -0.859097 lineto
   -0.377645   -0.826464 moveto   -0.447089   -0.797185 lineto
   -0.886899   -0.031238 moveto   -0.908078    0.125420 lineto
   -0.272770   -0.658656 moveto   -0.255613   -0.597284 lineto
   -0.272770   -0.658656 moveto   -0.340564   -0.623642 lineto
   -0.085852   -0.732947 moveto   -0.165782   -0.724966 lineto
   -0.085852   -0.732947 moveto   -0.128997   -0.775342 lineto
   -0.085852   -0.732947 moveto   -0.053120   -0.781640 lineto
    0.669000   -0.543298 moveto    0.728599   -0.512292 lineto
    0.341431   -0.750418 moveto    0.336102   -0.796719 lineto
    0.341431   -0.750418 moveto    0.403538   -0.758851 lineto
    0.341431   -0.750418 moveto    0.410682   -0.710487 lineto
    0.568295   -0.425831 moveto    0.497138   -0.477734 lineto
    0.568295   -0.425831 moveto    0.626329   -0.456619 lineto
   -0.887813   -0.429161 moveto   -0.874138   -0.402081 lineto
   -0.887813   -0.429161 moveto   -0.922326   -0.330680 lineto
   -0.887813   -0.429161 moveto   -0.897518   -0.438530 lineto
    0.038358   -0.266089 moveto    0.151570   -0.263976 lineto
    0.038358   -0.266089 moveto    0.082824   -0.159386 lineto
    0.561895   -0.824988 moveto    0.553013   -0.833172 lineto
    0.561895   -0.824988 moveto    0.569696   -0.810516 lineto
   -0.444953   -0.893559 moveto   -0.429595   -0.903022 lineto
   -0.298087   -0.859097 moveto   -0.306560   -0.888657 lineto
   -0.748969    0.622216 moveto   -0.706581    0.707632 lineto
   -0.149133   -0.881450 moveto   -0.191062   -0.845713 lineto
   -0.874138   -0.402081 moveto   -0.821626   -0.472895 lineto
   -0.874138   -0.402081 moveto   -0.922326   -0.330680 lineto
   -0.290062    0.245562 moveto   -0.149129    0.157580 lineto
   -0.290062    0.245562 moveto   -0.438504    0.318667 lineto
    0.037282   -0.911679 moveto    0.070824   -0.933859 lineto
    0.935121   -0.307539 moveto    0.893988   -0.411049 lineto
   -0.573043   -0.487562 moveto   -0.514013   -0.452203 lineto
   -0.573043   -0.487562 moveto   -0.646040   -0.434691 lineto
   -0.364878   -0.470497 moveto   -0.431630   -0.506775 lineto
    0.558306   -0.760082 moveto    0.534411   -0.803435 lineto
    0.336102   -0.796719 moveto    0.403538   -0.758851 lineto
   -0.509810   -0.817220 moveto   -0.578807   -0.777544 lineto
   -0.053120   -0.781640 moveto   -0.128997   -0.775342 lineto
    0.728599   -0.512292 moveto    0.772640   -0.421400 lineto
    0.414185   -0.658979 moveto    0.410682   -0.710487 lineto
   -0.161501   -0.382061 moveto   -0.130713   -0.487412 lineto
   -0.161501   -0.382061 moveto   -0.074097   -0.423876 lineto
    0.189739   -0.363540 moveto    0.151570   -0.263976 lineto
   -0.191062   -0.845713 moveto   -0.157788   -0.813377 lineto
    0.480838    0.317129 moveto    0.371978    0.205135 lineto
   -0.684012   -0.346952 moveto   -0.646040   -0.434691 lineto
    0.042552   -0.955400 moveto    0.070824   -0.933859 lineto
   -0.984722   -0.140222 moveto   -0.977883   -0.209154 lineto
   -0.984722   -0.140222 moveto   -0.959299   -0.263735 lineto
   -0.984722   -0.140222 moveto   -0.972078   -0.082130 lineto
   -0.984722   -0.140222 moveto   -0.996042   -0.088879 lineto
   -0.922326   -0.330680 moveto   -0.959299   -0.263735 lineto
    0.410682   -0.710487 moveto    0.403538   -0.758851 lineto
   -0.306560   -0.888657 moveto   -0.371742   -0.878870 lineto
    0.099893   -0.994904 moveto    0.095329   -0.995446 lineto
    0.099893   -0.994904 moveto    0.113321   -0.993558 lineto
    0.099893   -0.994904 moveto    0.162991   -0.986035 lineto
   -0.130713   -0.487412 moveto   -0.074097   -0.423876 lineto
   -0.255613   -0.597284 moveto   -0.340564   -0.623642 lineto
   -0.165782   -0.724966 moveto   -0.128997   -0.775342 lineto
    0.162991   -0.986035 moveto    0.153267   -0.988185 lineto
    0.162991   -0.986035 moveto    0.195142   -0.980775 lineto
    0.082824   -0.159386 moveto    0.151570   -0.263976 lineto
    0.082824   -0.159386 moveto    0.061979   -0.038098 lineto
   -0.074097   -0.423876 moveto    0.021680   -0.428856 lineto
   -0.504583   -0.695273 moveto   -0.549059   -0.710369 lineto
   -0.235141    0.618633 moveto   -0.422058    0.681798 lineto
   -0.161491   -0.947809 moveto   -0.197872   -0.925187 lineto
   -0.422058    0.681798 moveto   -0.374231    0.843730 lineto
    0.664807   -0.746222 moveto    0.660153   -0.751131 lineto
    0.664807   -0.746222 moveto    0.690077   -0.723736 lineto
   -0.959299   -0.263735 moveto   -0.977137   -0.212612 lineto
   -0.296162    0.949442 moveto   -0.374231    0.843730 lineto
   -0.296162    0.949442 moveto   -0.269571    0.962981 lineto
   -0.296162    0.949442 moveto   -0.393230    0.919440 lineto
   -0.321842   -0.946475 moveto   -0.342512   -0.939513 lineto
   -0.321842   -0.946475 moveto   -0.313771   -0.949499 lineto
   -0.157788   -0.813377 moveto   -0.128997   -0.775342 lineto
    0.497138   -0.477734 moveto    0.454851   -0.542150 lineto
   -0.897518   -0.438530 moveto   -0.907097   -0.420921 lineto
   -0.897518   -0.438530 moveto   -0.889176   -0.457565 lineto
    0.061979   -0.038098 moveto    0.122252    0.092073 lineto
    0.580162   -0.788293 moveto    0.534411   -0.803435 lineto
    0.580162   -0.788293 moveto    0.569696   -0.810516 lineto
   -0.514013   -0.452203 moveto   -0.431630   -0.506775 lineto
stroke
grestore
/Helvetica findfont
    0.067227 scalefont setfont
stroke
showpage
%%EOF

