%!PS-Adobe-3.0 EPSF-3.0
%%BoundingBox:  36 126 576 666
%%Title:  Voronoi diagram
%%Creator:  STRIPACK
%%EndComments
    2.000000 setlinewidth
306 396 238 0 360 arc
stroke
  306.000000  396.000000 translate
  238.000000  238.000000 scale
    0.004202 setlinewidth
gsave
0 0     1.000000 0 360 arc
clip newpath
   -0.247124   -0.967814 moveto   -0.239771   -0.967732 lineto
   -0.239771   -0.967732 moveto   -0.270289   -0.956483 lineto
   -0.270289   -0.956483 moveto   -0.301222   -0.948071 lineto
   -0.301222   -0.948071 moveto   -0.313842   -0.947371 lineto
   -0.313842   -0.947371 moveto   -0.286124   -0.957575 lineto
   -0.649587   -0.715854 moveto   -0.614108   -0.748435 lineto
   -0.614108   -0.748435 moveto   -0.584114   -0.758946 lineto
   -0.584114   -0.758946 moveto   -0.586959   -0.742049 lineto
   -0.586959   -0.742049 moveto   -0.621780   -0.707739 lineto
   -0.621780   -0.707739 moveto   -0.654699   -0.696029 lineto
    0.631714   -0.619427 moveto    0.637315   -0.637343 lineto
    0.637315   -0.637343 moveto    0.673223   -0.627013 lineto
    0.673223   -0.627013 moveto    0.698890   -0.601231 lineto
    0.698890   -0.601231 moveto    0.711239   -0.558713 lineto
    0.711239   -0.558713 moveto    0.693774   -0.554649 lineto
    0.693774   -0.554649 moveto    0.650354   -0.586747 lineto
   -0.391444   -0.920200 moveto   -0.419923   -0.907061 lineto
   -0.419923   -0.907061 moveto   -0.453600   -0.891005 lineto
   -0.453600   -0.891005 moveto   -0.457230   -0.889348 lineto
    0.358563   -0.914514 moveto    0.357860   -0.909237 lineto
    0.357860   -0.909237 moveto    0.317649   -0.918266 lineto
    0.317649   -0.918266 moveto    0.284380   -0.935648 lineto
    0.284380   -0.935648 moveto    0.292143   -0.940341 lineto
    0.292143   -0.940341 moveto    0.319836   -0.933792 lineto
    0.317995   -0.675916 moveto    0.290702   -0.641832 lineto
    0.290702   -0.641832 moveto    0.251948   -0.649058 lineto
    0.251948   -0.649058 moveto    0.224253   -0.689224 lineto
    0.224253   -0.689224 moveto    0.253613   -0.714691 lineto
    0.253613   -0.714691 moveto    0.296756   -0.704107 lineto
    0.072193   -0.899587 moveto    0.071265   -0.918804 lineto
    0.071265   -0.918804 moveto    0.102858   -0.923234 lineto
    0.102858   -0.923234 moveto    0.147858   -0.908264 lineto
    0.147858   -0.908264 moveto    0.146706   -0.898810 lineto
    0.146706   -0.898810 moveto    0.102326   -0.890820 lineto
   -0.408273    0.885921 moveto   -0.454411    0.888490 lineto
   -0.454411    0.888490 moveto   -0.579116    0.815081 lineto
   -0.579116    0.815081 moveto   -0.677143    0.722789 lineto
   -0.677143    0.722789 moveto   -0.639387    0.719087 lineto
   -0.639387    0.719087 moveto   -0.516143    0.789135 lineto
   -0.046970   -0.752172 moveto   -0.018211   -0.765395 lineto
   -0.018211   -0.765395 moveto    0.029638   -0.754503 lineto
    0.029638   -0.754503 moveto    0.038812   -0.728010 lineto
    0.038812   -0.728010 moveto    0.006668   -0.705481 lineto
    0.006668   -0.705481 moveto   -0.045383   -0.718255 lineto
    0.540719   -0.840792 moveto    0.525410   -0.848072 lineto
    0.525410   -0.848072 moveto    0.493703   -0.866395 lineto
    0.493703   -0.866395 moveto    0.467693   -0.883179 lineto
    0.467693   -0.883179 moveto    0.480209   -0.877153 lineto
    0.480209   -0.877153 moveto    0.484346   -0.874877 lineto
   -0.167544   -0.785766 moveto   -0.169422   -0.755609 lineto
   -0.169422   -0.755609 moveto   -0.203542   -0.737616 lineto
   -0.203542   -0.737616 moveto   -0.250406   -0.746652 lineto
   -0.250406   -0.746652 moveto   -0.249315   -0.773841 lineto
   -0.249315   -0.773841 moveto   -0.195789   -0.794746 lineto
   -0.436006   -0.875989 moveto   -0.393049   -0.894647 lineto
   -0.393049   -0.894647 moveto   -0.378254   -0.888667 lineto
   -0.378254   -0.888667 moveto   -0.409693   -0.867208 lineto
   -0.409693   -0.867208 moveto   -0.452221   -0.857690 lineto
    0.617611    0.743309 moveto    0.511274    0.779735 lineto
    0.511274    0.779735 moveto    0.512212    0.704400 lineto
    0.512212    0.704400 moveto    0.617585    0.596980 lineto
    0.617585    0.596980 moveto    0.708764    0.568764 lineto
    0.708764    0.568764 moveto    0.715934    0.631111 lineto
   -0.371046   -0.584742 moveto   -0.308835   -0.595927 lineto
   -0.308835   -0.595927 moveto   -0.292974   -0.558898 lineto
   -0.292974   -0.558898 moveto   -0.331498   -0.513781 lineto
   -0.331498   -0.513781 moveto   -0.380390   -0.513048 lineto
   -0.380390   -0.513048 moveto   -0.396712   -0.549172 lineto
   -0.329457   -0.212813 moveto   -0.294255   -0.277892 lineto
   -0.294255   -0.277892 moveto   -0.226247   -0.282949 lineto
   -0.226247   -0.282949 moveto   -0.191805   -0.218690 lineto
   -0.191805   -0.218690 moveto   -0.241219   -0.149534 lineto
   -0.241219   -0.149534 moveto   -0.292390   -0.151530 lineto
    0.143763   -0.570881 moveto    0.189189   -0.554146 lineto
    0.189189   -0.554146 moveto    0.204888   -0.502737 lineto
    0.204888   -0.502737 moveto    0.166963   -0.474719 lineto
    0.166963   -0.474719 moveto    0.112608   -0.493156 lineto
    0.112608   -0.493156 moveto    0.100719   -0.541151 lineto
   -0.681666   -0.481328 moveto   -0.697792   -0.478663 lineto
   -0.697792   -0.478663 moveto   -0.710971   -0.517792 lineto
   -0.710971   -0.517792 moveto   -0.683602   -0.560745 lineto
   -0.683602   -0.560745 moveto   -0.643447   -0.573773 lineto
   -0.643447   -0.573773 moveto   -0.636437   -0.546200 lineto
    0.678964   -0.025331 moveto    0.705785   -0.098488 lineto
    0.705785   -0.098488 moveto    0.762893   -0.100077 lineto
    0.762893   -0.100077 moveto    0.793656   -0.040543 lineto
    0.793656   -0.040543 moveto    0.772806    0.042938 lineto
    0.772806    0.042938 moveto    0.716308    0.052092 lineto
    0.115667   -0.959877 moveto    0.076355   -0.959214 lineto
    0.076355   -0.959214 moveto    0.049390   -0.965766 lineto
    0.049390   -0.965766 moveto    0.049977   -0.975084 lineto
    0.049977   -0.975084 moveto    0.091027   -0.976369 lineto
    0.091027   -0.976369 moveto    0.115860   -0.970320 lineto
    0.773628    0.207273 moveto    0.805236    0.114124 lineto
    0.805236    0.114124 moveto    0.856824    0.091518 lineto
    0.856824    0.091518 moveto    0.882639    0.155379 lineto
    0.882639    0.155379 moveto    0.862297    0.244936 lineto
    0.862297    0.244936 moveto    0.802246    0.282984 lineto
   -0.301222   -0.948071 moveto   -0.327962   -0.935625 lineto
   -0.327962   -0.935625 moveto   -0.362803   -0.923811 lineto
   -0.362803   -0.923811 moveto   -0.374873   -0.923516 lineto
   -0.374873   -0.923516 moveto   -0.347776   -0.936062 lineto
   -0.366815    0.084207 moveto   -0.310743   -0.002380 lineto
   -0.310743   -0.002380 moveto   -0.243604    0.001672 lineto
   -0.243604    0.001672 moveto   -0.192250    0.076364 lineto
   -0.192250    0.076364 moveto   -0.243153    0.166733 lineto
   -0.243153    0.166733 moveto   -0.335688    0.157016 lineto
   -0.364819   -0.789600 moveto   -0.399010   -0.761057 lineto
   -0.399010   -0.761057 moveto   -0.439893   -0.754965 lineto
   -0.439893   -0.754965 moveto   -0.443229   -0.777196 lineto
   -0.443229   -0.777196 moveto   -0.411824   -0.802184 lineto
   -0.411824   -0.802184 moveto   -0.373469   -0.807631 lineto
    0.119425   -0.831693 moveto    0.165471   -0.828231 lineto
    0.165471   -0.828231 moveto    0.188840   -0.802269 lineto
    0.188840   -0.802269 moveto    0.166370   -0.783517 lineto
    0.166370   -0.783517 moveto    0.121707   -0.789617 lineto
    0.121707   -0.789617 moveto    0.102695   -0.817743 lineto
   -0.866115    0.206065 moveto   -0.863069    0.138915 lineto
   -0.863069    0.138915 moveto   -0.788414    0.117508 lineto
   -0.788414    0.117508 moveto   -0.768359    0.139658 lineto
   -0.768359    0.139658 moveto   -0.753560    0.260082 lineto
   -0.753560    0.260082 moveto   -0.806064    0.298977 lineto
    0.343100   -0.849373 moveto    0.355605   -0.862574 lineto
    0.355605   -0.862574 moveto    0.393488   -0.851998 lineto
    0.393488   -0.851998 moveto    0.420297   -0.829371 lineto
    0.420297   -0.829371 moveto    0.408387   -0.815836 lineto
    0.408387   -0.815836 moveto    0.366768   -0.827916 lineto
   -0.449903   -0.542297 moveto   -0.481867   -0.498534 lineto
   -0.481867   -0.498534 moveto   -0.527927   -0.492356 lineto
   -0.527927   -0.492356 moveto   -0.541165   -0.530998 lineto
   -0.541165   -0.530998 moveto   -0.511345   -0.571100 lineto
   -0.511345   -0.571100 moveto   -0.463670   -0.578316 lineto
    0.166370   -0.783517 moveto    0.188094   -0.754184 lineto
    0.188094   -0.754184 moveto    0.160406   -0.732219 lineto
    0.160406   -0.732219 moveto    0.119118   -0.739063 lineto
    0.119118   -0.739063 moveto    0.097426   -0.771766 lineto
   -0.795833   -0.269607 moveto   -0.752383   -0.264071 lineto
   -0.752383   -0.264071 moveto   -0.750218   -0.180801 lineto
   -0.750218   -0.180801 moveto   -0.782178   -0.137673 lineto
   -0.782178   -0.137673 moveto   -0.820183   -0.147452 lineto
   -0.820183   -0.147452 moveto   -0.822555   -0.231185 lineto
   -0.792518    0.388557 moveto   -0.704095    0.470962 lineto
   -0.704095    0.470962 moveto   -0.663898    0.575289 lineto
   -0.663898    0.575289 moveto   -0.707469    0.607846 lineto
   -0.707469    0.607846 moveto   -0.797610    0.523449 lineto
   -0.797610    0.523449 moveto   -0.832976    0.413514 lineto
    0.366768   -0.827916 moveto    0.352791   -0.812505 lineto
    0.352791   -0.812505 moveto    0.311373   -0.822122 lineto
    0.311373   -0.822122 moveto    0.285314   -0.846120 lineto
    0.285314   -0.846120 moveto    0.299487   -0.860059 lineto
    0.343100   -0.849373 moveto    0.366768   -0.827916 lineto
    0.001290   -0.161553 moveto    0.027738   -0.106794 lineto
    0.027738   -0.106794 moveto   -0.018070   -0.021598 lineto
   -0.018070   -0.021598 moveto   -0.075202   -0.016197 lineto
   -0.075202   -0.016197 moveto   -0.128019   -0.083632 lineto
   -0.128019   -0.083632 moveto   -0.092988   -0.154243 lineto
   -0.463670   -0.578316 moveto   -0.432093   -0.616264 lineto
   -0.432093   -0.616264 moveto   -0.386617   -0.621694 lineto
   -0.371046   -0.584742 moveto   -0.396712   -0.549172 lineto
   -0.396712   -0.549172 moveto   -0.449903   -0.542297 lineto
   -0.449903   -0.542297 moveto   -0.463670   -0.578316 lineto
    0.296756   -0.704107 moveto    0.320481   -0.730441 lineto
    0.320481   -0.730441 moveto    0.367002   -0.717895 lineto
    0.367002   -0.717895 moveto    0.386211   -0.692969 lineto
    0.386211   -0.692969 moveto    0.369150   -0.660645 lineto
    0.317995   -0.675916 moveto    0.296756   -0.704107 lineto
    0.629670   -0.560450 moveto    0.663402   -0.505866 lineto
    0.663402   -0.505866 moveto    0.655483   -0.480372 lineto
    0.655483   -0.480372 moveto    0.595685   -0.504320 lineto
    0.595685   -0.504320 moveto    0.573476   -0.548064 lineto
    0.573476   -0.548064 moveto    0.597681   -0.575247 lineto
    0.537147   -0.390505 moveto    0.588861   -0.370240 lineto
    0.588861   -0.370240 moveto    0.615638   -0.299167 lineto
    0.615638   -0.299167 moveto    0.594580   -0.271695 lineto
    0.594580   -0.271695 moveto    0.528596   -0.290368 lineto
    0.528596   -0.290368 moveto    0.508215   -0.347347 lineto
   -0.116175   -0.993173 moveto   -0.160402   -0.986981 lineto
   -0.160402   -0.986981 moveto   -0.163727   -0.986506 lineto
    0.996683    0.079299 moveto    0.996488    0.016722 lineto
    0.996488    0.016722 moveto    0.996350   -0.058284 lineto
    0.996350   -0.058284 moveto    0.996951   -0.078034 lineto
    0.393488   -0.851998 moveto    0.403472   -0.862995 lineto
    0.403472   -0.862995 moveto    0.439646   -0.851260 lineto
    0.439646   -0.851260 moveto    0.467869   -0.828184 lineto
    0.467869   -0.828184 moveto    0.458628   -0.816336 lineto
   -0.581963   -0.813212 moveto   -0.574567   -0.816897 lineto
   -0.574567   -0.816897 moveto   -0.594647   -0.800744 lineto
   -0.594647   -0.800744 moveto   -0.632058   -0.772507 lineto
   -0.632058   -0.772507 moveto   -0.642699   -0.765756 lineto
   -0.642699   -0.765756 moveto   -0.626598   -0.779343 lineto
   -0.988363    0.152064 moveto   -0.969104    0.243418 lineto
   -0.969104    0.243418 moveto   -0.955505    0.294976 lineto
    0.031996   -0.878916 moveto    0.063300   -0.860733 lineto
    0.063300   -0.860733 moveto    0.034221   -0.836889 lineto
    0.034221   -0.836889 moveto   -0.011287   -0.845428 lineto
   -0.011287   -0.845428 moveto   -0.014026   -0.869676 lineto
   -0.039743   -0.987774 moveto   -0.043780   -0.980200 lineto
   -0.043780   -0.980200 moveto   -0.081021   -0.975138 lineto
   -0.081021   -0.975138 moveto   -0.105328   -0.976476 lineto
   -0.105328   -0.976476 moveto   -0.101375   -0.984575 lineto
   -0.101375   -0.984575 moveto   -0.073802   -0.988735 lineto
   -0.227635    0.339220 moveto   -0.152899    0.435018 lineto
   -0.152899    0.435018 moveto   -0.188158    0.525908 lineto
   -0.188158    0.525908 moveto   -0.321340    0.526566 lineto
   -0.321340    0.526566 moveto   -0.384594    0.424442 lineto
   -0.384594    0.424442 moveto   -0.334720    0.338433 lineto
   -0.374873   -0.923516 moveto   -0.409203   -0.909691 lineto
   -0.391444   -0.920200 moveto   -0.357947   -0.933647 lineto
    0.204888   -0.502737 moveto    0.262322   -0.486009 lineto
    0.262322   -0.486009 moveto    0.275986   -0.428774 lineto
    0.275986   -0.428774 moveto    0.235652   -0.397696 lineto
    0.235652   -0.397696 moveto    0.179540   -0.419256 lineto
    0.355605   -0.862574 moveto    0.328806   -0.882323 lineto
    0.328806   -0.882323 moveto    0.340879   -0.893028 lineto
    0.340879   -0.893028 moveto    0.374236   -0.883698 lineto
    0.823900   -0.553014 moveto    0.814273   -0.554774 lineto
    0.814273   -0.554774 moveto    0.779469   -0.596618 lineto
    0.779469   -0.596618 moveto    0.760745   -0.629336 lineto
    0.760745   -0.629336 moveto    0.773080   -0.625944 lineto
    0.773080   -0.625944 moveto    0.800944   -0.592142 lineto
    0.678890   -0.697575 moveto    0.655027   -0.703892 lineto
    0.655027   -0.703892 moveto    0.627490   -0.727527 lineto
    0.627490   -0.727527 moveto    0.608486   -0.759944 lineto
    0.608486   -0.759944 moveto    0.617860   -0.758925 lineto
    0.617860   -0.758925 moveto    0.657856   -0.729258 lineto
    0.285314   -0.846120 moveto    0.245292   -0.852681 lineto
    0.245292   -0.852681 moveto    0.216519   -0.876005 lineto
    0.216519   -0.876005 moveto    0.230313   -0.888180 lineto
    0.230313   -0.888180 moveto    0.279144   -0.877598 lineto
    0.310648   -0.313763 moveto    0.353275   -0.354789 lineto
    0.353275   -0.354789 moveto    0.413526   -0.332781 lineto
    0.413526   -0.332781 moveto    0.431119   -0.270728 lineto
    0.431119   -0.270728 moveto    0.389850   -0.227156 lineto
    0.389850   -0.227156 moveto    0.327693   -0.249756 lineto
    0.715934    0.631111 moveto    0.800725    0.565642 lineto
    0.800725    0.565642 moveto    0.797345    0.599103 lineto
    0.797345    0.599103 moveto    0.702461    0.711406 lineto
    0.702461    0.711406 moveto    0.614423    0.780010 lineto
    0.617611    0.743309 moveto    0.715934    0.631111 lineto
    0.617860   -0.758925 moveto    0.596706   -0.785773 lineto
    0.596706   -0.785773 moveto    0.607079   -0.783722 lineto
    0.607079   -0.783722 moveto    0.646096   -0.754425 lineto
    0.646096   -0.754425 moveto    0.668760   -0.727266 lineto
    0.202169   -0.974607 moveto    0.194965   -0.971125 lineto
    0.194965   -0.971125 moveto    0.158163   -0.975645 lineto
    0.158163   -0.975645 moveto    0.130833   -0.982302 lineto
    0.130833   -0.982302 moveto    0.127509   -0.985598 lineto
    0.127509   -0.985598 moveto    0.159173   -0.984494 lineto
    0.159173   -0.984494 moveto    0.178202   -0.981300 lineto
    0.354722    0.116394 moveto    0.340455    0.026055 lineto
    0.340455    0.026055 moveto    0.387726   -0.024415 lineto
    0.387726   -0.024415 moveto    0.473452   -0.008792 lineto
    0.473452   -0.008792 moveto    0.496545    0.067121 lineto
    0.496545    0.067121 moveto    0.442813    0.142373 lineto
    0.754649   -0.295960 moveto    0.724048   -0.336433 lineto
    0.724048   -0.336433 moveto    0.722805   -0.405192 lineto
    0.722805   -0.405192 moveto    0.740499   -0.412964 lineto
    0.740499   -0.412964 moveto    0.788530   -0.363666 lineto
    0.788530   -0.363666 moveto    0.792105   -0.298869 lineto
    0.292143   -0.940341 moveto    0.258490   -0.954621 lineto
    0.258490   -0.954621 moveto    0.266830   -0.957577 lineto
    0.266830   -0.957577 moveto    0.307032   -0.946673 lineto
    0.307032   -0.946673 moveto    0.329058   -0.936335 lineto
   -0.409693   -0.867208 moveto   -0.410276   -0.857966 lineto
   -0.410276   -0.857966 moveto   -0.450948   -0.831044 lineto
   -0.450948   -0.831044 moveto   -0.480822   -0.824046 lineto
   -0.480822   -0.824046 moveto   -0.476265   -0.842817 lineto
    0.033778    0.123418 moveto    0.112100    0.189650 lineto
    0.112100    0.189650 moveto    0.101627    0.275362 lineto
    0.101627    0.275362 moveto   -0.007576    0.318851 lineto
   -0.007576    0.318851 moveto   -0.083953    0.237154 lineto
   -0.083953    0.237154 moveto   -0.054466    0.151230 lineto
    0.595685   -0.504320 moveto    0.578714   -0.471064 lineto
    0.578714   -0.471064 moveto    0.544295   -0.477083 lineto
    0.544295   -0.477083 moveto    0.504500   -0.521186 lineto
    0.504500   -0.521186 moveto    0.500273   -0.547123 lineto
    0.500273   -0.547123 moveto    0.534418   -0.567352 lineto
    0.810046   -0.374080 moveto    0.802049   -0.424114 lineto
    0.802049   -0.424114 moveto    0.821305   -0.432893 lineto
    0.821305   -0.432893 moveto    0.864172   -0.376932 lineto
    0.864172   -0.376932 moveto    0.872376   -0.348025 lineto
    0.872376   -0.348025 moveto    0.850485   -0.321946 lineto
    0.340455    0.026055 moveto    0.257688   -0.001205 lineto
    0.257688   -0.001205 moveto    0.247880   -0.091872 lineto
    0.247880   -0.091872 moveto    0.289553   -0.131903 lineto
    0.289553   -0.131903 moveto    0.369302   -0.109695 lineto
    0.119118   -0.739063 moveto    0.088454   -0.716476 lineto
    0.029638   -0.754503 moveto    0.060017   -0.775393 lineto
   -0.450948   -0.831044 moveto   -0.449663   -0.815004 lineto
   -0.449663   -0.815004 moveto   -0.483064   -0.788837 lineto
   -0.483064   -0.788837 moveto   -0.519206   -0.780386 lineto
   -0.519206   -0.780386 moveto   -0.516204   -0.798770 lineto
    0.507570    0.511339 moveto    0.399823    0.611218 lineto
    0.399823    0.611218 moveto    0.288285    0.577219 lineto
    0.288285    0.577219 moveto    0.289574    0.484652 lineto
    0.289574    0.484652 moveto    0.394949    0.398206 lineto
    0.394949    0.398206 moveto    0.493371    0.422549 lineto
    0.431119   -0.270728 moveto    0.498472   -0.246786 lineto
    0.498472   -0.246786 moveto    0.514352   -0.190115 lineto
    0.514352   -0.190115 moveto    0.480592   -0.138387 lineto
    0.480592   -0.138387 moveto    0.409414   -0.155121 lineto
    0.262322   -0.486009 moveto    0.285799   -0.504922 lineto
    0.285799   -0.504922 moveto    0.352652   -0.491293 lineto
    0.352652   -0.491293 moveto    0.373204   -0.447623 lineto
    0.373204   -0.447623 moveto    0.335926   -0.406733 lineto
    0.511274    0.779735 moveto    0.370696    0.872553 lineto
    0.370696    0.872553 moveto    0.246089    0.871521 lineto
    0.246089    0.871521 moveto    0.261616    0.787501 lineto
    0.261616    0.787501 moveto    0.400491    0.702462 lineto
    0.182571    0.978993 moveto    0.170294    0.985393 lineto
   -0.117882    0.981762 moveto    0.048836    0.978168 lineto
   -0.443395   -0.647279 moveto   -0.487537   -0.641612 lineto
   -0.487537   -0.641612 moveto   -0.494661   -0.669793 lineto
   -0.494661   -0.669793 moveto   -0.465614   -0.701039 lineto
   -0.465614   -0.701039 moveto   -0.418328   -0.709305 lineto
   -0.418328   -0.709305 moveto   -0.409277   -0.683644 lineto
   -0.439893   -0.754965 moveto   -0.470791   -0.726644 lineto
   -0.470791   -0.726644 moveto   -0.512391   -0.718440 lineto
   -0.512391   -0.718440 moveto   -0.514478   -0.740921 lineto
    0.557198   -0.678573 moveto    0.582390   -0.641496 lineto
    0.582390   -0.641496 moveto    0.569074   -0.619678 lineto
    0.569074   -0.619678 moveto    0.527031   -0.635129 lineto
    0.527031   -0.635129 moveto    0.500044   -0.677631 lineto
    0.500044   -0.677631 moveto    0.515571   -0.695261 lineto
   -0.643447   -0.573773 moveto   -0.612613   -0.614896 lineto
   -0.612613   -0.614896 moveto   -0.569720   -0.625316 lineto
   -0.569720   -0.625316 moveto   -0.563626   -0.596505 lineto
   -0.563626   -0.596505 moveto   -0.598741   -0.551618 lineto
   -0.160402   -0.986981 moveto   -0.176471   -0.983782 lineto
   -0.176471   -0.983782 moveto   -0.222718   -0.974674 lineto
   -0.222718   -0.974674 moveto   -0.226916   -0.973914 lineto
   -0.084314   -0.965249 moveto   -0.056813   -0.961784 lineto
   -0.056813   -0.961784 moveto   -0.059904   -0.949942 lineto
   -0.059904   -0.949942 moveto   -0.096312   -0.942036 lineto
   -0.096312   -0.942036 moveto   -0.128834   -0.945701 lineto
   -0.128834   -0.945701 moveto   -0.125084   -0.957137 lineto
   -0.822555   -0.231185 moveto   -0.857704   -0.234580 lineto
   -0.857704   -0.234580 moveto   -0.849864   -0.316590 lineto
   -0.849864   -0.316590 moveto   -0.827448   -0.347215 lineto
   -0.827448   -0.347215 moveto   -0.790087   -0.335122 lineto
   -0.795833   -0.269607 moveto   -0.822555   -0.231185 lineto
   -0.073802   -0.988735 moveto   -0.068687   -0.993706 lineto
   -0.068687   -0.993706 moveto   -0.039452   -0.996434 lineto
   -0.039452   -0.996434 moveto   -0.005029   -0.995341 lineto
   -0.005029   -0.995341 moveto   -0.009532   -0.990541 lineto
   -0.039743   -0.987774 moveto   -0.073802   -0.988735 lineto
   -0.577053    0.106173 moveto   -0.513179    0.124496 lineto
   -0.513179    0.124496 moveto   -0.474399    0.223462 lineto
   -0.474399    0.223462 moveto   -0.533733    0.301421 lineto
   -0.533733    0.301421 moveto   -0.626935    0.251686 lineto
   -0.626935    0.251686 moveto   -0.639675    0.181319 lineto
   -0.579116    0.815081 moveto   -0.583855    0.811858 lineto
   -0.932333   -0.242679 moveto   -0.959097   -0.153342 lineto
   -0.959097   -0.153342 moveto   -0.972557   -0.148207 lineto
   -0.972557   -0.148207 moveto   -0.969867   -0.202168 lineto
   -0.969867   -0.202168 moveto   -0.946513   -0.276245 lineto
   -0.946513   -0.276245 moveto   -0.930994   -0.274305 lineto
    0.276837   -0.917511 moveto    0.265596   -0.907822 lineto
    0.265596   -0.907822 moveto    0.234579   -0.912995 lineto
    0.234579   -0.912995 moveto    0.203733   -0.928970 lineto
    0.203733   -0.928970 moveto    0.209360   -0.938171 lineto
    0.209360   -0.938171 moveto    0.244099   -0.934446 lineto
    0.319836   -0.933792 moveto    0.329058   -0.936335 lineto
    0.329058   -0.936335 moveto    0.370162   -0.922197 lineto
    0.370162   -0.922197 moveto    0.390970   -0.907249 lineto
    0.358563   -0.914514 moveto    0.319836   -0.933792 lineto
   -0.005029   -0.995341 moveto    0.024240   -0.996310 lineto
    0.024240   -0.996310 moveto    0.059525   -0.992831 lineto
    0.059525   -0.992831 moveto    0.056586   -0.988402 lineto
    0.056586   -0.988402 moveto    0.023882   -0.987188 lineto
    0.657856   -0.729258 moveto    0.668760   -0.727266 lineto
    0.668760   -0.727266 moveto    0.706722   -0.694201 lineto
    0.706722   -0.694201 moveto    0.727672   -0.663959 lineto
    0.727672   -0.663959 moveto    0.710795   -0.668061 lineto
    0.678890   -0.697575 moveto    0.657856   -0.729258 lineto
   -0.270289   -0.956483 moveto   -0.253263   -0.955905 lineto
   -0.253263   -0.955905 moveto   -0.279069   -0.943646 lineto
   -0.279069   -0.943646 moveto   -0.312573   -0.933936 lineto
   -0.410276   -0.857966 moveto   -0.382319   -0.860765 lineto
   -0.382319   -0.860765 moveto   -0.387646   -0.840042 lineto
   -0.387646   -0.840042 moveto   -0.413305   -0.822425 lineto
    0.370696    0.872553 moveto    0.355896    0.922741 lineto
    0.182571    0.978993 moveto    0.048836    0.978168 lineto
    0.048836    0.978168 moveto    0.083127    0.922704 lineto
   -0.881038   -0.196809 moveto   -0.880054   -0.107435 lineto
   -0.880054   -0.107435 moveto   -0.915300   -0.062997 lineto
   -0.915300   -0.062997 moveto   -0.937491   -0.105035 lineto
   -0.937491   -0.105035 moveto   -0.908726   -0.201596 lineto
   -0.919274   -0.393612 moveto   -0.920125   -0.391624 lineto
   -0.483064   -0.788837 moveto   -0.482180   -0.769883 lineto
   -0.482180   -0.769883 moveto   -0.514478   -0.740921 lineto
   -0.514478   -0.740921 moveto   -0.553324   -0.731634 lineto
   -0.553324   -0.731634 moveto   -0.552196   -0.752136 lineto
    0.467869   -0.828184 moveto    0.503075   -0.814142 lineto
    0.503075   -0.814142 moveto    0.532570   -0.788893 lineto
    0.532570   -0.788893 moveto    0.522255   -0.775651 lineto
    0.522255   -0.775651 moveto    0.485558   -0.790614 lineto
   -0.750218   -0.180801 moveto   -0.703069   -0.175837 lineto
   -0.703069   -0.175837 moveto   -0.683071   -0.112610 lineto
   -0.683071   -0.112610 moveto   -0.719942   -0.032164 lineto
   -0.719942   -0.032164 moveto   -0.770115   -0.041159 lineto
   -0.099886   -0.368621 moveto   -0.024397   -0.390017 lineto
   -0.024397   -0.390017 moveto    0.012440   -0.366873 lineto
    0.012440   -0.366873 moveto    0.019676   -0.327943 lineto
    0.019676   -0.327943 moveto   -0.027425   -0.275065 lineto
   -0.027425   -0.275065 moveto   -0.086706   -0.278798 lineto
   -0.086706   -0.278798 moveto   -0.116182   -0.335785 lineto
   -0.241219   -0.149534 moveto   -0.195229   -0.080055 lineto
   -0.310743   -0.002380 moveto   -0.350213   -0.072249 lineto
   -0.683602   -0.560745 moveto   -0.687441   -0.585403 lineto
   -0.687441   -0.585403 moveto   -0.655682   -0.628550 lineto
   -0.655682   -0.628550 moveto   -0.615763   -0.640576 lineto
   -0.687441   -0.585403 moveto   -0.725198   -0.570962 lineto
   -0.725198   -0.570962 moveto   -0.727240   -0.590086 lineto
   -0.727240   -0.590086 moveto   -0.691921   -0.637099 lineto
   -0.691921   -0.637099 moveto   -0.656539   -0.649871 lineto
   -0.458055    0.053841 moveto   -0.468451   -0.001516 lineto
   -0.468451   -0.001516 moveto   -0.399477   -0.080729 lineto
   -0.366815    0.084207 moveto   -0.458055    0.053841 lineto
   -0.581963   -0.813212 moveto   -0.579760   -0.814787 lineto
   -0.514642   -0.856749 moveto   -0.540150   -0.839303 lineto
   -0.502419   -0.833685 moveto   -0.543399   -0.802933 lineto
   -0.543399   -0.802933 moveto   -0.571559   -0.794260 lineto
   -0.571559   -0.794260 moveto   -0.554137   -0.816135 lineto
   -0.554137   -0.816135 moveto   -0.506337   -0.842264 lineto
    0.290702   -0.641832 moveto    0.324605   -0.602713 lineto
    0.324605   -0.602713 moveto    0.317585   -0.579804 lineto
    0.317585   -0.579804 moveto    0.272963   -0.565463 lineto
    0.272963   -0.565463 moveto    0.236094   -0.581778 lineto
    0.236094   -0.581778 moveto    0.220772   -0.621760 lineto
   -0.105328   -0.976476 moveto   -0.146138   -0.969053 lineto
   -0.146138   -0.969053 moveto   -0.164037   -0.969259 lineto
   -0.164037   -0.969259 moveto   -0.160375   -0.977510 lineto
   -0.160375   -0.977510 moveto   -0.135375   -0.982966 lineto
   -0.399477   -0.080729 moveto   -0.431084   -0.147076 lineto
   -0.431084   -0.147076 moveto   -0.398000   -0.209722 lineto
   -0.329457   -0.212813 moveto   -0.292390   -0.151530 lineto
   -0.292390   -0.151530 moveto   -0.350213   -0.072249 lineto
   -0.350213   -0.072249 moveto   -0.399477   -0.080729 lineto
    0.802049   -0.424114 moveto    0.764309   -0.468645 lineto
    0.764309   -0.468645 moveto    0.753332   -0.518250 lineto
    0.753332   -0.518250 moveto    0.772853   -0.522066 lineto
    0.772853   -0.522066 moveto    0.810070   -0.478617 lineto
   -0.226247   -0.282949 moveto   -0.198117   -0.327879 lineto
   -0.086706   -0.278798 moveto   -0.129444   -0.216756 lineto
   -0.739224   -0.649693 moveto   -0.772905   -0.609249 lineto
   -0.772905   -0.609249 moveto   -0.793317   -0.594757 lineto
   -0.793317   -0.594757 moveto   -0.776887   -0.623772 lineto
   -0.776887   -0.623772 moveto   -0.748098   -0.657508 lineto
   -0.748098   -0.657508 moveto   -0.727037   -0.672716 lineto
    0.370162   -0.922197 moveto    0.381375   -0.920293 lineto
    0.381375   -0.920293 moveto    0.418777   -0.904689 lineto
    0.418777   -0.904689 moveto    0.442255   -0.889698 lineto
    0.442255   -0.889698 moveto    0.419457   -0.893992 lineto
    0.631714   -0.619427 moveto    0.650354   -0.586747 lineto
    0.650354   -0.586747 moveto    0.629670   -0.560450 lineto
    0.629670   -0.560450 moveto    0.597681   -0.575247 lineto
    0.597681   -0.575247 moveto    0.569074   -0.619678 lineto
    0.367573   -0.929784 moveto    0.352476   -0.935821 lineto
    0.246089    0.871521 moveto    0.083127    0.922704 lineto
    0.083127    0.922704 moveto   -0.048545    0.874265 lineto
   -0.048545    0.874265 moveto   -0.016117    0.791926 lineto
   -0.016117    0.791926 moveto    0.139314    0.745796 lineto
   -0.989524   -0.141821 moveto   -0.995566   -0.069088 lineto
   -0.995566   -0.069088 moveto   -0.999815   -0.002060 lineto
   -0.999815   -0.002060 moveto   -0.999989   -0.004625 lineto
   -0.027425   -0.275065 moveto    0.015683   -0.195399 lineto
    0.001290   -0.161553 moveto   -0.092988   -0.154243 lineto
   -0.092988   -0.154243 moveto   -0.129444   -0.216756 lineto
   -0.393049   -0.894647 moveto   -0.375075   -0.907313 lineto
   -0.375075   -0.907313 moveto   -0.333819   -0.921513 lineto
   -0.333819   -0.921513 moveto   -0.321469   -0.916827 lineto
   -0.321469   -0.916827 moveto   -0.349063   -0.897841 lineto
    0.983740    0.042105 moveto    0.974936    0.109165 lineto
    0.974936    0.109165 moveto    0.946188    0.143487 lineto
    0.946188    0.143487 moveto    0.933149    0.101588 lineto
    0.933149    0.101588 moveto    0.935758    0.044247 lineto
    0.935758    0.044247 moveto    0.959892   -0.031598 lineto
    0.959892   -0.031598 moveto    0.972982   -0.029180 lineto
   -0.101375   -0.984575 moveto   -0.135375   -0.982966 lineto
   -0.135375   -0.982966 moveto   -0.133083   -0.987813 lineto
   -0.133083   -0.987813 moveto   -0.105587   -0.992254 lineto
    0.327693   -0.249756 moveto    0.276106   -0.205290 lineto
    0.276106   -0.205290 moveto    0.214220   -0.233341 lineto
    0.214220   -0.233341 moveto    0.203027   -0.301114 lineto
    0.203027   -0.301114 moveto    0.248961   -0.336769 lineto
    0.310648   -0.313763 moveto    0.327693   -0.249756 lineto
   -0.294255   -0.277892 moveto   -0.326212   -0.329698 lineto
   -0.326212   -0.329698 moveto   -0.310051   -0.368680 lineto
   -0.310051   -0.368680 moveto   -0.241932   -0.398907 lineto
   -0.241932   -0.398907 moveto   -0.225462   -0.394447 lineto
    0.310648   -0.313763 moveto    0.248961   -0.336769 lineto
    0.275986   -0.428774 moveto    0.335926   -0.406733 lineto
   -0.321469   -0.916827 moveto   -0.276568   -0.928021 lineto
   -0.276568   -0.928021 moveto   -0.269562   -0.924019 lineto
   -0.269562   -0.924019 moveto   -0.293569   -0.904844 lineto
   -0.293569   -0.904844 moveto   -0.331211   -0.892686 lineto
    0.514352   -0.190115 moveto    0.599617   -0.162824 lineto
    0.599617   -0.162824 moveto    0.591407   -0.063386 lineto
    0.591407   -0.063386 moveto    0.505394   -0.064906 lineto
   -0.382319   -0.860765 moveto   -0.345329   -0.878216 lineto
   -0.345329   -0.878216 moveto   -0.314029   -0.870660 lineto
   -0.314029   -0.870660 moveto   -0.339990   -0.847536 lineto
   -0.409277   -0.683644 moveto   -0.367865   -0.687108 lineto
   -0.367865   -0.687108 moveto   -0.353120   -0.656747 lineto
   -0.432093   -0.616264 moveto   -0.443395   -0.647279 lineto
   -0.443395   -0.647279 moveto   -0.409277   -0.683644 lineto
    0.872376   -0.348025 moveto    0.904742   -0.295118 lineto
    0.904742   -0.295118 moveto    0.912164   -0.232959 lineto
    0.912164   -0.232959 moveto    0.884635   -0.223477 lineto
    0.884635   -0.223477 moveto    0.859200   -0.265932 lineto
    0.203733   -0.928970 moveto    0.166222   -0.930331 lineto
    0.166222   -0.930331 moveto    0.140616   -0.938824 lineto
    0.140616   -0.938824 moveto    0.140624   -0.952391 lineto
    0.140624   -0.952391 moveto    0.179117   -0.950603 lineto
   -0.298926   -0.838614 moveto   -0.262302   -0.858014 lineto
   -0.262302   -0.858014 moveto   -0.223720   -0.852594 lineto
   -0.223720   -0.852594 moveto   -0.230463   -0.828356 lineto
   -0.230463   -0.828356 moveto   -0.259508   -0.815269 lineto
   -0.259508   -0.815269 moveto   -0.297457   -0.817044 lineto
    0.091027   -0.976369 moveto    0.089403   -0.982733 lineto
    0.158163   -0.975645 moveto    0.155831   -0.968220 lineto
   -0.099752   -0.927453 moveto   -0.069416   -0.921764 lineto
   -0.069416   -0.921764 moveto   -0.071684   -0.904957 lineto
   -0.071684   -0.904957 moveto   -0.111759   -0.893821 lineto
   -0.111759   -0.893821 moveto   -0.142855   -0.900107 lineto
   -0.142855   -0.900107 moveto   -0.138871   -0.917126 lineto
    0.927840   -0.372522 moveto    0.907507   -0.416857 lineto
    0.907507   -0.416857 moveto    0.886107   -0.462543 lineto
    0.886107   -0.462543 moveto    0.884160   -0.467185 lineto
    0.307032   -0.946673 moveto    0.315904   -0.946848 lineto
    0.315904   -0.946848 moveto    0.357410   -0.932617 lineto
    0.996488    0.016722 moveto    0.983740    0.042105 lineto
    0.983740    0.042105 moveto    0.972982   -0.029180 lineto
    0.972982   -0.029180 moveto    0.977282   -0.113210 lineto
    0.977282   -0.113210 moveto    0.985640   -0.120845 lineto
    0.515571   -0.695261 moveto    0.489465   -0.729991 lineto
    0.489465   -0.729991 moveto    0.501442   -0.745775 lineto
    0.501442   -0.745775 moveto    0.541478   -0.730908 lineto
    0.541478   -0.730908 moveto    0.570226   -0.696556 lineto
    0.557198   -0.678573 moveto    0.515571   -0.695261 lineto
    0.012440   -0.366873 moveto    0.078234   -0.410454 lineto
    0.078234   -0.410454 moveto    0.131197   -0.386195 lineto
    0.131197   -0.386195 moveto    0.139467   -0.326721 lineto
    0.139467   -0.326721 moveto    0.094854   -0.295304 lineto
    0.146706   -0.898810 moveto    0.180670   -0.878832 lineto
    0.180670   -0.878832 moveto    0.164484   -0.862392 lineto
    0.164484   -0.862392 moveto    0.112723   -0.869426 lineto
    0.907507   -0.416857 moveto    0.903917   -0.411265 lineto
    0.903917   -0.411265 moveto    0.875430   -0.460313 lineto
    0.875430   -0.460313 moveto    0.854965   -0.509470 lineto
    0.854965   -0.509470 moveto    0.860069   -0.506241 lineto
   -0.877488   -0.479422 moveto   -0.891151   -0.453706 lineto
    0.608240    0.140043 moveto    0.677422    0.140430 lineto
    0.677422    0.140430 moveto    0.709548    0.221854 lineto
    0.709548    0.221854 moveto    0.655405    0.320772 lineto
    0.655405    0.320772 moveto    0.573817    0.320222 lineto
    0.573817    0.320222 moveto    0.550251    0.241475 lineto
   -0.820183   -0.147452 moveto   -0.857674   -0.092863 lineto
   -0.262302   -0.858014 moveto   -0.257664   -0.874325 lineto
   -0.257664   -0.874325 moveto   -0.212508   -0.891706 lineto
   -0.212508   -0.891706 moveto   -0.183268   -0.886922 lineto
   -0.183268   -0.886922 moveto   -0.187575   -0.867249 lineto
    0.996350   -0.058284 moveto    0.985640   -0.120845 lineto
    0.985640   -0.120845 moveto    0.977558   -0.192253 lineto
    0.977558   -0.192253 moveto    0.978320   -0.206353 lineto
    0.978320   -0.206353 moveto    0.982246   -0.187596 lineto
    0.793656   -0.040543 moveto    0.840205   -0.052419 lineto
    0.840205   -0.052419 moveto    0.871344    0.006652 lineto
    0.678890   -0.697575 moveto    0.710795   -0.668061 lineto
    0.710795   -0.668061 moveto    0.728116   -0.635948 lineto
    0.728116   -0.635948 moveto    0.711799   -0.636091 lineto
    0.299487   -0.860059 moveto    0.279144   -0.877598 lineto
    0.279144   -0.877598 moveto    0.292814   -0.890566 lineto
    0.343100   -0.849373 moveto    0.299487   -0.860059 lineto
   -0.321340    0.526566 moveto   -0.366864    0.608799 lineto
   -0.366864    0.608799 moveto   -0.496354    0.578371 lineto
   -0.496354    0.578371 moveto   -0.551803    0.468203 lineto
   -0.551803    0.468203 moveto   -0.498015    0.396135 lineto
   -0.069416   -0.921764 moveto   -0.031467   -0.930104 lineto
   -0.031467   -0.930104 moveto    0.002993   -0.921588 lineto
    0.002993   -0.921588 moveto   -0.000739   -0.906511 lineto
   -0.000739   -0.906511 moveto   -0.040458   -0.897233 lineto
   -0.367865   -0.687108 moveto   -0.329591   -0.723309 lineto
   -0.329591   -0.723309 moveto   -0.286882   -0.721411 lineto
   -0.286882   -0.721411 moveto   -0.281320   -0.690109 lineto
   -0.281320   -0.690109 moveto   -0.317231   -0.660147 lineto
   -0.519206   -0.780386 moveto   -0.552196   -0.752136 lineto
   -0.584114   -0.758946 moveto   -0.546607   -0.790703 lineto
   -0.907317    0.420146 moveto   -0.899990    0.435910 lineto
    0.773628    0.207273 moveto    0.709548    0.221854 lineto
    0.772806    0.042938 moveto    0.805236    0.114124 lineto
    0.996683    0.079299 moveto    0.997303    0.073396 lineto
    0.862297    0.244936 moveto    0.884256    0.304448 lineto
    0.884256    0.304448 moveto    0.844290    0.410925 lineto
    0.844290    0.410925 moveto    0.777259    0.457102 lineto
    0.777259    0.457102 moveto    0.758098    0.383936 lineto
   -0.335688    0.157016 moveto   -0.388851    0.240112 lineto
   -0.513179    0.124496 moveto   -0.458055    0.053841 lineto
   -0.366815    0.084207 moveto   -0.335688    0.157016 lineto
    0.289574    0.484652 moveto    0.186108    0.429438 lineto
    0.186108    0.429438 moveto    0.191581    0.339525 lineto
    0.191581    0.339525 moveto    0.290396    0.271505 lineto
    0.290396    0.271505 moveto    0.383827    0.309332 lineto
    0.594580   -0.271695 moveto    0.612605   -0.176064 lineto
   -0.642699   -0.765756 moveto   -0.677015   -0.735854 lineto
   -0.677015   -0.735854 moveto   -0.680405   -0.732836 lineto
    0.439646   -0.851260 moveto    0.445895   -0.859567 lineto
    0.445895   -0.859567 moveto    0.489981   -0.842268 lineto
    0.489981   -0.842268 moveto    0.507647   -0.828987 lineto
    0.527031   -0.635129 moveto    0.509999   -0.617514 lineto
    0.509999   -0.617514 moveto    0.459958   -0.634193 lineto
    0.459958   -0.634193 moveto    0.439625   -0.676687 lineto
    0.439625   -0.676687 moveto    0.455196   -0.692637 lineto
    0.374236   -0.883698 moveto    0.385534   -0.892237 lineto
    0.385534   -0.892237 moveto    0.418180   -0.880395 lineto
    0.403472   -0.862995 moveto    0.374236   -0.883698 lineto
   -0.039452   -0.996434 moveto   -0.034641   -0.998837 lineto
   -0.034641   -0.998837 moveto    0.003737   -0.999763 lineto
    0.003737   -0.999763 moveto    0.029145   -0.998725 lineto
    0.480592   -0.138387 moveto    0.505394   -0.064906 lineto
    0.387726   -0.024415 moveto    0.369302   -0.109695 lineto
    0.369302   -0.109695 moveto    0.409414   -0.155121 lineto
    0.112100    0.189650 moveto    0.201291    0.139064 lineto
    0.201291    0.139064 moveto    0.283146    0.179028 lineto
   -0.111194   -0.603885 moveto   -0.053912   -0.587480 lineto
   -0.053912   -0.587480 moveto   -0.048047   -0.549010 lineto
   -0.048047   -0.549010 moveto   -0.086934   -0.518457 lineto
   -0.086934   -0.518457 moveto   -0.142942   -0.532552 lineto
   -0.142942   -0.532552 moveto   -0.149342   -0.573911 lineto
   -0.781845   -0.583378 moveto   -0.755370   -0.598748 lineto
   -0.755370   -0.598748 moveto   -0.757504   -0.576309 lineto
   -0.757504   -0.576309 moveto   -0.793485   -0.522388 lineto
   -0.793485   -0.522388 moveto   -0.817708   -0.507316 lineto
   -0.817708   -0.507316 moveto   -0.812766   -0.539241 lineto
   -0.071684   -0.904957 moveto   -0.040458   -0.897233 lineto
   -0.040458   -0.897233 moveto   -0.041090   -0.877670 lineto
   -0.041090   -0.877670 moveto   -0.081936   -0.866311 lineto
   -0.081936   -0.866311 moveto   -0.114493   -0.874238 lineto
    0.914483    0.403534 moveto    0.926706    0.375788 lineto
    0.573476   -0.548064 moveto    0.534418   -0.567352 lineto
    0.534418   -0.567352 moveto    0.509999   -0.617514 lineto
    0.800725    0.565642 moveto    0.854471    0.465406 lineto
    0.854471    0.465406 moveto    0.915252    0.378107 lineto
    0.914483    0.403534 moveto    0.871325    0.490707 lineto
    0.706722   -0.694201 moveto    0.715211   -0.692125 lineto
    0.715211   -0.692125 moveto    0.752518   -0.654145 lineto
    0.760745   -0.629336 moveto    0.727672   -0.663959 lineto
   -0.487537   -0.641612 moveto   -0.520734   -0.603055 lineto
   -0.569720   -0.625316 moveto   -0.539520   -0.660762 lineto
    0.912164   -0.232959 moveto    0.939014   -0.171873 lineto
    0.939014   -0.171873 moveto    0.938159   -0.113961 lineto
    0.938159   -0.113961 moveto    0.908593   -0.101687 lineto
    0.908593   -0.101687 moveto    0.887841   -0.145104 lineto
   -0.142855   -0.900107 moveto   -0.183268   -0.886922 lineto
   -0.212508   -0.891706 moveto   -0.208518   -0.908965 lineto
   -0.208518   -0.908965 moveto   -0.167880   -0.921349 lineto
    0.663402   -0.505866 moveto    0.704473   -0.499879 lineto
    0.704473   -0.499879 moveto    0.734484   -0.465484 lineto
    0.722805   -0.405192 moveto    0.670932   -0.444092 lineto
   -0.364819   -0.789600 moveto   -0.334137   -0.793274 lineto
   -0.334137   -0.793274 moveto   -0.319649   -0.765883 lineto
   -0.319649   -0.765883 moveto   -0.337740   -0.746282 lineto
   -0.337740   -0.746282 moveto   -0.391673   -0.737365 lineto
   -0.418328   -0.709305 moveto   -0.391673   -0.737365 lineto
   -0.241932   -0.398907 moveto   -0.263280   -0.472285 lineto
   -0.263280   -0.472285 moveto   -0.228197   -0.502773 lineto
   -0.228197   -0.502773 moveto   -0.183050   -0.499394 lineto
   -0.183050   -0.499394 moveto   -0.159303   -0.437806 lineto
   -0.310051   -0.368680 moveto   -0.350107   -0.423403 lineto
   -0.350107   -0.423403 moveto   -0.311589   -0.472404 lineto
   -0.770115   -0.041159 moveto   -0.803466    0.006022 lineto
   -0.803466    0.006022 moveto   -0.848118   -0.018226 lineto
   -0.782178   -0.137673 moveto   -0.770115   -0.041159 lineto
   -0.059904   -0.949942 moveto   -0.028297   -0.944308 lineto
   -0.819735   -0.571997 moveto   -0.839571   -0.537941 lineto
   -0.839571   -0.537941 moveto   -0.870231   -0.488650 lineto
   -0.877488   -0.479422 moveto   -0.870729   -0.491763 lineto
    0.293293   -0.955395 moveto    0.252708   -0.966526 lineto
    0.252708   -0.966526 moveto    0.229174   -0.973166 lineto
    0.229174   -0.973166 moveto    0.235626   -0.971844 lineto
   -0.612613   -0.614896 moveto   -0.615763   -0.640576 lineto
   -0.615763   -0.640576 moveto   -0.584648   -0.676620 lineto
   -0.584648   -0.676620 moveto   -0.543292   -0.686726 lineto
    0.832034   -0.554502 moveto    0.812279   -0.582685 lineto
    0.812279   -0.582685 moveto    0.789330   -0.613969 lineto
    0.886107   -0.462543 moveto    0.860069   -0.506241 lineto
    0.860069   -0.506241 moveto    0.832034   -0.554502 lineto
    0.832034   -0.554502 moveto    0.835918   -0.548855 lineto
   -0.138871   -0.917126 moveto   -0.167880   -0.921349 lineto
   -0.167880   -0.921349 moveto   -0.162225   -0.936076 lineto
   -0.096312   -0.942036 moveto   -0.099752   -0.927453 lineto
   -0.099752   -0.927453 moveto   -0.138871   -0.917126 lineto
    0.489981   -0.842268 moveto    0.482200   -0.857681 lineto
    0.482200   -0.857681 moveto    0.497649   -0.853732 lineto
    0.497649   -0.853732 moveto    0.532438   -0.833559 lineto
    0.532438   -0.833559 moveto    0.554239   -0.813089 lineto
    0.554239   -0.813089 moveto    0.542927   -0.810899 lineto
   -0.279069   -0.943646 moveto   -0.258328   -0.940288 lineto
   -0.588619   -0.033414 moveto   -0.627255   -0.113930 lineto
   -0.627255   -0.113930 moveto   -0.591522   -0.181545 lineto
   -0.591522   -0.181545 moveto   -0.526904   -0.181408 lineto
   -0.526904   -0.181408 moveto   -0.506152   -0.145832 lineto
   -0.506152   -0.145832 moveto   -0.533640   -0.051013 lineto
   -0.907317    0.420146 moveto   -0.890593    0.435227 lineto
   -0.890593    0.435227 moveto   -0.829329    0.528212 lineto
   -0.769898    0.632235 moveto   -0.787394    0.616450 lineto
   -0.581963   -0.813212 moveto   -0.589317   -0.807902 lineto
    0.715211   -0.692125 moveto    0.692203   -0.719014 lineto
    0.692203   -0.719014 moveto    0.698250   -0.715410 lineto
    0.698250   -0.715410 moveto    0.732674   -0.680570 lineto
    0.732674   -0.680570 moveto    0.754841   -0.655459 lineto
   -0.776887   -0.623772 moveto   -0.794365   -0.606398 lineto
   -0.794365   -0.606398 moveto   -0.775382   -0.631492 lineto
   -0.744111   -0.668055 moveto   -0.728305   -0.683551 lineto
   -0.915300   -0.062997 moveto   -0.914780    0.033904 lineto
   -0.914780    0.033904 moveto   -0.940945    0.069180 lineto
   -0.940945    0.069180 moveto   -0.966050   -0.006933 lineto
   -0.966050   -0.006933 moveto   -0.949386   -0.098210 lineto
    0.088454   -0.716476 moveto    0.100844   -0.685569 lineto
    0.100844   -0.685569 moveto    0.067158   -0.660139 lineto
    0.067158   -0.660139 moveto    0.013738   -0.675159 lineto
    0.038812   -0.728010 moveto    0.088454   -0.716476 lineto
    0.127509   -0.985598 moveto    0.086492   -0.992315 lineto
    0.086492   -0.992315 moveto    0.091557   -0.994556 lineto
    0.091557   -0.994556 moveto    0.127101   -0.991177 lineto
   -0.249315   -0.773841 moveto   -0.267578   -0.780517 lineto
   -0.230463   -0.828356 moveto   -0.193030   -0.822291 lineto
   -0.663898    0.575289 moveto   -0.546088    0.640235 lineto
   -0.546088    0.640235 moveto   -0.470369    0.749929 lineto
   -0.639387    0.719087 moveto   -0.707469    0.607846 lineto
    0.276837   -0.917511 moveto    0.311725   -0.910942 lineto
    0.328806   -0.882323 moveto    0.292814   -0.890566 lineto
    0.245292   -0.852681 moveto    0.228379   -0.837313 lineto
    0.228379   -0.837313 moveto    0.182454   -0.844268 lineto
    0.797345    0.599103 moveto    0.845121    0.534574 lineto
    0.702461    0.711406 moveto    0.701083    0.713080 lineto
    0.772853   -0.522066 moveto    0.759673   -0.562691 lineto
    0.759673   -0.562691 moveto    0.780657   -0.562029 lineto
    0.780657   -0.562029 moveto    0.816787   -0.516812 lineto
    0.816787   -0.516812 moveto    0.826962   -0.482715 lineto
    0.381743   -0.643452 moveto    0.446571   -0.622621 lineto
    0.446571   -0.622621 moveto    0.455874   -0.580538 lineto
    0.455874   -0.580538 moveto    0.412779   -0.569160 lineto
    0.412779   -0.569160 moveto    0.371922   -0.606206 lineto
   -0.930994   -0.274305 moveto   -0.901781   -0.347100 lineto
   -0.901781   -0.347100 moveto   -0.876402   -0.357424 lineto
   -0.876402   -0.357424 moveto   -0.877390   -0.316871 lineto
   -0.877390   -0.316871 moveto   -0.911384   -0.239023 lineto
   -0.932333   -0.242679 moveto   -0.930994   -0.274305 lineto
    0.875430   -0.460313 moveto    0.866967   -0.464368 lineto
    0.866967   -0.464368 moveto    0.830657   -0.516811 lineto
    0.823900   -0.553014 moveto    0.854965   -0.509470 lineto
    0.758098    0.383936 moveto    0.679343    0.406504 lineto
    0.773628    0.207273 moveto    0.802246    0.282984 lineto
    0.802246    0.282984 moveto    0.758098    0.383936 lineto
    0.194965   -0.971125 moveto    0.225815   -0.960634 lineto
    0.225815   -0.960634 moveto    0.218556   -0.955246 lineto
    0.218556   -0.955246 moveto    0.183544   -0.959264 lineto
    0.389850   -0.227156 moveto    0.409414   -0.155121 lineto
    0.289553   -0.131903 moveto    0.276106   -0.205290 lineto
   -0.146138   -0.969053 moveto   -0.149683   -0.959217 lineto
   -0.149683   -0.959217 moveto   -0.195107   -0.947789 lineto
   -0.195107   -0.947789 moveto   -0.219280   -0.950656 lineto
   -0.219280   -0.950656 moveto   -0.205756   -0.960163 lineto
    0.500044   -0.677631 moveto    0.455196   -0.692637 lineto
    0.455196   -0.692637 moveto    0.431365   -0.727897 lineto
    0.431365   -0.727897 moveto    0.445884   -0.744429 lineto
    0.935758    0.044247 moveto    0.904121   -0.017393 lineto
   -0.727037   -0.672716 moveto   -0.694897   -0.705969 lineto
   -0.694897   -0.705969 moveto   -0.670347   -0.719209 lineto
   -0.670347   -0.719209 moveto   -0.676126   -0.704462 lineto
   -0.676126   -0.704462 moveto   -0.714464   -0.663135 lineto
   -0.739224   -0.649693 moveto   -0.727037   -0.672716 lineto
    0.670611   -0.671837 moveto    0.657192   -0.670921 lineto
    0.657192   -0.670921 moveto    0.615447   -0.699135 lineto
    0.615447   -0.699135 moveto    0.593979   -0.727015 lineto
    0.593979   -0.727015 moveto    0.596640   -0.738086 lineto
    0.655027   -0.703892 moveto    0.670611   -0.671837 lineto
   -0.797610    0.523449 moveto   -0.829329    0.528212 lineto
   -0.890593    0.435227 moveto   -0.920266    0.334934 lineto
   -0.920266    0.334934 moveto   -0.892050    0.329186 lineto
    0.480209   -0.877153 moveto    0.479406   -0.877593 lineto
   -0.398000   -0.209722 moveto   -0.423687   -0.262295 lineto
   -0.423687   -0.262295 moveto   -0.399020   -0.313102 lineto
   -0.329457   -0.212813 moveto   -0.398000   -0.209722 lineto
    0.754841   -0.655459 moveto    0.785198   -0.619245 lineto
    0.773080   -0.625944 moveto    0.752518   -0.654145 lineto
    0.752518   -0.654145 moveto    0.754841   -0.655459 lineto
   -0.164037   -0.969259 moveto   -0.205756   -0.960163 lineto
   -0.205756   -0.960163 moveto   -0.227744   -0.961645 lineto
   -0.227744   -0.961645 moveto   -0.196730   -0.973143 lineto
   -0.391444   -0.920200 moveto   -0.391854   -0.920028 lineto
   -0.043780   -0.980200 moveto   -0.015743   -0.977026 lineto
   -0.015743   -0.977026 moveto   -0.018216   -0.967357 lineto
    0.189189   -0.554146 moveto    0.236094   -0.581778 lineto
   -0.876402   -0.357424 moveto   -0.847825   -0.414689 lineto
   -0.847825   -0.414689 moveto   -0.824502   -0.431372 lineto
   -0.824502   -0.431372 moveto   -0.810203   -0.407160 lineto
   -0.849864   -0.316590 moveto   -0.877390   -0.316871 lineto
   -0.453600   -0.891005 moveto   -0.479973   -0.876125 lineto
   -0.514642   -0.856749 moveto   -0.521120   -0.853483 lineto
    0.617611    0.743309 moveto    0.614423    0.780010 lineto
    0.614423    0.780010 moveto    0.467447    0.882786 lineto
    0.508215   -0.347347 moveto    0.447494   -0.368033 lineto
    0.447494   -0.368033 moveto    0.428100   -0.428822 lineto
    0.428100   -0.428822 moveto    0.457558   -0.456400 lineto
    0.457558   -0.456400 moveto    0.521204   -0.426163 lineto
    0.537147   -0.390505 moveto    0.508215   -0.347347 lineto
    0.698890   -0.601231 moveto    0.727686   -0.597321 lineto
    0.908593   -0.101687 moveto    0.904121   -0.017393 lineto
    0.840205   -0.052419 moveto    0.847724   -0.137988 lineto
    0.311373   -0.822122 moveto    0.294149   -0.804996 lineto
    0.294149   -0.804996 moveto    0.251229   -0.813663 lineto
    0.522255   -0.775651 moveto    0.549286   -0.746705 lineto
    0.501442   -0.745775 moveto    0.473720   -0.776571 lineto
    0.646096   -0.754425 moveto    0.655486   -0.750992 lineto
    0.102858   -0.923234 moveto    0.105535   -0.937689 lineto
    0.166222   -0.930331 moveto    0.169161   -0.912189 lineto
    0.166963   -0.474719 moveto    0.179540   -0.419256 lineto
    0.179540   -0.419256 moveto    0.131197   -0.386195 lineto
    0.078234   -0.410454 moveto    0.067501   -0.461356 lineto
    0.591407   -0.063386 moveto    0.617223   -0.024035 lineto
    0.617223   -0.024035 moveto    0.580575    0.078643 lineto
    0.473452   -0.008792 moveto    0.505394   -0.064906 lineto
   -0.591522   -0.181545 moveto   -0.610171   -0.235361 lineto
   -0.610171   -0.235361 moveto   -0.572620   -0.298501 lineto
   -0.572620   -0.298501 moveto   -0.515765   -0.298368 lineto
   -0.515765   -0.298368 moveto   -0.495514   -0.255909 lineto
   -0.081936   -0.866311 moveto   -0.083822   -0.843187 lineto
   -0.083822   -0.843187 moveto   -0.119247   -0.829429 lineto
   -0.119247   -0.829429 moveto   -0.156583   -0.837445 lineto
   -0.156583   -0.837445 moveto   -0.153511   -0.860867 lineto
    0.588861   -0.370240 moveto    0.618896   -0.408067 lineto
    0.618896   -0.408067 moveto    0.644306   -0.400467 lineto
    0.644306   -0.400467 moveto    0.683416   -0.339003 lineto
    0.683416   -0.339003 moveto    0.666468   -0.288439 lineto
    0.573753   -0.818819 moveto    0.579117   -0.815244 lineto
    0.631039   -0.774518 moveto    0.598221   -0.799589 lineto
   -0.806064    0.298977 moveto   -0.792518    0.388557 lineto
   -0.792518    0.388557 moveto   -0.832976    0.413514 lineto
   -0.832976    0.413514 moveto   -0.892050    0.329186 lineto
   -0.892050    0.329186 moveto   -0.904991    0.224909 lineto
   -0.866115    0.206065 moveto   -0.806064    0.298977 lineto
    0.728116   -0.635948 moveto    0.765671   -0.597056 lineto
    0.759673   -0.562691 moveto    0.727686   -0.597321 lineto
    0.253613   -0.714691 moveto    0.230421   -0.745960 lineto
    0.230421   -0.745960 moveto    0.255081   -0.767691 lineto
    0.255081   -0.767691 moveto    0.297503   -0.758395 lineto
    0.927840   -0.372522 moveto    0.926848   -0.375437 lineto
   -0.727240   -0.590086 moveto   -0.757504   -0.576309 lineto
   -0.755370   -0.598748 moveto   -0.719526   -0.644038 lineto
   -0.719526   -0.644038 moveto   -0.690172   -0.656967 lineto
   -0.292974   -0.558898 moveto   -0.242996   -0.556212 lineto
   -0.263280   -0.472285 moveto   -0.311589   -0.472404 lineto
    0.251229   -0.813663 moveto    0.231161   -0.795608 lineto
    0.165471   -0.828231 moveto    0.182454   -0.844268 lineto
    0.228379   -0.837313 moveto    0.251229   -0.813663 lineto
   -0.117882    0.981762 moveto   -0.257015    0.925791 lineto
   -0.257015    0.925791 moveto   -0.211506    0.878432 lineto
   -0.839571   -0.537941 moveto   -0.824678   -0.551824 lineto
   -0.824678   -0.551824 moveto   -0.837264   -0.519473 lineto
   -0.837264   -0.519473 moveto   -0.860881   -0.480037 lineto
   -0.860881   -0.480037 moveto   -0.885837   -0.451467 lineto
    0.844290    0.410925 moveto    0.854471    0.465406 lineto
    0.708764    0.568764 moveto    0.777259    0.457102 lineto
   -0.329591   -0.723309 moveto   -0.337740   -0.746282 lineto
   -0.319649   -0.765883 moveto   -0.267578   -0.780517 lineto
   -0.250406   -0.746652 moveto   -0.286882   -0.721411 lineto
    0.792105   -0.298869 moveto    0.823139   -0.254255 lineto
    0.823139   -0.254255 moveto    0.824049   -0.180591 lineto
    0.824049   -0.180591 moveto    0.774940   -0.178188 lineto
    0.774940   -0.178188 moveto    0.748750   -0.223293 lineto
    0.754649   -0.295960 moveto    0.792105   -0.298869 lineto
   -0.768359    0.139658 moveto   -0.711008    0.114000 lineto
   -0.626935    0.251686 moveto   -0.682904    0.313821 lineto
   -0.900207   -0.422366 moveto   -0.912922   -0.375083 lineto
   -0.912922   -0.375083 moveto   -0.939461   -0.313128 lineto
   -0.939461   -0.313128 moveto   -0.945931   -0.316693 lineto
   -0.945931   -0.316693 moveto   -0.923427   -0.381451 lineto
    0.252708   -0.966526 moveto    0.244135   -0.965928 lineto
    0.202169   -0.974607 moveto    0.178202   -0.981300 lineto
    0.178202   -0.981300 moveto    0.199583   -0.979552 lineto
    0.258490   -0.954621 moveto    0.225815   -0.960634 lineto
    0.202169   -0.974607 moveto    0.244135   -0.965928 lineto
   -0.048047   -0.549010 moveto    0.009147   -0.531463 lineto
    0.009147   -0.531463 moveto    0.015871   -0.480294 lineto
    0.015871   -0.480294 moveto   -0.027618   -0.454562 lineto
   -0.027618   -0.454562 moveto   -0.078922   -0.473128 lineto
   -0.451264   -0.875242 moveto   -0.485199   -0.858822 lineto
   -0.485199   -0.858822 moveto   -0.496691   -0.860099 lineto
   -0.496691   -0.860099 moveto   -0.469725   -0.878176 lineto
   -0.469725   -0.878176 moveto   -0.437176   -0.893661 lineto
   -0.437176   -0.893661 moveto   -0.424835   -0.894630 lineto
   -0.649587   -0.715854 moveto   -0.654699   -0.696029 lineto
   -0.654699   -0.696029 moveto   -0.690172   -0.656967 lineto
    0.354722    0.116394 moveto    0.283146    0.179028 lineto
    0.201291    0.139064 moveto    0.196322    0.043431 lineto
    0.882639    0.155379 moveto    0.933149    0.101588 lineto
    0.946188    0.143487 moveto    0.923311    0.258895 lineto
   -0.554137   -0.816135 moveto   -0.561170   -0.815678 lineto
   -0.561170   -0.815678 moveto   -0.528837   -0.842331 lineto
   -0.988363    0.152064 moveto   -0.995308    0.079808 lineto
   -0.995308    0.079808 moveto   -0.985203    0.081430 lineto
   -0.985203    0.081430 moveto   -0.965975    0.165521 lineto
   -0.965975    0.165521 moveto   -0.956289    0.247823 lineto
   -0.239771   -0.967732 moveto   -0.202952   -0.974721 lineto
   -0.677015   -0.735854 moveto   -0.699973   -0.712220 lineto
   -0.744111   -0.668055 moveto   -0.744031   -0.668145 lineto
   -0.018070   -0.021598 moveto    0.050614    0.046543 lineto
    0.033778    0.123418 moveto   -0.054466    0.151230 lineto
   -0.054466    0.151230 moveto   -0.122499    0.072669 lineto
    0.352652   -0.491293 moveto    0.370454   -0.524458 lineto
    0.370454   -0.524458 moveto    0.410478   -0.530167 lineto
    0.410478   -0.530167 moveto    0.448101   -0.498916 lineto
   -0.827448   -0.347215 moveto   -0.810203   -0.407160 lineto
   -0.810203   -0.407160 moveto   -0.773617   -0.440081 lineto
   -0.773617   -0.440081 moveto   -0.748787   -0.420071 lineto
   -0.748787   -0.420071 moveto   -0.753878   -0.381286 lineto
    0.399823    0.611218 moveto    0.400491    0.702462 lineto
    0.261616    0.787501 moveto    0.139314    0.745796 lineto
    0.139314    0.745796 moveto    0.155141    0.651675 lineto
    0.315904   -0.946848 moveto    0.293293   -0.955395 lineto
    0.293293   -0.955395 moveto    0.301673   -0.953411 lineto
    0.367573   -0.929784 moveto    0.357410   -0.932617 lineto
   -0.015743   -0.977026 moveto    0.021361   -0.980214 lineto
    0.049390   -0.965766 moveto    0.009841   -0.962323 lineto
    0.528596   -0.290368 moveto    0.498472   -0.246786 lineto
    0.413526   -0.332781 moveto    0.447494   -0.368033 lineto
   -0.259508   -0.815269 moveto   -0.267578   -0.780517 lineto
    0.121707   -0.789617 moveto    0.097426   -0.771766 lineto
    0.097426   -0.771766 moveto    0.060017   -0.775393 lineto
    0.060017   -0.775393 moveto    0.034710   -0.806755 lineto
    0.034710   -0.806755 moveto    0.046313   -0.820710 lineto
   -0.016117    0.791926 moveto   -0.129427    0.710624 lineto
   -0.129427    0.710624 moveto   -0.097103    0.620211 lineto
   -0.097103    0.620211 moveto    0.045301    0.582485 lineto
    0.977282   -0.113210 moveto    0.955399   -0.183073 lineto
    0.955399   -0.183073 moveto    0.949200   -0.242108 lineto
    0.949200   -0.242108 moveto    0.957710   -0.254108 lineto
    0.034221   -0.836889 moveto    0.046313   -0.820710 lineto
    0.034710   -0.806755 moveto   -0.017639   -0.798842 lineto
   -0.017639   -0.798842 moveto   -0.041102   -0.809110 lineto
   -0.041102   -0.809110 moveto   -0.041446   -0.832883 lineto
    0.373204   -0.447623 moveto    0.428100   -0.428822 lineto
    0.353275   -0.354789 moveto    0.335926   -0.406733 lineto
   -0.594647   -0.800744 moveto   -0.586247   -0.800471 lineto
   -0.586247   -0.800471 moveto   -0.624515   -0.767374 lineto
   -0.624515   -0.767374 moveto   -0.652006   -0.751740 lineto
    0.381375   -0.920293 moveto    0.357410   -0.932617 lineto
    0.367573   -0.929784 moveto    0.405767   -0.913931 lineto
    0.405767   -0.913931 moveto    0.431806   -0.900864 lineto
    0.814273   -0.554774 moveto    0.830657   -0.516811 lineto
    0.780657   -0.562029 moveto    0.765671   -0.597056 lineto
    0.711799   -0.636091 moveto    0.727686   -0.597321 lineto
    0.673223   -0.627013 moveto    0.657192   -0.670921 lineto
    0.670611   -0.671837 moveto    0.711799   -0.636091 lineto
   -0.652006   -0.751740 moveto   -0.679612   -0.726873 lineto
   -0.632058   -0.772507 moveto   -0.652006   -0.751740 lineto
    0.977558   -0.192253 moveto    0.957710   -0.254108 lineto
    0.957710   -0.254108 moveto    0.945105   -0.308004 lineto
    0.946734   -0.319621 moveto    0.961942   -0.273254 lineto
   -0.496354    0.578371 moveto   -0.546088    0.640235 lineto
   -0.704095    0.470962 moveto   -0.652065    0.418070 lineto
    0.496545    0.067121 moveto    0.580575    0.078643 lineto
    0.608240    0.140043 moveto    0.550251    0.241475 lineto
    0.550251    0.241475 moveto    0.461625    0.224427 lineto
   -0.436006   -0.875989 moveto   -0.451264   -0.875242 lineto
   -0.451264   -0.875242 moveto   -0.424835   -0.894630 lineto
   -0.424835   -0.894630 moveto   -0.386937   -0.909943 lineto
    0.418777   -0.904689 moveto    0.431806   -0.900864 lineto
    0.493703   -0.866395 moveto    0.476205   -0.872503 lineto
    0.317995   -0.675916 moveto    0.369150   -0.660645 lineto
    0.369150   -0.660645 moveto    0.381743   -0.643452 lineto
    0.381743   -0.643452 moveto    0.371922   -0.606206 lineto
   -0.007576    0.318851 moveto   -0.030158    0.407790 lineto
   -0.227635    0.339220 moveto   -0.187648    0.252034 lineto
    0.884635   -0.223477 moveto    0.887841   -0.145104 lineto
    0.887841   -0.145104 moveto    0.847724   -0.137988 lineto
    0.847724   -0.137988 moveto    0.824049   -0.180591 lineto
   -0.739224   -0.649693 moveto   -0.714464   -0.663135 lineto
   -0.714464   -0.663135 moveto   -0.719526   -0.644038 lineto
    0.003737   -0.999763 moveto    0.006526   -0.999979 lineto
    0.978320   -0.206353 moveto    0.966569   -0.256406 lineto
   -0.479973   -0.876125 moveto   -0.469725   -0.878176 lineto
   -0.496691   -0.860099 moveto   -0.528837   -0.842331 lineto
   -0.514642   -0.856749 moveto   -0.479973   -0.876125 lineto
   -0.553324   -0.731634 moveto   -0.585413   -0.699571 lineto
   -0.585413   -0.699571 moveto   -0.623095   -0.688473 lineto
   -0.586959   -0.742049 moveto   -0.552196   -0.752136 lineto
    0.405767   -0.913931 moveto    0.408664   -0.912685 lineto
    0.467693   -0.883179 moveto    0.431806   -0.900864 lineto
    0.904742   -0.295118 moveto    0.920920   -0.304561 lineto
   -0.028297   -0.944308 moveto    0.008278   -0.950011 lineto
    0.008278   -0.950011 moveto    0.038225   -0.943263 lineto
    0.038225   -0.943263 moveto    0.036946   -0.927536 lineto
   -0.031467   -0.930104 moveto   -0.028297   -0.944308 lineto
    0.251948   -0.649058 moveto    0.220772   -0.621760 lineto
    0.220772   -0.621760 moveto    0.166299   -0.637914 lineto
    0.166299   -0.637914 moveto    0.152126   -0.672323 lineto
    0.152126   -0.672323 moveto    0.183233   -0.697229 lineto
    0.420297   -0.829371 moveto    0.458628   -0.816336 lineto
    0.458628   -0.816336 moveto    0.485558   -0.790614 lineto
    0.485558   -0.790614 moveto    0.473720   -0.776571 lineto
    0.473720   -0.776571 moveto    0.434092   -0.789998 lineto
   -0.048545    0.874265 moveto   -0.211506    0.878432 lineto
   -0.211506    0.878432 moveto   -0.324171    0.786418 lineto
   -0.324171    0.786418 moveto   -0.280433    0.714413 lineto
   -0.399010   -0.761057 moveto   -0.391673   -0.737365 lineto
   -0.465614   -0.701039 moveto   -0.470791   -0.726644 lineto
   -0.795833   -0.269607 moveto   -0.790087   -0.335122 lineto
   -0.790087   -0.335122 moveto   -0.753878   -0.381286 lineto
   -0.753878   -0.381286 moveto   -0.717633   -0.368858 lineto
   -0.717633   -0.368858 moveto   -0.725375   -0.297743 lineto
   -0.907317    0.420146 moveto   -0.925370    0.379065 lineto
   -0.969104    0.243418 moveto   -0.956289    0.247823 lineto
   -0.269562   -0.924019 moveto   -0.222734   -0.930070 lineto
   -0.222734   -0.930070 moveto   -0.231506   -0.911151 lineto
   -0.231506   -0.911151 moveto   -0.268808   -0.899840 lineto
   -0.030158    0.407790 moveto    0.063642    0.489174 lineto
   -0.152899    0.435018 moveto   -0.030158    0.407790 lineto
   -0.326212   -0.329698 moveto   -0.399020   -0.313102 lineto
   -0.399020   -0.313102 moveto   -0.426342   -0.366131 lineto
   -0.426342   -0.366131 moveto   -0.391709   -0.417579 lineto
   -0.824502   -0.431372 moveto   -0.789518   -0.498002 lineto
   -0.789518   -0.498002 moveto   -0.758718   -0.514476 lineto
   -0.758718   -0.514476 moveto   -0.750890   -0.496077 lineto
    0.927840   -0.372522 moveto    0.946734   -0.319621 lineto
    0.946734   -0.319621 moveto    0.945105   -0.308004 lineto
    0.945105   -0.308004 moveto    0.920606   -0.362440 lineto
   -0.081021   -0.975138 moveto   -0.084314   -0.965249 lineto
   -0.084314   -0.965249 moveto   -0.125084   -0.957137 lineto
   -0.125084   -0.957137 moveto   -0.149683   -0.959217 lineto
    0.679343    0.406504 moveto    0.604923    0.512277 lineto
    0.507570    0.511339 moveto    0.493371    0.422549 lineto
    0.493371    0.422549 moveto    0.573817    0.320222 lineto
    0.655405    0.320772 moveto    0.679343    0.406504 lineto
   -0.191805   -0.218690 moveto   -0.129444   -0.216756 lineto
   -0.128019   -0.083632 moveto   -0.195229   -0.080055 lineto
    0.266830   -0.957577 moveto    0.244135   -0.965928 lineto
   -0.817708   -0.507316 moveto   -0.848755   -0.455781 lineto
   -0.848755   -0.455781 moveto   -0.870382   -0.438586 lineto
    0.442255   -0.889698 moveto    0.476205   -0.872503 lineto
    0.482200   -0.857681 moveto    0.432024   -0.883795 lineto
    0.607079   -0.783722 moveto    0.584360   -0.806015 lineto
    0.100719   -0.541151 moveto    0.048381   -0.558725 lineto
    0.048381   -0.558725 moveto    0.040221   -0.598970 lineto
    0.040221   -0.598970 moveto    0.076632   -0.626464 lineto
    0.076632   -0.626464 moveto    0.131360   -0.609728 lineto
    0.143763   -0.570881 moveto    0.100719   -0.541151 lineto
    0.147858   -0.908264 moveto    0.169161   -0.912189 lineto
    0.169161   -0.912189 moveto    0.216823   -0.900600 lineto
    0.216519   -0.876005 moveto    0.180670   -0.878832 lineto
   -0.655682   -0.628550 moveto   -0.656539   -0.649871 lineto
   -0.656539   -0.649871 moveto   -0.623095   -0.688473 lineto
   -0.819735   -0.571997 moveto   -0.794365   -0.606398 lineto
   -0.793317   -0.594757 moveto   -0.824678   -0.551824 lineto
   -0.018216   -0.967357 moveto    0.009841   -0.962323 lineto
    0.009841   -0.962323 moveto    0.008278   -0.950011 lineto
   -0.056813   -0.961784 moveto   -0.018216   -0.967357 lineto
   -0.752383   -0.264071 moveto   -0.725375   -0.297743 lineto
   -0.725375   -0.297743 moveto   -0.674678   -0.292045 lineto
   -0.674678   -0.292045 moveto   -0.665097   -0.239164 lineto
    0.823900   -0.553014 moveto    0.800944   -0.592142 lineto
    0.800944   -0.592142 moveto    0.812279   -0.582685 lineto
   -0.965975    0.165521 moveto   -0.940268    0.148103 lineto
   -0.920266    0.334934 moveto   -0.956289    0.247823 lineto
   -0.431084   -0.147076 moveto   -0.506152   -0.145832 lineto
   -0.526904   -0.181408 moveto   -0.495514   -0.255909 lineto
    0.615447   -0.699135 moveto    0.602267   -0.682307 lineto
    0.541478   -0.730908 moveto    0.549286   -0.746705 lineto
    0.996683    0.079299 moveto    0.980760    0.190107 lineto
    0.980760    0.190107 moveto    0.973305    0.201946 lineto
   -0.863069    0.138915 moveto   -0.885698    0.060454 lineto
   -0.639675    0.181319 moveto   -0.711008    0.114000 lineto
   -0.711008    0.114000 moveto   -0.695652    0.022284 lineto
   -0.695652    0.022284 moveto   -0.608560    0.014646 lineto
   -0.577053    0.106173 moveto   -0.639675    0.181319 lineto
   -0.077103   -0.699987 moveto   -0.074045   -0.664551 lineto
   -0.074045   -0.664551 moveto   -0.115126   -0.638974 lineto
   -0.115126   -0.638974 moveto   -0.157756   -0.652922 lineto
   -0.157756   -0.652922 moveto   -0.159628   -0.691849 lineto
   -0.159628   -0.691849 moveto   -0.125622   -0.711233 lineto
    0.155831   -0.968220 moveto    0.183544   -0.959264 lineto
    0.115667   -0.959877 moveto    0.115860   -0.970320 lineto
    0.115860   -0.970320 moveto    0.155831   -0.968220 lineto
    0.864172   -0.376932 moveto    0.870504   -0.416880 lineto
    0.870504   -0.416880 moveto    0.877449   -0.413257 lineto
    0.877449   -0.413257 moveto    0.909670   -0.356518 lineto
    0.489465   -0.729991 moveto    0.445884   -0.744429 lineto
    0.445884   -0.744429 moveto    0.420519   -0.774782 lineto
   -0.919274   -0.393612 moveto   -0.923427   -0.381451 lineto
   -0.945931   -0.316693 moveto   -0.962584   -0.269095 lineto
   -0.962584   -0.269095 moveto   -0.962228   -0.272244 lineto
   -0.053912   -0.587480 moveto   -0.016667   -0.616162 lineto
   -0.111194   -0.603885 moveto   -0.149342   -0.573911 lineto
   -0.149342   -0.573911 moveto   -0.206414   -0.587124 lineto
   -0.206414   -0.587124 moveto   -0.209516   -0.625164 lineto
    0.705785   -0.098488 moveto    0.674209   -0.165191 lineto
    0.674209   -0.165191 moveto    0.697488   -0.229097 lineto
   -0.719942   -0.032164 moveto   -0.695652    0.022284 lineto
   -0.788414    0.117508 moveto   -0.803466    0.006022 lineto
    0.914483    0.403534 moveto    0.915252    0.378107 lineto
    0.915252    0.378107 moveto    0.939150    0.297473 lineto
    0.980760    0.190107 moveto    0.975257    0.221073 lineto
   -0.426342   -0.366131 moveto   -0.479644   -0.360879 lineto
   -0.479644   -0.360879 moveto   -0.500810   -0.404560 lineto
   -0.500810   -0.404560 moveto   -0.463402   -0.458724 lineto
   -0.463402   -0.458724 moveto   -0.417979   -0.463016 lineto
    0.850485   -0.321946 moveto    0.859200   -0.265932 lineto
    0.859200   -0.265932 moveto    0.823139   -0.254255 lineto
    0.788530   -0.363666 moveto    0.810046   -0.374080 lineto
    0.810046   -0.374080 moveto    0.850485   -0.321946 lineto
   -0.468451   -0.001516 moveto   -0.533640   -0.051013 lineto
    0.247880   -0.091872 moveto    0.154378   -0.119945 lineto
    0.154378   -0.119945 moveto    0.149789   -0.190849 lineto
   -0.111194   -0.603885 moveto   -0.115126   -0.638974 lineto
   -0.074045   -0.664551 moveto   -0.022575   -0.649289 lineto
    0.063300   -0.860733 moveto    0.095233   -0.859340 lineto
    0.119425   -0.831693 moveto    0.102695   -0.817743 lineto
    0.102695   -0.817743 moveto    0.046313   -0.820710 lineto
   -0.937491   -0.105035 moveto   -0.949386   -0.098210 lineto
   -0.932333   -0.242679 moveto   -0.911384   -0.239023 lineto
    0.024240   -0.996310 moveto    0.029145   -0.998725 lineto
    0.029145   -0.998725 moveto    0.065598   -0.997431 lineto
   -0.423687   -0.262295 moveto   -0.495514   -0.255909 lineto
   -0.515765   -0.298368 moveto   -0.479644   -0.360879 lineto
    0.234579   -0.912995 moveto    0.216823   -0.900600 lineto
   -0.571559   -0.794260 moveto   -0.604779   -0.768940 lineto
   -0.604779   -0.768940 moveto   -0.628274   -0.758866 lineto
    0.762893   -0.100077 moveto    0.774940   -0.178188 lineto
   -0.014026   -0.869676 moveto   -0.041090   -0.877670 lineto
   -0.000739   -0.906511 moveto    0.037276   -0.893113 lineto
    0.031996   -0.878916 moveto   -0.014026   -0.869676 lineto
    0.218556   -0.955246 moveto    0.251387   -0.941348 lineto
    0.209360   -0.938171 moveto    0.179117   -0.950603 lineto
    0.179117   -0.950603 moveto    0.183544   -0.959264 lineto
   -0.753560    0.260082 moveto   -0.682904    0.313821 lineto
   -0.682904    0.313821 moveto   -0.652065    0.418070 lineto
   -0.286124   -0.957575 moveto   -0.293733   -0.955888 lineto
   -0.247124   -0.967814 moveto   -0.286124   -0.957575 lineto
   -0.670347   -0.719209 moveto   -0.628274   -0.758866 lineto
   -0.649587   -0.715854 moveto   -0.676126   -0.704462 lineto
    0.164484   -0.862392 moveto    0.182454   -0.844268 lineto
    0.119425   -0.831693 moveto    0.095233   -0.859340 lineto
    0.500273   -0.547123 moveto    0.455874   -0.580538 lineto
   -0.105587   -0.992254 moveto   -0.101155   -0.994536 lineto
   -0.101155   -0.994536 moveto   -0.056713   -0.998276 lineto
   -0.068687   -0.993706 moveto   -0.105587   -0.992254 lineto
    0.288285    0.577219 moveto    0.155141    0.651675 lineto
    0.155141    0.651675 moveto    0.045301    0.582485 lineto
    0.045301    0.582485 moveto    0.063642    0.489174 lineto
    0.627490   -0.727527 moveto    0.596640   -0.738086 lineto
    0.596640   -0.738086 moveto    0.557036   -0.777706 lineto
    0.557036   -0.777706 moveto    0.569519   -0.784136 lineto
   -0.572620   -0.298501 moveto   -0.586027   -0.342771 lineto
   -0.586027   -0.342771 moveto   -0.546980   -0.401471 lineto
    0.412779   -0.569160 moveto    0.410478   -0.530167 lineto
    0.324605   -0.602713 moveto    0.371922   -0.606206 lineto
   -0.276568   -0.928021 moveto   -0.258328   -0.940288 lineto
   -0.258328   -0.940288 moveto   -0.219280   -0.950656 lineto
   -0.195107   -0.947789 moveto   -0.202467   -0.937532 lineto
    0.599617   -0.162824 moveto    0.612605   -0.176064 lineto
    0.612605   -0.176064 moveto    0.674209   -0.165191 lineto
    0.678964   -0.025331 moveto    0.617223   -0.024035 lineto
    0.637315   -0.637343 moveto    0.602267   -0.682307 lineto
   -0.636437   -0.546200 moveto   -0.598741   -0.551618 lineto
   -0.598741   -0.551618 moveto   -0.590471   -0.520654 lineto
   -0.590471   -0.520654 moveto   -0.615549   -0.480143 lineto
   -0.615549   -0.480143 moveto   -0.669959   -0.462488 lineto
   -0.681666   -0.481328 moveto   -0.636437   -0.546200 lineto
    0.031996   -0.878916 moveto    0.037276   -0.893113 lineto
    0.072193   -0.899587 moveto    0.102326   -0.890820 lineto
    0.102326   -0.890820 moveto    0.112723   -0.869426 lineto
    0.112723   -0.869426 moveto    0.095233   -0.859340 lineto
    0.188094   -0.754184 moveto    0.230421   -0.745960 lineto
    0.224253   -0.689224 moveto    0.183233   -0.697229 lineto
    0.408387   -0.815836 moveto    0.434092   -0.789998 lineto
    0.434092   -0.789998 moveto    0.420519   -0.774782 lineto
    0.420519   -0.774782 moveto    0.377582   -0.787133 lineto
    0.112608   -0.493156 moveto    0.067501   -0.461356 lineto
    0.067501   -0.461356 moveto    0.015871   -0.480294 lineto
    0.009147   -0.531463 moveto    0.048381   -0.558725 lineto
   -0.157756   -0.652922 moveto   -0.209516   -0.625164 lineto
   -0.209516   -0.625164 moveto   -0.238582   -0.637174 lineto
   -0.238582   -0.637174 moveto   -0.233954   -0.685583 lineto
   -0.233954   -0.685583 moveto   -0.207147   -0.700875 lineto
    0.615638   -0.299167 moveto    0.666468   -0.288439 lineto
    0.666468   -0.288439 moveto    0.697488   -0.229097 lineto
   -0.533733    0.301421 moveto   -0.498015    0.396135 lineto
   -0.551803    0.468203 moveto   -0.652065    0.418070 lineto
   -0.362803   -0.923811 moveto   -0.386937   -0.909943 lineto
    0.390970   -0.907249 moveto    0.419457   -0.893992 lineto
    0.419457   -0.893992 moveto    0.432024   -0.883795 lineto
    0.358563   -0.914514 moveto    0.390970   -0.907249 lineto
   -0.725198   -0.570962 moveto   -0.758718   -0.514476 lineto
   -0.075202   -0.016197 moveto   -0.122499    0.072669 lineto
   -0.243604    0.001672 moveto   -0.195229   -0.080055 lineto
   -0.563626   -0.596505 moveto   -0.520734   -0.603055 lineto
   -0.541165   -0.530998 moveto   -0.590471   -0.520654 lineto
   -0.083822   -0.843187 moveto   -0.041446   -0.832883 lineto
   -0.041102   -0.809110 moveto   -0.091528   -0.793479 lineto
   -0.091528   -0.793479 moveto   -0.120427   -0.803153 lineto
    0.507570    0.511339 moveto    0.604923    0.512277 lineto
    0.512212    0.704400 moveto    0.400491    0.702462 lineto
   -0.940945    0.069180 moveto   -0.940268    0.148103 lineto
   -0.985203    0.081430 moveto   -0.981169    0.002316 lineto
    0.257688   -0.001205 moveto    0.196322    0.043431 lineto
    0.196322    0.043431 moveto    0.127898    0.010345 lineto
    0.127898    0.010345 moveto    0.121846   -0.090011 lineto
   -0.703069   -0.175837 moveto   -0.665097   -0.239164 lineto
    0.049977   -0.975084 moveto    0.021361   -0.980214 lineto
    0.056586   -0.988402 moveto    0.089403   -0.982733 lineto
    0.101627    0.275362 moveto    0.191581    0.339525 lineto
    0.186108    0.429438 moveto    0.063642    0.489174 lineto
    0.866967   -0.464368 moveto    0.877449   -0.413257 lineto
    0.816787   -0.516812 moveto    0.830657   -0.516811 lineto
    0.497649   -0.853732 moveto    0.476205   -0.872503 lineto
    0.525410   -0.848072 moveto    0.549465   -0.829242 lineto
    0.294149   -0.804996 moveto    0.317808   -0.779324 lineto
    0.255081   -0.767691 moveto    0.231161   -0.795608 lineto
    0.105535   -0.937689 moveto    0.074775   -0.946678 lineto
    0.115667   -0.959877 moveto    0.140624   -0.952391 lineto
    0.140616   -0.938824 moveto    0.105535   -0.937689 lineto
   -0.116175   -0.993173 moveto   -0.114401   -0.993435 lineto
   -0.995566   -0.069088 moveto   -0.987453   -0.069552 lineto
   -0.452221   -0.857690 moveto   -0.476265   -0.842817 lineto
   -0.476265   -0.842817 moveto   -0.502419   -0.833685 lineto
   -0.502419   -0.833685 moveto   -0.506337   -0.842264 lineto
   -0.506337   -0.842264 moveto   -0.485199   -0.858822 lineto
   -0.436006   -0.875989 moveto   -0.452221   -0.857690 lineto
   -0.683071   -0.112610 moveto   -0.627255   -0.113930 lineto
   -0.588619   -0.033414 moveto   -0.608560    0.014646 lineto
   -0.297457   -0.817044 moveto   -0.334137   -0.793274 lineto
   -0.364819   -0.789600 moveto   -0.373469   -0.807631 lineto
   -0.373469   -0.807631 moveto   -0.335490   -0.837640 lineto
   -0.298926   -0.838614 moveto   -0.297457   -0.817044 lineto
   -0.586027   -0.342771 moveto   -0.638101   -0.347235 lineto
   -0.638101   -0.347235 moveto   -0.642547   -0.385575 lineto
   -0.642547   -0.385575 moveto   -0.603522   -0.439791 lineto
   -0.603522   -0.439791 moveto   -0.563087   -0.443799 lineto
   -0.710971   -0.517792 moveto   -0.750890   -0.496077 lineto
   -0.176471   -0.983782 moveto   -0.171086   -0.983323 lineto
   -0.247124   -0.967814 moveto   -0.222718   -0.974674 lineto
    0.631714   -0.619427 moveto    0.582390   -0.641496 lineto
    0.557198   -0.678573 moveto    0.570226   -0.696556 lineto
    0.570226   -0.696556 moveto    0.602267   -0.682307 lineto
   -0.116175   -0.993173 moveto   -0.101155   -0.994536 lineto
   -0.133083   -0.987813 moveto   -0.171086   -0.983323 lineto
   -0.018211   -0.765395 moveto   -0.017639   -0.798842 lineto
    0.006668   -0.705481 moveto    0.013738   -0.675159 lineto
    0.013738   -0.675159 moveto   -0.022575   -0.649289 lineto
   -0.610171   -0.235361 moveto   -0.665097   -0.239164 lineto
   -0.674678   -0.292045 moveto   -0.638101   -0.347235 lineto
    0.100844   -0.685569 moveto    0.152126   -0.672323 lineto
    0.166299   -0.637914 moveto    0.131360   -0.609728 lineto
    0.754649   -0.295960 moveto    0.748750   -0.223293 lineto
    0.748750   -0.223293 moveto    0.697488   -0.229097 lineto
   -0.039743   -0.987774 moveto   -0.009532   -0.990541 lineto
   -0.009532   -0.990541 moveto    0.023882   -0.987188 lineto
    0.023882   -0.987188 moveto    0.021361   -0.980214 lineto
    0.182571    0.978993 moveto    0.355896    0.922741 lineto
    0.355896    0.922741 moveto    0.467447    0.882786 lineto
    0.467447    0.882786 moveto    0.466579    0.884479 lineto
    0.724048   -0.336433 moveto    0.683416   -0.339003 lineto
   -0.697792   -0.478663 moveto   -0.748787   -0.420071 lineto
   -0.773617   -0.440081 moveto   -0.750890   -0.496077 lineto
    0.317649   -0.918266 moveto    0.311725   -0.910942 lineto
    0.276837   -0.917511 moveto    0.244099   -0.934446 lineto
    0.244099   -0.934446 moveto    0.251387   -0.941348 lineto
   -0.624515   -0.767374 moveto   -0.628274   -0.758866 lineto
   -0.694897   -0.705969 moveto   -0.679612   -0.726873 lineto
    0.973305    0.201946 moveto    0.939150    0.297473 lineto
    0.974936    0.109165 moveto    0.973305    0.201946 lineto
   -0.681666   -0.481328 moveto   -0.669959   -0.462488 lineto
   -0.669959   -0.462488 moveto   -0.688337   -0.396508 lineto
   -0.203542   -0.737616 moveto   -0.207147   -0.700875 lineto
   -0.257664   -0.874325 moveto   -0.286526   -0.879869 lineto
   -0.196730   -0.973143 moveto   -0.202952   -0.974721 lineto
   -0.202952   -0.974721 moveto   -0.171086   -0.983323 lineto
   -0.160375   -0.977510 moveto   -0.196730   -0.973143 lineto
   -0.142942   -0.532552 moveto   -0.183050   -0.499394 lineto
   -0.228197   -0.502773 moveto   -0.242996   -0.556212 lineto
   -0.242996   -0.556212 moveto   -0.206414   -0.587124 lineto
   -0.339990   -0.847536 moveto   -0.335490   -0.837640 lineto
   -0.411824   -0.802184 moveto   -0.413305   -0.822425 lineto
   -0.387646   -0.840042 moveto   -0.339990   -0.847536 lineto
   -0.999815   -0.002060 moveto   -0.995308    0.079808 lineto
   -0.988363    0.152064 moveto   -0.988467    0.151439 lineto
   -0.880054   -0.107435 moveto   -0.857674   -0.092863 lineto
   -0.857674   -0.092863 moveto   -0.848118   -0.018226 lineto
   -0.848118   -0.018226 moveto   -0.885698    0.060454 lineto
   -0.238582   -0.637174 moveto   -0.293841   -0.618115 lineto
   -0.281320   -0.690109 moveto   -0.233954   -0.685583 lineto
   -0.914780    0.033904 moveto   -0.885698    0.060454 lineto
   -0.866115    0.206065 moveto   -0.904991    0.224909 lineto
   -0.904991    0.224909 moveto   -0.940268    0.148103 lineto
    0.698250   -0.715410 moveto    0.679872   -0.733331 lineto
   -0.045383   -0.718255 moveto   -0.077103   -0.699987 lineto
   -0.077103   -0.699987 moveto   -0.125622   -0.711233 lineto
   -0.125622   -0.711233 moveto   -0.126109   -0.745586 lineto
   -0.126109   -0.745586 moveto   -0.090627   -0.762817 lineto
   -0.046970   -0.752172 moveto   -0.045383   -0.718255 lineto
   -0.621780   -0.707739 moveto   -0.623095   -0.688473 lineto
   -0.691921   -0.637099 moveto   -0.690172   -0.656967 lineto
    0.693774   -0.554649 moveto    0.704473   -0.499879 lineto
    0.617585    0.596980 moveto    0.604923    0.512277 lineto
    0.265596   -0.907822 moveto    0.292814   -0.890566 lineto
    0.230313   -0.888180 moveto    0.216823   -0.900600 lineto
   -0.034641   -0.998837 moveto   -0.056713   -0.998276 lineto
   -0.056713   -0.998276 moveto   -0.054994   -0.998487 lineto
    0.317808   -0.779324 moveto    0.361593   -0.768210 lineto
    0.361593   -0.768210 moveto    0.384095   -0.741785 lineto
    0.320481   -0.730441 moveto    0.297503   -0.758395 lineto
    0.297503   -0.758395 moveto    0.317808   -0.779324 lineto
   -0.574567   -0.816897 moveto   -0.540150   -0.839303 lineto
   -0.540150   -0.839303 moveto   -0.528837   -0.842331 lineto
   -0.561170   -0.815678 moveto   -0.586247   -0.800471 lineto
    0.537147   -0.390505 moveto    0.521204   -0.426163 lineto
    0.578714   -0.471064 moveto    0.618896   -0.408067 lineto
   -0.870382   -0.438586 moveto   -0.896595   -0.387621 lineto
   -0.860881   -0.480037 moveto   -0.870382   -0.438586 lineto
    0.094854   -0.295304 moveto    0.095323   -0.226420 lineto
    0.019676   -0.327943 moveto    0.094854   -0.295304 lineto
   -0.962584   -0.269095 moveto   -0.976930   -0.202360 lineto
   -0.989524   -0.141821 moveto   -0.989461   -0.144802 lineto
    0.130833   -0.982302 moveto    0.089403   -0.982733 lineto
    0.059525   -0.992831 moveto    0.086492   -0.992315 lineto
    0.540719   -0.840792 moveto    0.573753   -0.818819 lineto
    0.573753   -0.818819 moveto    0.598221   -0.799589 lineto
    0.598221   -0.799589 moveto    0.584360   -0.806015 lineto
    0.584360   -0.806015 moveto    0.549465   -0.829242 lineto
   -0.419923   -0.907061 moveto   -0.409203   -0.909691 lineto
   -0.409203   -0.909691 moveto   -0.437176   -0.893661 lineto
   -0.314029   -0.870660 moveto   -0.286526   -0.879869 lineto
   -0.298926   -0.838614 moveto   -0.335490   -0.837640 lineto
   -0.677143    0.722789 moveto   -0.769898    0.632235 lineto
   -0.769898    0.632235 moveto   -0.829329    0.528212 lineto
   -0.111759   -0.893821 moveto   -0.114493   -0.874238 lineto
   -0.114493   -0.874238 moveto   -0.153511   -0.860867 lineto
   -0.901781   -0.347100 moveto   -0.896595   -0.387621 lineto
   -0.243153    0.166733 moveto   -0.187648    0.252034 lineto
   -0.227635    0.339220 moveto   -0.334720    0.338433 lineto
   -0.334720    0.338433 moveto   -0.388851    0.240112 lineto
    0.002993   -0.921588 moveto    0.036946   -0.927536 lineto
    0.072193   -0.899587 moveto    0.037276   -0.893113 lineto
    0.949200   -0.242108 moveto    0.920920   -0.304561 lineto
    0.920920   -0.304561 moveto    0.909670   -0.356518 lineto
    0.779469   -0.596618 moveto    0.765671   -0.597056 lineto
   -0.577053    0.106173 moveto   -0.608560    0.014646 lineto
   -0.588619   -0.033414 moveto   -0.533640   -0.051013 lineto
   -0.527927   -0.492356 moveto   -0.563087   -0.443799 lineto
    0.137228   -0.990521 moveto    0.131059   -0.991375 lineto
   -0.350107   -0.423403 moveto   -0.391709   -0.417579 lineto
   -0.391709   -0.417579 moveto   -0.417979   -0.463016 lineto
   -0.331498   -0.513781 moveto   -0.311589   -0.472404 lineto
    0.593979   -0.727015 moveto    0.549286   -0.746705 lineto
    0.532570   -0.788893 moveto    0.557036   -0.777706 lineto
    0.352791   -0.812505 moveto    0.377582   -0.787133 lineto
    0.377582   -0.787133 moveto    0.361593   -0.768210 lineto
   -0.480822   -0.824046 moveto   -0.516204   -0.798770 lineto
   -0.516204   -0.798770 moveto   -0.546607   -0.790703 lineto
   -0.046970   -0.752172 moveto   -0.090627   -0.762817 lineto
   -0.083953    0.237154 moveto   -0.187648    0.252034 lineto
   -0.192250    0.076364 moveto   -0.122499    0.072669 lineto
    0.711239   -0.558713 moveto    0.753332   -0.518250 lineto
    0.764309   -0.468645 moveto    0.734484   -0.465484 lineto
    0.143763   -0.570881 moveto    0.131360   -0.609728 lineto
    0.386211   -0.692969 moveto    0.439625   -0.676687 lineto
    0.459958   -0.634193 moveto    0.446571   -0.622621 lineto
   -0.159303   -0.437806 moveto   -0.133472   -0.433149 lineto
   -0.099886   -0.368621 moveto   -0.116182   -0.335785 lineto
   -0.116182   -0.335785 moveto   -0.198117   -0.327879 lineto
   -0.198117   -0.327879 moveto   -0.225462   -0.394447 lineto
   -0.225462   -0.394447 moveto   -0.159303   -0.437806 lineto
    0.203027   -0.301114 moveto    0.139467   -0.326721 lineto
    0.235652   -0.397696 moveto    0.248961   -0.336769 lineto
   -0.223720   -0.852594 moveto   -0.187575   -0.867249 lineto
   -0.187575   -0.867249 moveto   -0.153511   -0.860867 lineto
   -0.744111   -0.668055 moveto   -0.744614   -0.667496 lineto
    0.394949    0.398206 moveto    0.383827    0.309332 lineto
    0.383827    0.309332 moveto    0.461625    0.224427 lineto
   -0.443229   -0.777196 moveto   -0.482180   -0.769883 lineto
   -0.449663   -0.815004 moveto   -0.413305   -0.822425 lineto
   -0.717633   -0.368858 moveto   -0.688337   -0.396508 lineto
    0.076355   -0.959214 moveto    0.074775   -0.946678 lineto
   -0.989524   -0.141821 moveto   -0.976930   -0.202360 lineto
   -0.972557   -0.148207 moveto   -0.987453   -0.069552 lineto
   -0.912922   -0.375083 moveto   -0.896595   -0.387621 lineto
   -0.946513   -0.276245 moveto   -0.939461   -0.313128 lineto
    0.540719   -0.840792 moveto    0.520871   -0.853635 lineto
    0.367002   -0.717895 moveto    0.384095   -0.741785 lineto
   -0.293569   -0.904844 moveto   -0.268808   -0.899840 lineto
   -0.268808   -0.899840 moveto   -0.286526   -0.879869 lineto
    0.188840   -0.802269 moveto    0.231161   -0.795608 lineto
   -0.253263   -0.955905 moveto   -0.227744   -0.961645 lineto
    0.091557   -0.994556 moveto    0.065598   -0.997431 lineto
    0.065598   -0.997431 moveto    0.069958   -0.997550 lineto
   -0.959097   -0.153342 moveto   -0.949386   -0.098210 lineto
   -0.966050   -0.006933 moveto   -0.981169    0.002316 lineto
   -0.981169    0.002316 moveto   -0.987453   -0.069552 lineto
   -0.086934   -0.518457 moveto   -0.078922   -0.473128 lineto
   -0.078922   -0.473128 moveto   -0.133472   -0.433149 lineto
   -0.308835   -0.595927 moveto   -0.293841   -0.618115 lineto
   -0.169422   -0.755609 moveto   -0.126109   -0.745586 lineto
   -0.159628   -0.691849 moveto   -0.207147   -0.700875 lineto
    0.655483   -0.480372 moveto    0.670932   -0.444092 lineto
    0.670932   -0.444092 moveto    0.644306   -0.400467 lineto
   -0.748098   -0.657508 moveto   -0.728305   -0.683551 lineto
   -0.728305   -0.683551 moveto   -0.699973   -0.712220 lineto
   -0.699973   -0.712220 moveto   -0.679612   -0.726873 lineto
    0.678964   -0.025331 moveto    0.716308    0.052092 lineto
    0.716308    0.052092 moveto    0.677422    0.140430 lineto
    0.608240    0.140043 moveto    0.580575    0.078643 lineto
    0.445895   -0.859567 moveto    0.418180   -0.880395 lineto
    0.418180   -0.880395 moveto    0.432024   -0.883795 lineto
    0.067158   -0.660139 moveto    0.076632   -0.626464 lineto
    0.040221   -0.598970 moveto   -0.016667   -0.616162 lineto
   -0.016667   -0.616162 moveto   -0.022575   -0.649289 lineto
   -0.011287   -0.845428 moveto   -0.041446   -0.832883 lineto
    0.127101   -0.991177 moveto    0.137228   -0.990521 lineto
    0.137228   -0.990521 moveto    0.158124   -0.987419 lineto
    0.159173   -0.984494 moveto    0.127101   -0.991177 lineto
    0.154378   -0.119945 moveto    0.121846   -0.090011 lineto
    0.001290   -0.161553 moveto    0.015683   -0.195399 lineto
    0.015683   -0.195399 moveto    0.095323   -0.226420 lineto
   -0.099886   -0.368621 moveto   -0.133472   -0.433149 lineto
   -0.494661   -0.669793 moveto   -0.539520   -0.660762 lineto
   -0.539520   -0.660762 moveto   -0.543292   -0.686726 lineto
   -0.024397   -0.390017 moveto   -0.027618   -0.454562 lineto
   -0.188158    0.525908 moveto   -0.097103    0.620211 lineto
   -0.129427    0.710624 moveto   -0.280433    0.714413 lineto
   -0.819735   -0.571997 moveto   -0.827743   -0.561108 lineto
   -0.128834   -0.945701 moveto   -0.162225   -0.936076 lineto
   -0.162225   -0.936076 moveto   -0.202467   -0.937532 lineto
    0.229174   -0.973166 moveto    0.199583   -0.979552 lineto
    0.199583   -0.979552 moveto    0.173458   -0.984841 lineto
   -0.366864    0.608799 moveto   -0.280433    0.714413 lineto
    0.692203   -0.719014 moveto    0.655486   -0.750992 lineto
    0.655486   -0.750992 moveto    0.631039   -0.774518 lineto
    0.631039   -0.774518 moveto    0.643112   -0.765772 lineto
   -0.857704   -0.234580 moveto   -0.881038   -0.196809 lineto
   -0.881038   -0.196809 moveto   -0.908726   -0.201596 lineto
   -0.908726   -0.201596 moveto   -0.911384   -0.239023 lineto
   -0.969867   -0.202168 moveto   -0.976930   -0.202360 lineto
   -0.474399    0.223462 moveto   -0.388851    0.240112 lineto
   -0.384594    0.424442 moveto   -0.498015    0.396135 lineto
   -0.847825   -0.414689 moveto   -0.848755   -0.455781 lineto
   -0.793485   -0.522388 moveto   -0.789518   -0.498002 lineto
    0.442813    0.142373 moveto    0.461625    0.224427 lineto
    0.290396    0.271505 moveto    0.283146    0.179028 lineto
    0.354722    0.116394 moveto    0.442813    0.142373 lineto
   -0.408273    0.885921 moveto   -0.257015    0.925791 lineto
   -0.117882    0.981762 moveto   -0.160304    0.987068 lineto
   -0.313842   -0.947371 moveto   -0.347776   -0.936062 lineto
   -0.347776   -0.936062 moveto   -0.357947   -0.933647 lineto
   -0.357947   -0.933647 moveto   -0.343935   -0.938994 lineto
   -0.193030   -0.822291 moveto   -0.156583   -0.837445 lineto
   -0.119247   -0.829429 moveto   -0.120427   -0.803153 lineto
   -0.167544   -0.785766 moveto   -0.195789   -0.794746 lineto
   -0.195789   -0.794746 moveto   -0.193030   -0.822291 lineto
    0.214220   -0.233341 moveto    0.149789   -0.190849 lineto
    0.149789   -0.190849 moveto    0.095323   -0.226420 lineto
    0.457558   -0.456400 moveto    0.448101   -0.498916 lineto
    0.544295   -0.477083 moveto    0.521204   -0.426163 lineto
   -0.543399   -0.802933 moveto   -0.546607   -0.790703 lineto
   -0.614108   -0.748435 moveto   -0.604779   -0.768940 lineto
   -0.511345   -0.571100 moveto   -0.520734   -0.603055 lineto
   -0.919274   -0.393612 moveto   -0.917447   -0.397857 lineto
   -0.877488   -0.479422 moveto   -0.870231   -0.488650 lineto
   -0.870231   -0.488650 moveto   -0.885837   -0.451467 lineto
   -0.885837   -0.451467 moveto   -0.900207   -0.422366 lineto
   -0.900207   -0.422366 moveto   -0.923427   -0.381451 lineto
   -0.512391   -0.718440 moveto   -0.543292   -0.686726 lineto
   -0.584648   -0.676620 moveto   -0.585413   -0.699571 lineto
    0.504500   -0.521186 moveto    0.448101   -0.498916 lineto
   -0.312573   -0.933936 moveto   -0.333819   -0.921513 lineto
   -0.375075   -0.907313 moveto   -0.386937   -0.909943 lineto
   -0.327962   -0.935625 moveto   -0.312573   -0.933936 lineto
   -0.371046   -0.584742 moveto   -0.386617   -0.621694 lineto
   -0.386617   -0.621694 moveto   -0.353120   -0.656747 lineto
   -0.353120   -0.656747 moveto   -0.317231   -0.660147 lineto
   -0.317231   -0.660147 moveto   -0.293841   -0.618115 lineto
    0.027738   -0.106794 moveto    0.121846   -0.090011 lineto
   -0.772905   -0.609249 moveto   -0.781845   -0.583378 lineto
   -0.781845   -0.583378 moveto   -0.812766   -0.539241 lineto
   -0.812766   -0.539241 moveto   -0.837264   -0.519473 lineto
   -0.222734   -0.930070 moveto   -0.202467   -0.937532 lineto
   -0.208518   -0.908965 moveto   -0.231506   -0.911151 lineto
    0.732674   -0.680570 moveto    0.732493   -0.680775 lineto
    0.608486   -0.759944 moveto    0.569519   -0.784136 lineto
    0.532438   -0.833559 moveto    0.549465   -0.829242 lineto
    0.596706   -0.785773 moveto    0.554239   -0.813089 lineto
    0.507647   -0.828987 moveto    0.542927   -0.810899 lineto
    0.542927   -0.810899 moveto    0.569519   -0.784136 lineto
    0.503075   -0.814142 moveto    0.507647   -0.828987 lineto
    0.038225   -0.943263 moveto    0.074775   -0.946678 lineto
    0.071265   -0.918804 moveto    0.036946   -0.927536 lineto
   -0.615549   -0.480143 moveto   -0.603522   -0.439791 lineto
   -0.642547   -0.385575 moveto   -0.688337   -0.396508 lineto
    0.856824    0.091518 moveto    0.871344    0.006652 lineto
    0.871344    0.006652 moveto    0.904121   -0.017393 lineto
    0.033778    0.123418 moveto    0.050614    0.046543 lineto
    0.050614    0.046543 moveto    0.127898    0.010345 lineto
    0.740499   -0.412964 moveto    0.734484   -0.465484 lineto
    0.285799   -0.504922 moveto    0.272963   -0.565463 lineto
    0.317585   -0.579804 moveto    0.370454   -0.524458 lineto
   -0.091528   -0.793479 moveto   -0.090627   -0.762817 lineto
   -0.167544   -0.785766 moveto   -0.120427   -0.803153 lineto
    0.431365   -0.727897 moveto    0.384095   -0.741785 lineto
    0.821305   -0.432893 moveto    0.810070   -0.478617 lineto
    0.810070   -0.478617 moveto    0.826962   -0.482715 lineto
    0.826962   -0.482715 moveto    0.870504   -0.416880 lineto
    0.357860   -0.909237 moveto    0.385534   -0.892237 lineto
    0.340879   -0.893028 moveto    0.311725   -0.910942 lineto
    0.884256    0.304448 moveto    0.923311    0.258895 lineto
    0.923311    0.258895 moveto    0.939150    0.297473 lineto
   -0.481867   -0.498534 moveto   -0.463402   -0.458724 lineto
   -0.500810   -0.404560 moveto   -0.546980   -0.401471 lineto
   -0.546980   -0.401471 moveto   -0.563087   -0.443799 lineto
   -0.380390   -0.513048 moveto   -0.417979   -0.463016 lineto
   -0.454411    0.888490 moveto   -0.395493    0.918469 lineto
   -0.378254   -0.888667 moveto   -0.349063   -0.897841 lineto
   -0.349063   -0.897841 moveto   -0.331211   -0.892686 lineto
   -0.331211   -0.892686 moveto   -0.345329   -0.878216 lineto
   -0.408273    0.885921 moveto   -0.516143    0.789135 lineto
   -0.516143    0.789135 moveto   -0.470369    0.749929 lineto
   -0.470369    0.749929 moveto   -0.324171    0.786418 lineto
    0.903917   -0.411265 moveto    0.920606   -0.362440 lineto
    0.920606   -0.362440 moveto    0.909670   -0.356518 lineto
    0.959892   -0.031598 moveto    0.938159   -0.113961 lineto
    0.939014   -0.171873 moveto    0.955399   -0.183073 lineto
    0.160406   -0.732219 moveto    0.183233   -0.697229 lineto
    0.284380   -0.935648 moveto    0.251387   -0.941348 lineto
stroke
grestore
/Helvetica findfont
    0.067227 scalefont setfont
stroke
showpage
%%EOF

